{
    "Main Lens": {
        "Manufacturer": "Olympus",
        "Model": "Olympus Zuiko Auto-Zoom 85-250mm F5",
        "Patch Size (mm)": 0.20000000298023224
    },
    "Main Lens Aperture": {
        "Number of Blades": 12,
        "Diameter (mm)": 20.999631881713867,
        "f-number": 6.590000152587891,
        "Rotation (degrees)": 0.0
    },
    "Sensor": {
        "Name": "Canon EOS 1000D",
        "ID": "0",
        "Size Type": "preset",
        "Size Type ID": "37",
        "Width (mm)": 7.222219944000244,
        "Height (mm)": 7.222219944000244,
        "Resolution x": 585,
        "Resolution y": 585,
        "Exposure": 10.0
    },
    "MLA": {
        "Type": "1",
        "Rotation (degrees)": 0.0,
        "Thickness (mm)": 0.10000000149011612,
        "ML Diameter (um)": 110.56700134277344,
        "ML Pitch (um)": 110.56700134277344,
        "Focal Length 1 (mm)": 0.8845369815826416,
        "Focal Length 2 (mm)": 1.5,
        "Focal Length 3 (mm)": 1.5
    },
    "Focus Properties": {
        "Method": "0",
        "Focus Distance (m)": 0.29620012640953064,
        "Distance Aperture to Sensor (mm)": 174.14024353027344,
        "MLA Positioning Type": "0",
        "Distance Sensor to MLA (mm)": 0.8745369911193848
    },
    "Measured Properties": {
        "Main Lens Focal Length (mm)": 85.11955853470582,
        "H_scene (mm)": 1.0269723361386411,
        "H_cam (mm)": 54.527873428669324,
        "Entrance Pupil (mm)": 36.2930310616519,
        "Entrance Pupil Height (mm)": 1.7083873168320536,
        "Exit Pupil (mm)": -5.690808527083377,
        "Exit Pupil Height (mm)": 2.917611146415054
    },
    "Variable Lens Surface Distances (mm)": {
        "cg.Surface_05": 1.03,
        "cg.Surface_12": 45.0,
        "cg.Surface_15": 15.21,
        "cg.Surface_26": 54.36
    }
}