{
    "Main Lens": {
        "Manufacturer": "Canon",
        "Model": "Canon EF85mm f1.8 USM",
        "Patch Size (mm)": 0.20000000298023224
    },
    "Sensor": {
        "Name": "Canon EOS 70D",
        "ID": "23",
        "Size Type": "preset",
        "Size Type ID": "37",
        "Width (mm)": 23.219999313354492,
        "Height (mm)": 23.219999313354492,
        "Resolution x": 1161,
        "Resolution y": 1161,
        "Exposure": 10.0,
        "Flip": "0"
    },
    "Main Lens Aperture": {
        "Blade Type": "0",
        "Number of Blades": 12,
        "Diameter (mm)": 6.7480268478393555,
        "f-number": 8.0,
        "Rotation (degrees)": 0.0
    },
    "Zoom": {
        "Focal length (mm)": 100.0,
        "Refocus on Zoom": true
    },
    "MLA": {
        "Type": "1",
        "Rotation (degrees)": 0.0,
        "Thickness (mm)": 0.10000000149011612,
        "IOR": 10.0,
        "ML Diameter (um)": 177.84036254882812,
        "ML Pitch (um)": 177.84036254882812,
        "Focal Length 1 (mm)": 1.383607029914856,
        "Focal Length 2 (mm)": 1.5,
        "Focal Length 3 (mm)": 1.5,
        "Focal Length 4 (mm)": 1.5,
        "Number of MLIs": 129.0
    },
    "Spectral Tracing": {
        "Wavelength (nm)": 587.5599975585938
    },
    "Focus Properties": {
        "Method": "0",
        "Focus Distance (m)": 10000.0,
        "Distance Aperture to Sensor (mm)": 84.18942260742188,
        "MLA Positioning Type": "1",
        "Distance Sensor to MLA (mm)": 1.3736070394515991,
        "Distance Sensor to MLA PP (mm)": 1.383607029914856,
        "Desired Disparity (MLI ratio)": 0.20000000298023224
    },
    "Measured Properties": {
        "Main Lens Focal Length (mm)": 84.99766540527344,
        "H_scene (mm)": -27.317415237426758,
        "H_cam (mm)": -2.3025753498077393,
        "Entrance Pupil (mm)": -5.735278129577637,
        "Entrance Pupil Radius (mm)": 5.451112270355225,
        "Exit Pupil (mm)": -31.24094009399414,
        "Exit Pupil Height (mm)": 7.322365760803223,
        "Pupil Magnification Paraxial": -1.34046471118927,
        "Pupil Magnification": 1.0,
        "Working f-number": 8.000067710876465
    },
    "Variable Lens Surface Distances (mm)": {}
}