o_GT,Error_GT,Error_measured,lambda,o_predicted,o_measured,s_GT,s_measured
200,-0.24805118225872747,-0.2468523378604307,0.4,249.6102364517455,249.37046757208614,4.4556110989000315,4.46416587220992
201,-0.24530961262950077,-0.24411672834364012,0.402,250.30723213852966,250.06746239707167,4.430835885492671,4.439343090392818
202,-0.24259899542603564,-0.24141203071991468,0.404,251.0049970760592,250.76523020542277,4.406171148996533,4.414630997602607
203,-0.23991887950015506,-0.23873779450117016,0.406,251.70353253853148,251.46377228373754,4.381616152102366,4.390028855114403
204,-0.23726882256352796,-0.2360935780464255,0.408,252.4028398029597,252.1630899214708,4.357170164047306,4.365535930762277
205,-0.2346483909716125,-0.23347894834606067,0.41,253.10292014918056,252.86318441094244,4.332832460542375,4.341151498866616
206,-0.23205715951389275,-0.23011891545975102,0.412,253.8037748598619,253.4044965847087,4.3086023237009545,4.322389851136798
207,-0.22949471121019735,-0.22756600197359203,0.414,254.50540522051085,254.10616240853355,4.2844790419682,4.298189374902498
208,-0.22696063711289063,-0.2250414015005545,0.416,255.20781251948125,254.80861151211533,4.260461910051385,4.274095388163549
209,-0.22445453611474692,-0.2225447139127585,0.418,255.9109980479821,255.51184520776653,4.2365502288511605,4.250107189583484
210,-0.22197601476230894,-0.22083502412910705,0.42,256.6149631000849,256.3753550671125,4.212743305393728,4.220831772540084
211,-0.2195246870745591,-0.21838927946524667,0.422,257.319708972732,257.08013796716705,4.1890404527638925,4.1970834104331995
212,-0.21710017436671858,-0.2163467018420578,0.424,258.02523696574434,257.86550079051625,4.165440990038993,4.170772754506243
213,-0.2147021050790128,-0.21395231078944474,0.426,258.7315483818297,258.5718421981517,4.141944242223701,4.147245930853748
214,-0.2123301146102352,-0.2123301146102352,0.428,259.43864452659034,259.43864452659034,4.118549540185663,4.118549540185663
215,-0.20998384515595886,-0.20998384515595886,0.43,260.14652670853116,260.14652670853116,4.095256220591981,4.095256220591981
216,-0.2076629455512415,-0.2076629455512415,0.432,260.85519623906816,260.85519623906816,4.072063625846517,4.072063625846517
217,-0.20536707111767782,-0.20536707111767782,0.434,261.5646544325361,261.5646544325361,4.048971104028012,4.048971104028012
218,-0.2030958835146632,-0.20236415324795287,0.436,262.2749026061966,262.1153854080537,4.025978008829002,4.031131260680303
219,-0.2008490505947334,-0.200120870070165,0.438,262.9859420802466,262.82647054536613,4.003083699495517,4.008207646630871
220,-0.19862624626284742,-0.19753959817622022,0.44,263.69777417782643,263.45871159876845,3.9802875407675646,3.9879296928458383
221,-0.19642715033949326,-0.19534576398379538,0.442,264.410400225028,264.1714138404188,3.9575889028203712,3.9651874735137858
222,-0.1942514484274898,-0.19245893516253945,0.444,265.12382155090273,264.72588360608376,3.9349871612063763,3.947579120122237
223,-0.19209883178237866,-0.19031498224720766,0.446,265.83803948747044,265.4402410411273,3.912481696797968,3.9250016382277213
224,-0.1899689971862816,-0.18819376388191703,0.448,266.5530553697271,266.1554031095494,3.890071895730952,3.9025201257972904
225,-0.18786164682512588,-0.18680101754667577,0.45,267.2688705356533,267.03022894800205,3.867757149348737,3.8751832430754862
226,-0.18577648816912806,-0.18472097791685083,0.452,267.98548632622294,267.7469410092083,3.8455368541472286,3.8529202849071913
227,-0.1837132338564358,-0.1826628153937921,0.454,268.7029040854109,268.4644590943908,3.8234104117204204,3.830751359710924
228,-0.18167160157983406,-0.18062624808777478,0.456,269.42112516020217,269.18278456401265,3.8013772287066803,3.808675872985797
229,-0.17965131397641806,-0.17895756675494245,0.458,270.14015090059974,269.9812827868818,3.779436716735703,3.784274395733125
230,-0.1776520985201451,-0.17696169462097225,0.46,270.8599826596334,270.7011897628236,3.7575882923761417,3.762398005390383
231,-0.17567368741717718,-0.17498660975752425,0.462,271.5806217933679,271.4219068539881,3.7358313770838913,3.740613241246559
232,-0.1737158175039314,-0.17269046380842726,0.464,272.3020696609121,272.0641876035551,3.7141653971510173,3.7212965947135475
233,-0.1717782301477533,-0.17075781334695952,0.466,273.0243276244265,272.78657050984157,3.6925897836553356,3.6996795560399542
234,-0.16986067115014072,-0.16884516678624242,0.468,273.7473970491329,273.5097690279807,3.671103972410607,3.678152492037635
235,-0.16796289065243492,-0.16695227463855977,0.47,274.4712793033222,274.23378454006155,3.6497074039173656,3.656714842132887
236,-0.16608464304391285,-0.16507889165804246,0.472,275.19597575836343,274.958618431298,3.6283995233143473,3.635366050399111
237,-0.16422568687220324,-0.16322477675121114,0.474,275.92148778871217,275.68427209003704,3.607179780330531,3.614105565508766
238,-0.16238578475596457,-0.16138969288978025,0.476,276.64781677191957,276.4107469077677,3.5860476292377648,3.592932840685901
239,-0.1605647032997526,-0.1599036509043954,0.478,277.37496408864087,277.2169725661505,3.565002528803983,3.5695657320408523
240,-0.15876221301101623,-0.15810434431480497,0.48,278.1029311226439,277.9450426355532,3.5440439422470025,3.5485803184930784
241,-0.15697808821916337,-0.1563233885562501,0.482,278.8317192608184,278.6739366420563,3.523171337188881,3.5276809965004827
242,-0.1552121069966295,-0.15456056192187,0.484,279.56132989318434,279.40365598509254,3.5023841856108375,3.5068672373684193
243,-0.15346405108189706,-0.15281564636734823,0.486,280.291764412901,280.1342020672656,3.4816819638087324,3.4861385167224075
244,-0.15173370580440906,-0.1507660593218308,0.488,281.0230242162758,280.7869184745267,3.461064152349079,3.4677093955215894
245,-0.15002086001131992,-0.14905788013351184,0.49,281.7551107027734,281.5191806327104,3.440530236025607,3.447136054078776
246,-0.14832530599603286,-0.14736697234142215,0.492,282.4880252750241,282.25227519598985,3.4200797038163437,3.426646256847671
247,-0.1466468394284741,-0.14601085810076195,0.494,283.2217693388331,283.0646819508882,3.3997120488412222,3.404063680263739
248,-0.14498525928705558,-0.14435235032022461,0.496,283.9563443031898,283.7993828794157,3.3794267683202035,3.3837524345836534
249,-0.1433403677922742,-0.1427105181919601,0.498,284.6917515802763,284.53491902979806,3.359223363531902,3.3635231694372227
250,-0.14171197034190663,-0.14108516730835707,0.5,285.42799258547666,285.27129182708927,3.339101339772718,3.343375389487627
251,-0.1400998754477536,-0.13947610637285673,0.502,286.16506873738615,286.00850269958704,3.319060206316457,3.3233086033805423
252,-0.13850389467388924,-0.13788314713826166,0.504,286.9029814578201,286.74655307884194,3.2990994763744377,3.303322323704197
253,-0.13692384257637585,-0.13630610434650928,0.506,287.6417321718231,287.48544439966685,3.2792186670560777,3.2834160669499095
254,-0.13535953664440237,-0.1347447956698669,0.508,288.3813223076782,288.2251781001462,3.2594172993299537,3.263589353473096
255,-0.13381079724280912,-0.13319904165351126,0.51,289.1217532969163,288.96575562164537,3.239694897985324,3.243841707454745
256,-0.1322774475559576,-0.13166866565945234,0.512,289.86302657432515,289.7071784088198,3.2200509915941167,3.2241726568633573
257,-0.13075931353291279,-0.13015349381176936,0.514,290.6051435779586,290.4494479096247,3.2004851124733635,3.2045817334173297
258,-0.12925622383389895,-0.12865335494311764,0.516,291.34810574914593,291.19256557532435,3.180996796648086,3.185068472547796
259,-0.12776800977799788,-0.12686835521553974,0.518,292.09191453250145,291.8589040008248,3.1615855838146207,3.167655828135545
260,-0.1262945052920521,-0.12539924168061833,0.52,292.83657137593354,292.60380283696077,3.1422510173043716,3.148284139257596
261,-0.12483554686074382,-0.12394465794795274,0.522,293.58207773065413,293.34955572441567,3.1229926440480074,3.1289887899245796
262,-0.12339097347781754,-0.12250444325507345,0.524,294.3284350511882,294.09616413282924,3.1038100145400658,3.1097693297679827
263,-0.12196062659841499,-0.12107843929739685,0.526,295.07564479538314,294.84362953521537,3.0847026828039805,3.0906253119549643
264,-0.12054435009249366,-0.11966649018170943,0.528,295.8237084244183,295.5919534079713,3.065670206357521,3.0715562931537277
265,-0.11914199019930034,-0.11855947342548251,0.53,296.5726274028146,296.41826045775287,3.0467121461786335,3.0506119377257424
266,-0.1177533954828714,-0.11717374469302415,0.532,297.3224031984438,297.1682160883444,3.0278280666716846,3.0317036865970244
267,-0.11637841678853394,-0.11580162208122614,0.534,298.07303728253856,297.9190330956874,3.0090175356341002,3.012869078079712
268,-0.11501690720037888,-0.11444295882336637,0.536,298.82453112970154,298.6707129646622,2.9902801242233914,2.9941076827823974
269,-0.11366872199968546,-0.11281227412371188,0.538,299.5768862179154,299.3465017392785,2.971615406924564,2.977320908505859
270,-0.11233371862426793,-0.11148150973816129,0.54,300.33010402855234,300.10000762930355,2.9530229615179087,2.9586927656040234
271,-0.11101175662872322,-0.11016377276767275,0.542,301.084186046384,300.8543824200393,2.934502369047161,2.9401366135957314
272,-0.10970269764555533,-0.1088589250562654,0.544,301.83913375959105,301.6096276153042,2.916053213788035,2.921652035958508
273,-0.10840640534715351,-0.10756683048494044,0.546,302.5949486597729,302.36574472238874,2.897675083217117,2.903238619376894
274,-0.10712274540860496,-0.10573112799101324,0.548,303.35163224195776,302.9703290695376,2.8793675679811166,2.888581544198656
275,-0.10585158547131765,-0.10446691396534892,0.55,304.10918600461235,303.72840134047095,2.861130261866474,2.8702858787044465
276,-0.10459279510743448,-0.10321504798808319,0.552,304.8676114496519,304.48735324471096,2.8429627617693165,2.8520602426069783
277,-0.10334624578501753,-0.10252333045785987,0.554,305.62691008244985,305.3989625368272,2.8248646676657563,2.8302884078276747
278,-0.10211181083398596,-0.10129302854173301,0.556,306.3870834118481,306.1594619346018,2.806835582582533,2.812224706901091
279,-0.1008893654127837,-0.10034612367364391,0.558,307.14813295016666,306.99656850494665,2.788875112567987,2.792444872712074
280,-0.09967878647576518,-0.09913828495391133,0.56,307.91006021321425,307.7587197870952,2.770982866663362,2.774529724732691
281,-0.09847995274127272,-0.09847995274127272,0.562,308.67286672029763,308.67286672029763,2.753158456874444,2.753158456874444
282,-0.09729274466039772,-0.09729274466039772,0.564,309.43655399423216,309.43655399423216,2.735401498143508,2.735401498143508
283,-0.09611704438640285,-0.09611704438640285,0.566,310.201123561352,310.201123561352,2.7177116083215953,2.7177116083215953
284,-0.09495273574478867,-0.09495273574478867,0.568,310.96657695152,310.96657695152,2.700088408141095,2.700088408141095
285,-0.09379970420399283,-0.09379970420399283,0.57,311.73291569813796,311.73291569813796,2.682531521188641,2.682531521188641
286,-0.09265783684670277,-0.09265783684670277,0.572,312.500141338157,312.500141338157,2.665040573878312,2.665040573878312
287,-0.09152702234176932,-0.0910054854261888,0.574,313.2682554120878,313.1185743173162,2.6476151954251335,2.6510041428752777
288,-0.09040715091670393,-0.08988829366494579,0.576,314.03725946401073,313.8878285755044,2.630255017818875,2.633621744241683
289,-0.08929811433074952,-0.08878192969561431,0.578,314.8071550415866,314.65797768203254,2.612959675798145,2.616304264183167
290,-0.08819980584850531,-0.08768628689390053,0.58,315.57794369606654,315.42902319923115,2.5957288068247726,2.599051339697508
291,-0.08711212021409885,-0.0863460100701924,0.582,316.34962698230277,316.126688930426,2.5785620510584764,2.5835128901965088
292,-0.08603495362588706,-0.08527281999883426,0.584,317.122206458759,316.8996634396596,2.5614590513318123,2.566377052710369
293,-0.0849682037116744,-0.08421003669418466,0.586,317.8956836875206,317.6735407513961,2.544419453125408,2.5493047384754086
294,-0.08391176950444157,-0.0834088460847882,0.588,318.6700602343058,318.52220074892773,2.5274429045434603,2.530678031461276
295,-0.08286555141856151,-0.08236526061753704,0.59,319.44533766847564,319.29775188217343,2.5105290562895175,2.513742533481568
296,-0.08182945122650236,-0.08133178674616434,0.592,320.2215175630447,320.07420887686465,2.493677561642518,2.4968694689214206
297,-0.08080337203600009,-0.08080337203600009,0.594,320.998601494692,320.998601494692,2.4768880764331014,2.4768880764331014
298,-0.07978721826768913,-0.07978721826768913,0.596,321.77659104377136,321.77659104377136,2.4601602590201757,2.4601602590201757
299,-0.0787808956331851,-0.0787808956331851,0.598,322.55548779432235,322.55548779432235,2.4434937702677435,2.4434937702677435
300,-0.07778431111360286,-0.07778431111360286,0.6,323.33529333408086,323.33529333408086,2.426888273521984,2.426888273521984
301,-0.07679737293850515,-0.07679737293850515,0.602,324.11600925449005,324.11600925449005,2.4103434345885875,2.4103434345885875
302,-0.0758199905652687,-0.0758199905652687,0.604,324.89763715071115,324.89763715071115,2.393858921710331,2.393858921710331
303,-0.07485207465885794,-0.07485207465885794,0.606,325.68017862163396,325.68017862163396,2.377434405544908,2.377434405544908
304,-0.07389353707200155,-0.07389353707200155,0.608,326.46363526988847,326.46363526988847,2.3610695591429924,2.3610695591429924
305,-0.07294429082575461,-0.0724699962274679,0.61,327.24800870185516,327.1033488493777,2.3447640579265423,2.3477653559206884
306,-0.07200425009044567,-0.07129681695981718,0.612,328.0333005276764,327.81682598970406,2.328517579667346,2.332988333420307
307,-0.07107333016699298,-0.0703697407365685,0.614,328.81951236126685,328.60351040612653,2.3123298044657905,2.316769477690365
308,-0.07015144746858937,-0.06898569989115227,0.616,329.6066458203255,329.2475955664749,2.2962004147298685,2.303548256057004
309,-0.06923851950273716,-0.06807914746094201,0.618,330.3947025263458,330.0364565654311,2.280129095154407,2.287425508258901
310,-0.0683344648536371,-0.06718145594621498,0.62,331.1836841046275,330.82625134332665,2.2641155327005182,2.27136070240516
311,-0.06743920316491066,-0.06675091264119139,0.622,331.9735921842872,331.7595338314105,2.2481594165752794,2.252475882655104
312,-0.0665526551226612,-0.06586817100299487,0.624,332.7644283982703,332.5508693529344,2.2322604382116253,2.2365463782529917
313,-0.06567474243885468,-0.06567474243885468,0.626,333.5561943833615,333.5561943833615,2.2164182912484534,2.2164182912484534
314,-0.064805387835021,-0.06525712805595286,0.628,334.3488917801966,334.4907382095692,2.200632671510951,2.197815861691417
315,-0.06394451502626525,-0.06461847464167625,0.63,335.14252223327355,335.354819512128,2.184903276991125,2.1807082626993024
316,-0.06309204870558298,-0.06432134294829434,0.632,335.9370873909642,336.325544371661,2.169229807828539,2.1615941189049823
317,-0.06224791452847059,-0.06436102423024506,0.634,336.7325889055252,337.4024446809877,2.1536119662912627,2.1405180055362116
318,-0.061412039097829114,-0.06373482093897939,0.636,337.52902843310966,338.26767305859545,2.1380494567570185,2.1236817644076114
319,-0.06058434994915051,-0.06333496087736874,0.638,338.326407633779,339.2038525198806,2.1225419856945282,2.105561649808972
320,-0.05976477553598088,-0.06249965426714717,0.64,339.1247281715139,339.9998893654871,2.107089261645057,2.0902325475518966
321,-0.05895324521565827,-0.061672417739479735,0.642,339.9239917142263,340.796846094373,2.0916909952041527,2.0749574672425193
322,-0.05814968923531275,-0.060853181061976146,0.644,340.7241999337707,341.5947243019563,2.076346899003583,2.0597361238115544
323,-0.0573540387181307,-0.05961090317065778,0.646,341.5253545059562,342.25432172412246,2.061056687693457,2.047206386752157
324,-0.0565662256498698,-0.05859586952196962,0.648,342.3274571105578,342.98506172511816,2.0458200779245335,2.0333814918507525
325,-0.055786182865625644,-0.05727223252394162,0.65,343.13050943132833,343.613475570281,2.03063678833072,2.0215395355189982
326,-0.05501384403684166,-0.0556464839694722,0.652,343.9345131560104,344.14075377404794,2.015506539511755,2.0116367669558923
327,-0.05424914365855607,-0.05424914365855607,0.654,344.73946997634783,344.73946997634783,2.000429054016064,2.000429054016064
328,-0.05349201703688362,-0.05286755525198225,0.656,345.5453815880978,345.3405581226502,1.9854040563238071,1.989216032111949
329,-0.05274240027672584,-0.051604900117822414,0.658,346.3522496910428,345.9780121387636,1.9704312728300912,1.9773671909104533
330,-0.05200023026970388,-0.050048679647177734,0.66,347.1600759890023,346.51606428356865,1.955510431828364,1.9673999352538807
331,-0.051265444682310916,-0.04912177573984061,0.662,347.9688621898449,347.25930776988724,1.9406412634939776,1.9536823727846573
332,-0.050537981944279206,-0.04800229612128882,0.664,348.7786100055007,347.9367623122679,1.9258234998679251,1.9412300878668687
333,-0.049817781237154864,-0.046895245230103653,0.666,349.58932115197257,348.6161166616245,1.9110568748407415,1.9287914826392636
334,-0.04910478248308113,-0.046199948181760375,0.668,350.4009973493491,349.43078269270796,1.8963411241365757,1.9139391697685633
335,-0.04839892633378012,-0.045511771885366786,0.67,351.21364032181634,350.2464435815979,1.8816759852974247,1.8991379384409848
336,-0.04770015415973207,-0.04522551588650122,0.672,352.02725179767,351.1957733378644,1.867061197667528,1.8819976872488682
337,-0.04700840803954883,-0.044548985423475115,0.674,352.84183350932796,352.0130080877111,1.8524965023779267,1.8673164743969501
338,-0.046323630749533565,-0.04446497798575363,0.676,353.65738719334234,353.0291625591847,1.8379816423311774,1.8491565707165512
339,-0.045645765753426874,-0.044186983889097045,0.678,354.4739145904117,353.9793875384039,1.8235163621862265,1.8322692407247203
340,-0.04497475719233501,-0.04400786504304723,0.68,355.2914174453939,354.96267411463606,1.8091004083434337,1.8148895296501326
341,-0.04431054987483338,-0.04392601068591199,0.682,356.1098975073182,355.978769643896,1.7947335289297555,1.7970307878467855
342,-0.043653089267244385,-0.043653089267244385,0.684,356.9293565293976,356.9293565293976,1.7804154737840738,1.7804154737840738
343,-0.043002321484086496,-0.043382280119392234,0.686,357.74979626904167,357.88012208095154,1.7661459944426767,1.76388532756979
344,-0.04235819327868938,-0.042924591566795504,0.688,358.57121848786915,358.76605949897765,1.751924844124886,1.7485611484241663
345,-0.04172065203397126,-0.04265892077805027,0.69,359.3936249517201,359.71732766842734,1.7377517777188307,1.7321909720301305
346,-0.04108964575337858,-0.04202185005483834,0.692,360.217017430669,360.53956011897407,1.7236265517673652,1.7181109468017097
347,-0.0404651230519807,-0.04139126881302191,0.694,361.0413976990373,361.3627702781186,1.7095489244541286,1.7040783678958755
348,-0.03984703314771867,-0.04076712612291414,0.696,361.8667675354061,362.1869598907741,1.6955186555897461,1.690092995891859
349,-0.03923532585280568,-0.039783560454373694,0.698,362.6931287226292,362.8844625985764,1.6815355065981665,1.6783069584254982
350,-0.03862995156527258,-0.03917456356833733,0.7,363.5204830478454,363.71109724891807,1.6675992405031423,1.6643974499613765
351,-0.03803086126066093,-0.03803086126066093,0.702,364.348832302492,364.348832302492,1.6537096219148406,1.6537096219148406
352,-0.03743800648385622,-0.03743800648385622,0.704,365.1781782823174,365.1781782823174,1.6398664170165904,1.6398664170165904
353,-0.03685133934105961,-0.036495802435605317,0.706,366.00852278739404,365.8830182597687,1.6260693935517627,1.628150762375509
354,-0.03627081249189695,-0.035741201859389476,0.708,366.8398676221315,366.6523854582239,1.6123183208107812,1.6154139719867378
355,-0.03569637914166141,-0.0351703690202572,0.71,367.6722145952898,367.4854810021913,1.5986129696182616,1.6016823065199286
356,-0.03512799303368568,-0.03460558071082343,0.712,368.5055655199921,368.31958673305314,1.584953112320282,1.587996222295937
357,-0.03456560844184367,-0.0340467912865766,0.714,369.3399222137382,369.15470448930785,1.5713385227717762,1.574355492735498
358,-0.034009180163177076,-0.033493955625469495,0.716,370.1752864984174,369.9908361139181,1.5577689763240545,1.5607598927585966
359,-0.03345866351064659,-0.033117517620302246,0.718,371.0116602003221,370.8891888256885,1.5442442498124482,1.5462208824522081
360,-0.03291401430600366,-0.03257526101153192,0.72,371.8490451501613,371.7270939641515,1.5307641215440724,1.5327234996196488
361,-0.03237518887277859,-0.03203882662829255,0.722,372.68744318307307,372.5660164128136,1.517328371285717,1.5192705516009628
362,-0.031842144029389514,-0.03150817134113796,0.724,373.526856138639,373.40595802549194,1.503936780251851,1.5058618193305735
363,-0.031314837082360644,-0.031314837082360644,0.726,374.3672858608969,374.3672858608969,1.4905891310927462,1.4905891310927462
364,-0.030793225819655937,-0.030793225819655937,0.728,375.20873419835476,375.20873419835476,1.477285207882719,1.477285207882719
365,-0.03027726850412065,-0.03027726850412065,0.73,376.05120300400404,376.05120300400404,1.4640247961084873,1.4640247961084873
366,-0.029766923867031447,-0.030091556791620042,0.732,376.8946941353335,377.01350978573294,1.4508076826576393,1.4489506488238375
367,-0.02926215110175076,-0.029584398276065585,0.734,377.73920945434253,377.85747416731607,1.4376336558072185,1.4357934847277851
368,-0.02876290985748691,-0.029082772491064068,0.736,378.5847508275552,378.7024602767116,1.4245025052124174,1.4226791420057454
369,-0.02826916023315369,-0.02858663948629638,0.738,379.4313201260337,379.54846997044336,1.411414021895383,1.409607411947357
370,-0.027780862771330888,-0.028095959755502175,0.74,380.2789192253924,380.3955051095358,1.39836799823413,1.3965780871963902
371,-0.02729797845232237,-0.02729797845232237,0.742,381.1275500058116,381.1275500058116,1.385364227951563,1.385364227951563
372,-0.026820468688310114,-0.026820468688310114,0.744,381.97721435205136,381.97721435205136,1.372402506104603,1.372402506104603
373,-0.026348295317601838,-0.026348295317601838,0.746,382.8279141534655,382.8279141534655,1.3594826290734232,1.3594826290734232
374,-0.025881420598972592,-0.025576024475372574,0.748,383.67965130401575,383.56543315378934,1.3466043945507846,1.3483280481758095
375,-0.02541980720609475,-0.025116785774862517,0.75,384.53242770228553,384.41879466557344,1.3337676015314777,1.335474824061438
376,-0.02496341822205916,-0.024512513034581157,0.752,385.38624525149424,385.2167049010025,1.3209720503018638,1.3235083166384434
377,-0.024512217133982737,-0.024064870623095643,0.754,386.2411058595115,386.07245622490706,1.3082175424295164,1.3107293201109809
378,-0.02406616782770134,-0.02332673329033843,0.756,387.0970114388711,386.8175051837479,1.2955038807529669,1.2996494931713762
379,-0.02362523458254743,-0.022891724418875818,0.758,387.9539639067855,387.67596355475393,1.2828308693715431,1.286935928153532
380,-0.023189382066210316,-0.022461794753366342,0.76,388.8119651851599,388.5354820062792,1.2701983136353072,1.2742629482389403
381,-0.022758575329677382,-0.022325453560533448,0.762,389.6710172006071,389.50599780656324,1.2576060201350907,1.2600206236937501
382,-0.022332779802254114,-0.02190321206529108,0.764,390.5311218844611,390.3670270089412,1.2450537966926238,1.2474442999822737
383,-0.02191196128666414,-0.021627912193458405,0.766,391.39228117279237,391.28349037009457,1.2325414523507572,1.2341191054097662
384,-0.02149608595422429,-0.02149608595422429,0.768,392.2544970064221,392.2544970064221,1.2200687973637805,1.2200687973637805
385,-0.02108512034009504,-0.02108512034009504,0.77,393.1177713309366,393.1177713309366,1.2076356431878308,1.2076356431878308
386,-0.020679031338606102,-0.020956124760980143,0.772,393.98210609670195,394.08906415773833,1.1952418024713907,1.1937118929642272
387,-0.0202777861986543,-0.020689926080097475,0.774,394.8475032588792,395.0070013929977,1.1828870890458771,1.180615945834909
388,-0.019881352519171076,-0.0205625071916307,0.776,395.7139647774384,395.9782527903527,1.1705713179163226,1.1668254896989905
389,-0.0194896982446626,-0.020164923420114843,0.778,396.58149261717375,396.8441552104247,1.1582943052521397,1.154587763475333
390,-0.019102791660816947,-0.020040052611964343,0.78,397.4500887477186,397.8156205186661,1.1460558683779745,1.1409215380876412
391,-0.018720601390178962,-0.019715977104444636,0.782,398.31975514356,398.70894704783785,1.1338558257646467,1.1284133178009765
392,-0.0183430963878926,-0.01932957425399045,0.784,399.1904937840539,399.57719310756426,1.1216939970201734,1.1163098658344766
393,-0.01797024593750673,-0.0189478263734259,0.786,400.06230665344015,400.4464957647564,1.1095702028808796,1.1042442659070513
394,-0.01760201964684636,-0.018570702917008585,0.788,400.93519574085747,401.3168569493014,1.0974842652025887,1.0922163407296162
395,-0.017238387443946,-0.018198173660225823,0.79,401.80916304035867,402.1882785957892,1.0854360069518978,1.0802259141185286
396,-0.016879319573044657,-0.01757646442204327,0.792,402.6842105509257,402.96027991112913,1.0734252521975354,1.0696467953098001
397,-0.016524786590642944,-0.017152587226796877,0.794,403.56034027648525,403.80957712903836,1.0614518261017922,1.0580551802582665
398,-0.01617475936161703,-0.016796631828768442,0.796,404.4375542259236,404.68505946784984,1.0495155549120452,1.0461571051363265
399,-0.01582920905539374,-0.01644515299681727,0.798,405.3158544131021,405.5616160457301,1.0376162659523487,1.0342958939013012
400,-0.015488107142181774,-0.01585402819334675,0.8,406.1952428568727,406.3416112773387,1.0257537876151075,1.0237843403428866
401,-0.015151425389260714,-0.015392973317214828,0.802,407.07572158109355,407.17258230020315,1.0139279493528275,1.0126301215776559
402,-0.014819135857323288,-0.015058313368533374,0.804,407.95729261464396,408.0534419741504,1.0021385816699435,1.000855844285406
403,-0.0144912108968755,-0.0144912108968755,0.806,408.8399579914408,408.8399579914408,0.9903855161147199,0.9903855161147199
404,-0.014167623144686699,-0.014167623144686699,0.808,409.7237197504534,409.7237197504534,0.978668585271229,0.978668585271229
405,-0.013848345520295319,-0.013848345520295319,0.81,410.6085799357196,410.6085799357196,0.9669876227514006,0.9669876227514005
406,-0.013533351222565418,-0.013533351222565418,0.812,411.49454059636156,411.49454059636156,0.9553424631871463,0.9553424631871463
407,-0.013222613726293443,-0.013222613726293443,0.814,412.38160378660143,412.38160378660143,0.9437329422225568,0.9437329422225567
408,-0.0129161067788657,-0.0129161067788657,0.816,413.2697715657772,413.2697715657772,0.9321588965061656,0.9321588965061656
409,-0.012613804396965574,-0.012836378069774746,0.818,414.1590459983589,414.25007863053787,0.9206201636832934,0.9194417698737788
410,-0.012315680863327415,-0.012646016314786904,0.82,415.04942915396424,415.18486668906263,0.9091165823884523,0.9073710785502664
411,-0.012021710723539868,-0.012348483506966166,0.822,415.9409231073749,416.0752267213631,0.8976479922378251,0.8959245080927284
412,-0.011731868782894663,-0.012055077928516657,0.824,416.8335299385526,416.96669210654886,0.8862142338218114,0.8845127024928735
413,-0.011446130103281195,-0.011978983172941594,0.826,417.72725173265513,417.9473200504249,0.8748151486976418,0.8720157402218093
414,-0.011164470000127876,-0.011691377707622417,0.828,418.62209058005294,418.8402303709557,0.8634505793820584,0.8606875375280358
415,-0.01088686403938553,-0.011407824521962588,0.83,419.518048576345,419.7342471766145,0.8521203693440641,0.849393584162163
416,-0.010613288034556344,-0.010922231842310627,0.832,420.41512782237544,420.5436484464012,0.8408243629977342,0.8392099802207785
417,-0.010343718043764879,-0.010649092550782798,0.834,421.31333042424995,421.4406715936764,0.8295624056950953,0.8279696458761607
418,-0.010078130366871005,-0.010279312938218588,0.836,422.2126584933521,422.29675280817537,0.8183343437190689,0.8172868757591085
419,-0.009816501542625648,-0.01001530328684141,0.838,423.11311414636015,423.19641207718655,0.8071400242764738,0.8061068850454
420,-0.009558808345865427,-0.00975522832525853,0.84,424.0146995052635,424.0971958966086,0.7959792954911011,0.7949604419928725
421,-0.00930502778474848,-0.00930502778474848,0.842,424.9174166973791,424.9174166973791,0.7848520063968412,0.7848520063968412
422,-0.009055137098030136,-0.009055137098030136,0.844,425.8212678553687,425.8212678553687,0.7737580069308784,0.7737580069308784
423,-0.008809113752376812,-0.008619916034844242,0.846,426.7262551172554,426.6462244827391,0.7626971479269449,0.7636734002762914
424,-0.008566935439717541,-0.00838012182348723,0.848,427.63238062644024,427.5531716531586,0.751669281108636,0.752631417788455
425,-0.008328580074634481,-0.008144151690821807,0.85,428.53964653171965,428.46126446859927,0.7406742590827826,0.7416223221344086
426,-0.008094025791788702,-0.007911983805589426,0.852,429.448054987302,429.3705051011811,0.729711935332886,0.7306459666101122
427,-0.007863250943383762,-0.007683596553907465,0.854,430.35760815282487,430.2808957285185,0.7187821642126091,0.7197022053828013
428,-0.007636234096664034,-0.007458968536770693,0.856,431.2683081933722,431.19243853373786,0.7078848009393264,0.7087908934845287
429,-0.007412954031447616,-0.007238078567587152,0.858,432.180157279491,432.1051357054949,0.6970197015877315,0.6979118868057638
430,-0.0071933897376967185,-0.007020905669749212,0.86,433.0931575872096,433.01898943799216,0.6861867230834979,0.6870650420890448
431,-0.006977520413117915,-0.006807429074238713,0.862,434.0073112980538,433.9340019309969,0.6753857231970032,0.6762502169226954
432,-0.0067653254607986085,-0.006513800543792762,0.864,434.922620599065,434.8139618349185,0.6646165605371018,0.6658926243333331
433,-0.006556784486875999,-0.006308852221795272,0.866,435.8390876828173,435.73173301203735,0.6538790945449557,0.6551345424064821
434,-0.006351877298237748,-0.006188972475954829,0.868,436.7567147474352,436.6860140545644,0.6431731854879191,0.6439964471653437
435,-0.006150583900255399,-0.005990077469374913,0.87,437.6755039966111,437.6056836991781,0.6324986944534773,0.6333082927823778
436,-0.0059528844945480825,-0.0059528844945480825,0.872,438.59545763962296,438.59545763962296,0.621855483343238,0.621855483343238
437,-0.005758759476777707,-0.005914512826114013,0.874,439.51657789135186,439.5846421050118,0.6112434148669768,0.610461023295947
438,-0.005568189434475254,-0.005798230326105813,0.876,440.43886697230016,440.53962488283435,0.6006623525367326,0.5995090808198621
439,-0.005381155144894459,-0.0057585973441826085,0.878,441.36232710860867,441.52802423409616,0.5901121606609576,0.5882238017468425
440,-0.005197637572898502,-0.005754871210439722,0.88,442.28696053207534,442.5321433325935,0.5795927043387167,0.5768106593578909
441,-0.005017617868872359,-0.00556580952418422,0.882,443.2127694801727,443.45452200016524,0.5691038494539343,0.5663721509765554
442,-0.004841077366665936,-0.005524090227969206,0.884,444.13975619606634,444.4416478807624,0.5586454626697004,0.5552488982566686
443,-0.004667997581562624,-0.005198086721771907,0.886,445.06792292863224,445.30275241774495,0.5482174114226166,0.545585967847788
444,-0.0044983602082794,-0.005019388580222738,0.888,445.99727193247605,446.2286085296189,0.537819563917196,0.5352380300103934
445,-0.004332147118989806,-0.0048441082260567555,0.89,446.92780546795046,447.15562816059526,0.5274517891203111,0.5249200205325336
446,-0.004169340361376207,-0.004504542557752719,0.892,447.8595258011738,448.0090259807577,0.5171139567556888,0.5154591920940707
447,-0.004009922156708566,-0.004207386533596161,0.894,448.79243520404873,448.8807017805175,0.5068059372984548,0.5058328698988418
448,-0.0038538748979470533,-0.0038538748979470533,0.896,449.7265359542803,449.7265359542803,0.49652760196972323,0.49652760196972323
449,-0.0037011811478722817,-0.003511057376445029,0.898,450.66183033539465,450.5764647620238,0.4862788227312341,0.487212478070878
450,-0.0035518236372390926,-0.0032410489071701756,0.9,451.5983206367576,451.4584720082266,0.4760594722800365,0.4775828625913326
451,-0.0034057852629561574,-0.002948787323171442,0.902,452.5360091535932,452.3299030827503,0.4658694240432188,0.4681055972786262
452,-0.003263049086290246,-0.0026957787242682155,0.904,453.4748981870032,453.21849198336923,0.45570855217267936,0.45847926016988927
453,-0.0031235983310920253,-0.002509398382911462,0.906,454.4149900439847,454.1367574674589,0.44557673153995064,0.4485710071758991
454,-0.0029874163820476805,-0.0023859732684259134,0.908,455.35628703744965,455.08323186386536,0.43547383773105997,0.4384002219206127
455,-0.0028544867829543444,-0.0022658117290559076,0.91,456.2987914862442,456.03094433672044,0.42539974704143707,0.4282584333415555
456,-0.0027247932350154733,-0.0023133717156931673,0.912,457.24250571516706,457.0548975023561,0.41535433647086556,0.41734803728592573
457,-0.0025983195951618386,-0.0023300956257109955,0.914,458.18743205498896,458.0648537009499,0.40533748371847705,0.4066345636663762
458,-0.0024750498743925297,-0.002370183856847653,0.916,459.1335728424718,459.0855442064362,0.39534906717778723,0.3958551139837748
459,-0.0023549682361392486,-0.002457412184139338,0.918,460.0809304203879,460.12795219251996,0.3853889659317754,0.3848956680553827
460,-0.0022380589946505857,-0.00238806305298021,0.92,461.02950713753927,461.0985090043709,0.3754570597480047,0.3747361821932885
461,-0.0021243066133999114,-0.0024902142069217945,0.922,461.97930534877736,462.14798874939095,0.3655532290737843,0.3637985735742301
462,-0.0020136957035101284,-0.002513164202672816,0.924,462.9303274150217,463.16108186163484,0.3556773550313733,0.3532872032055625
463,-0.0019062110222044905,-0.002485526143789303,0.926,463.8825757032807,464.15079860457445,0.3458293194132211,0.3430626848579153
464,-0.0018018374712719348,-0.002365791679072295,0.928,464.8360525866702,465.09772733908954,0.33600900467725564,0.3333209326398376
465,-0.0017005600955561325,-0.002249138989797087,0.93,465.7907604444336,466.04584963025565,0.3262162939422043,0.3236065635906667
466,-0.0016023640814632595,-0.002220916006261264,0.932,466.7467016619619,467.03494685891775,0.31645107098295683,0.313514405044235
467,-0.0015072347554883321,-0.002159730740962124,0.934,467.70387863081305,468.0085942560293,0.306713220225968,0.3036215509660902
468,-0.0014151575827617711,-0.002088441187535434,0.936,468.6622937487325,468.9773904757666,0.2970026267446976,0.29381875858599443
469,-0.001326118165612984,-0.002056690857754515,0.938,469.6219494196725,469.96458801228687,0.2873191762550895,0.2838713461400284
470,-0.0012401022421548251,-0.001947488838665288,0.94,470.58284805381277,470.9153197541727,0.27766275511108796,0.2743308020497549
471,-0.0011570956848843982,-0.001841273317987184,0.942,471.54499206758055,471.86723973277196,0.26803325030019187,0.26481685129658955
472,-0.0010770844993021262,-0.001738030036203425,0.944,472.5083838836706,472.820350177088,0.2584305494390461,0.25532938284577755
473,-0.0010000548225500229,-0.0016377448661786206,0.946,473.47302593106616,473.7746533217025,0.24885454076906904,0.24586828627984023
474,-0.0009259929220637209,-0.0014010712421892231,0.948,474.4389206450582,474.6641077687977,0.23930511315211836,0.23708436170206668
475,-0.000854885194247273,-0.0012488795044435775,0.95,475.40607046726745,475.5932177646107,0.22978215606618785,0.22794389881765834
476,-0.000786718163159283,-0.001074313148058368,0.952,476.3744778456638,476.5113730584758,0.22028555960114848,0.2189462233987735
477,-0.0007214784792181852,-0.0008085473039057526,0.954,477.3441452345871,477.38567706396304,0.21081521445451673,0.21041044924276406
478,-0.000659152917925916,-0.0005064137365242712,0.956,478.3150750947686,478.2420657660586,0.2013710119272619,0.20207983788924588
479,-0.0005997283786030632,-0.00021521737218149032,0.958,479.28726989335087,479.10308912127493,0.19195284391964726,0.1937341663112216
480,-0.0005431918831444449,0.00011996795069239378,0.96,480.26073210390933,479.94241538366765,0.1825606029271058,0.1856276210562812
481,-0.000489530574788202,0.0004887492448774641,0.962,481.2354642064731,480.76491161321394,0.17319418203614936,0.17771108630365215
482,-0.0004387317168997417,0.0008693659825382838,0.964,482.2114686875457,481.58096559641655,0.1638534749203125,0.16988328279738
483,-0.00039078269177349385,0.0012211267441147983,0.966,483.1887480401266,482.41019578259255,0.1545383758361286,0.16195621787626277
484,-0.0003456709994471728,0.0014503146519023562,0.968,484.16730476373243,483.29804770847926,0.1452487796191397,0.15349891030150684
485,-0.0003033842565318804,0.001571067550694047,0.97,485.14714136441796,484.2380322379134,0.13598458167993976,0.14457880724211197
486,-0.0002639101950573535,0.0016770921253989872,0.972,486.1282603547979,485.1849332270561,0.1267456780002463,0.13562801511450354
487,-0.00022723666133073832,0.001675130674350786,0.974,487.11066425406807,486.18421136159117,0.11753196512901196,0.1262199279913485
488,-0.00019335161480951303,0.0015944023536753943,0.976,488.09435558802704,487.2219316514064,0.10834334017856,0.1164907593599877
489,-0.00016224312698951752,0.0014359909085898178,0.978,489.0793368890979,488.2978004456996,0.09917970082075556,0.10644758929690053
490,-0.0001338993803057877,0.0012948004000406855,0.98,490.06561069634984,489.36554780398006,0.09004094528320686,0.09652389334359775
491,-0.00010830866704693697,0.0011442428215679104,0.982,491.05317955552005,490.43817677461016,0.08092697234549766,0.08659833456747013
492,-8.545938828393258e-05,0.0009957446768443401,0.984,492.0420460190357,491.5100936189926,0.07183768133545006,0.07672264366626065
493,-6.534005281040992e-05,0.0008636384965672177,0.986,493.03221264603553,492.57422622119236,0.06277297212541784,0.06696118482562573
494,-4.793927609850437e-05,0.0007489433302697512,0.988,494.02368200239266,493.63002199484674,0.05373274512860971,0.057317793883590554
495,-3.3245779264698374e-05,0.000609040552955082,0.99,495.016456660736,494.69852492628723,0.04471690129544238,0.04760024709097251
496,-2.124838805024128e-05,0.0004317586845543118,0.992,496.0105392004729,495.78584769246106,0.0357253421099238,0.037754541541767474
497,-1.1936031813878052e-05,0.0002802031034680451,0.994,497.0059322078115,496.8607390575764,0.02675796958606179,0.028063758501861606
498,-5.297742536028917e-06,0.00012251774622948496,0.996,498.00263827578294,497.9389861623777,0.01781468626430926,0.01838475622476716
499,-1.3226538358540786e-06,-5.7288899657926564e-05,0.998,499.0006600042641,499.0285871609293,0.00889539520803044,0.008646324142205588
500,0.0,0.0,1.0,500.0,500.0,-7.60383378394071e-16,-6.84345040554664e-16
501,-1.319115023771681e-06,-0.00023032305633791849,1.002,501.0006608766269,501.1153918512253,-0.00887159526107498,-0.009886505758941958
502,-5.2694316620665156e-06,-0.0003386224446443298,1.004,502.00264525469436,502.16998846721145,-0.01771948596399381,-0.019193747196198093
503,-1.1840480494793264e-05,-0.00046799723066212227,1.006,503.0059557616889,503.23540260702305,-0.026543766988488583,-0.028556846276895555
504,-2.1021889000710165e-05,-0.0005988934499666378,1.008,504.01059503205636,504.3018422987832,-0.03534453270861188,-0.037889339063631934
505,-3.280338064451817e-05,-0.0007685963441485235,1.01,505.0165657072255,505.388141153795,-0.04412187699610193,-0.04735512814237628
506,-4.7174773973543424e-05,-0.0009154061742035789,1.012,506.0238704356306,506.463195524147,-0.05287589322372015,-0.056682957535828
507,-6.412598172600688e-05,-0.0010034860557868056,1.014,507.0325118727351,507.5087674302839,-0.06160667426856143,-0.06571707157575984
508,-8.364700995038556e-05,-0.0010497592534103727,1.016,508.0424926810548,508.53327770073247,-0.07031431251534179,-0.07453317126626229
509,-0.00010572795713392626,-0.001193482489191246,1.018,509.05381553018117,509.60748258699834,-0.07899889985965247,-0.08373883385123163
510,-0.00013035901334341825,-0.0013141203515290806,1.02,510.06648309680514,510.67020137927983,-0.08766052771119566,-0.09280795389839706
511,-0.00015753045937483105,-0.0015176172656557612,1.022,511.08049806474054,511.7755024227501,-0.09629928699699089,-0.1022005073041665
512,-0.00018723266591358367,-0.0016877124670484633,1.024,512.0958631249478,512.8641087831288,-0.10491526816455683,-0.11141162156930619
513,-0.00021945609270496754,-0.0018463162836228255,1.026,513.1125809755576,513.9471602534985,-0.1135085611850678,-0.12053701129364719
514,-0.0002541912877343638,-0.0019531817747400673,1.028,514.1306543218955,515.0039354322164,-0.12207925555648567,-0.12940401088987483
515,-0.0002914288864164598,-0.0020159481891256488,1.03,515.1500858765045,516.0382133173997,-0.1306274403066668,-0.13804707891608547
516,-0.0003311596107964267,-0.002016321952641317,1.032,516.170878359171,517.0404221275629,-0.1391532039964446,-0.1463891706042597
517,-0.0003733742687567397,-0.0019609915388150378,1.034,517.1930344969472,518.0138326255674,-0.14765663472268808,-0.15446065245070956
518,-0.0004180637532373554,-0.0018079450302884196,1.036,518.216557024177,518.9365155256894,-0.15613782012133537,-0.16208354831155583
519,-0.00046521904146183836,-0.0016493635171707564,1.038,519.2414486825187,519.8560196654116,-0.1645968473704072,-0.16965326252162613
520,-0.0005148311941748209,-0.0014566228812082744,1.04,520.2677122209709,520.7574438982283,-0.17303380319298958,-0.17704818742706693
521,-0.0005668913548878088,-0.001283333383735086,1.042,521.2953503958965,521.668616692926,-0.18144877386020053,-0.1844971132610519
522,-0.000621390749133003,-0.001100551917566017,1.044,522.3243659710474,522.5744881009695,-0.18984184519412967,-0.19187694977461076
523,-0.000678320683726767,-0.0009925202213958379,1.046,523.3547617175891,523.51908807579,-0.19821310257075603,-0.1995450946200315
524,-0.0007376725460415292,-0.0009720108922530097,1.048,524.3865404141258,524.5093337075406,-0.20656263092284272,-0.20755413155127236
525,-0.0007994378032866561,-0.0008645685090095867,1.05,525.4197048467255,525.45389846723,-0.21489051474280957,-0.21516557460168037
526,-0.0008636080017962301,-0.0008636080017962301,1.052,526.4542578089448,526.4542578089448,-0.22319683808558297,-0.22319683808558297
527,-0.0009301747663270952,-0.0008245253514006872,1.054,527.4902021018544,527.4345248601882,-0.23148168457142393,-0.23103723973704682
528,-0.0009991297993629405,-0.0007250668402486818,1.056,528.5275405340636,528.3828352916513,-0.23974513738873424,-0.2385943607292683
529,-0.0010704648804290707,-0.0007864054212154297,1.058,529.566275921747,529.416008467823,-0.2479872792968397,-0.24679694035621488
530,-0.0011441718654127899,-0.0008501005411060433,1.06,530.6064110886688,530.4505532867862,-0.2562081926287565,-0.25497839330413846
531,-0.0012202426858927474,-0.0009161440336134657,1.062,531.647948866209,531.4864724818488,-0.2644079592939276,-0.2631388010893167
532,-0.001298669348475209,-0.0009845278074924562,1.064,532.6908920933888,532.523768793586,-0.2725866607809468,-0.2712782448091982
533,-0.001379443934139716,-0.0011416766753018408,1.066,533.7352436168965,533.6085136679359,-0.2807443781602567,-0.2797561579491326
534,-0.0014625585975908224,-0.001150562222523965,1.068,534.7810062911135,534.6144002268278,-0.2888811920868281,-0.28758700434627915
535,-0.0015480055666173124,-0.00131840288528667,1.07,535.8281829781403,535.7053455436284,-0.29699718280281745,-0.29604679181784843
536,-0.0016357771414596523,-0.00149395876476315,1.072,536.8767765478224,536.800761897913,-0.3050924301402052,-0.304506652674336
537,-0.0017258656941834525,-0.0015799967121121672,1.074,537.9267898777765,537.8484582344042,-0.3131670135234129,-0.312565732857448
538,-0.0018182636680622386,-0.0016683375700449095,1.076,538.9782258534175,538.8975656126842,-0.32122101197190106,-0.32060426762891503
539,-0.001912963576964143,-0.0017589738131151191,1.078,540.0310873679837,539.948086885269,-0.3292545041027463,-0.328622335454869
540,-0.00200995800474899,-0.0017465523402083565,1.08,541.0853773225645,540.9431382637125,-0.3372675681331993,-0.33618831191517307
541,-0.0021092396046701726,-0.001947102702245396,1.082,542.1410986261266,542.0533825619148,-0.34526028188322605,-0.34459738214201024
542,-0.0022108010987831575,-0.0020445806449849585,1.084,543.1982541955405,543.1081627095818,-0.35323272277802226,-0.3525545159502884
543,-0.002314635277362193,-0.002201088371284105,1.086,544.2568469556077,544.1951909856073,-0.3611849678505169,-0.36072265109166823
544,-0.0024207349983230383,-0.0024207349983230383,1.088,545.3168798390877,545.3168798390877,-0.3691170937438523,-0.3691170937438523
545,-0.0025290931866510024,-0.0025290931866510024,1.09,546.3783557867248,546.3783557867248,-0.3770291767138464,-0.3770291767138464
546,-0.0026397028338379764,-0.0027614878866664503,1.092,547.4412777472755,547.5077723861199,-0.3849212926314365,-0.3854139918860047
547,-0.002752556997323352,-0.0029393661795598294,1.094,548.5056486775359,548.6078333002192,-0.3927935169851044,-0.39354768053771577
548,-0.0028676487999427245,-0.0031859169736064914,1.096,549.5714715423686,549.7458825015364,-0.40064592488328343,-0.40192799184290995
549,-0.002984971429382619,-0.0034402555469770332,1.098,550.6387493147311,550.8887002952904,-0.40847859105674655,-0.4103085751446808
550,-0.003104518137640546,-0.0034698019115702748,1.1,551.7074849757023,551.9083910513637,-0.41629158986097775,-0.4177569362572884
551,-0.0032262822404929975,-0.0037348402986656613,1.102,552.7776815145116,553.0578970045648,-0.42408499527852395,-0.4261206032558609
552,-0.003350257116967169,-0.003869211002357593,1.104,553.8493419285659,554.1358044733014,-0.4318588809213329,-0.4339318035497553
553,-0.003476436208820058,-0.0041470630806214,1.106,554.9224692234775,555.2933258835836,-0.4396133200330668,-0.44228616901886786
554,-0.003604813020022379,-0.004288657598897481,1.108,555.9970664130924,556.3759163097892,-0.44734838549140515,-0.45006826367519287
555,-0.0037353811162505212,-0.004285631333290611,1.11,557.073136519519,557.3785253899763,-0.4550641498103275,-0.4572484577294171
556,-0.0038681341243809193,-0.0044288530690414765,1.112,558.1506825731558,558.4624423063871,-0.4627606851423791,-0.46498193643106256
557,-0.004003065731992318,-0.004383797627444529,1.114,559.2297076127197,559.4417752784866,-0.4704380632809203,-0.4719434650834192
558,-0.0041401696868736,-0.00452790276510153,1.116,560.3102146852755,560.5265697429267,-0.4780963556623586,-0.4796262640004782
559,-0.004279439796535661,-0.004516250559165009,1.118,561.3922068462634,561.5245840625732,-0.4857356333683642,-0.48666824578443146
560,-0.004420869927730564,-0.004581540448171495,1.12,562.4756871595291,562.565662650976,-0.4933559671280699,-0.4939874627659938
561,-0.004564454005973798,-0.004564454005973798,1.122,563.5606586973513,563.5606586973513,-0.5009574273202531,-0.5009574273202531
562,-0.004710186015074467,-0.004710186015074467,1.124,564.6471245404719,564.6471245404719,-0.5085400839755029,-0.5085400839755029
563,-0.004858059996668679,-0.004688989100314809,1.126,565.7350877781245,565.6399008634772,-0.5161040067783703,-0.515443393649694
564,-0.005008070049758899,-0.004836171869856729,1.128,566.824551508064,566.7276009345992,-0.5236492650695049,-0.522978994010216
565,-0.0051602103302583946,-0.004898137325300673,1.13,567.915518836596,567.7674475887949,-0.5311759278477702,-0.5301560700663025
566,-0.005314475050540517,-0.005048146646010397,1.132,569.0079928786059,568.8572510016419,-0.5386840637723497,-0.5376497903699067
567,-0.005470858478993346,-0.0052002670200927735,1.134,570.1019767575892,569.9485514003926,-0.5461737411648332,-0.5451250875817967
568,-0.005629354939578445,-0.005354492731729771,1.136,571.1974736056806,571.0413518716225,-0.5536450280112901,-0.5525820295575085
569,-0.0057899588113962605,-0.005510818120208198,1.138,572.2944865636845,572.1356555103985,-0.561097991964326,-0.5600206838197545
570,-0.005952664528253512,-0.005669237579487192,1.14,573.3930187811045,573.2314654203077,-0.5685327003451248,-0.5674411175604622
571,-0.006117466578238301,-0.005925634278396987,1.142,574.4930734161741,574.3835371729647,-0.5759492201454757,-0.5752120051436894
572,-0.006284359503297707,-0.0060896587051498165,1.144,575.5946536358863,575.4832847793457,-0.5833476180297852,-0.5826009330787071
573,-0.006453337898820779,-0.006453337898820779,1.146,576.6977626160243,576.6977626160243,-0.5907279603370749,-0.5907279603370749
574,-0.006624396413227285,-0.006624396413227285,1.148,577.8024035411925,577.8024035411925,-0.5980903130829631,-0.5980903130829631
575,-0.006797529747558577,-0.006797529747558577,1.15,578.9085796048462,578.9085796048462,-0.6054347419616366,-0.6054347419616366
576,-0.006972732655075081,-0.006972732655075081,1.152,580.0162940093232,580.0162940093232,-0.6127613123477997,-0.6127613123477997
577,-0.007149999940856991,-0.007359209719805322,1.154,581.1255499658745,581.2462640083277,-0.6200700892986175,-0.6208637790129198
578,-0.007329326461409306,-0.007541439181107144,1.156,582.2363506946946,582.3589518466799,-0.6273611375556402,-0.6281641598117114
579,-0.0075107071242725264,-0.007725728254069786,1.158,583.3486994249538,583.4731966591064,-0.6346345215467148,-0.6354468537342947
580,-0.007694136887635813,-0.007912071923939541,1.16,584.4625993948288,584.5890017158849,-0.6418903053878835,-0.6427119249787799
581,-0.007879610759955509,-0.008100465226261773,1.162,585.5780538515342,585.7063702964581,-0.6491285528852668,-0.6499594374329599
582,-0.008067123799577986,-0.008067123799577986,1.164,586.6950660513544,586.6950660513544,-0.6563493275369345,-0.6563493275369345
583,-0.008256671114364426,-0.008256671114364426,1.166,587.8136392596745,587.8136392596745,-0.663552692534762,-0.663552692534762
584,-0.00844824786132431,-0.00844824786132431,1.168,588.9337767510134,588.9337767510134,-0.6707387107662742,-0.6707387107662742
585,-0.008641849246246277,-0.008641849246246277,1.17,590.0554818090541,590.0554818090541,-0.6779074448164748,-0.6779074448164748
586,-0.008837470523340303,-0.008602045034682738,1.172,591.1787577266774,591.0407983903241,-0.6850589569696655,-0.6841820815047442
587,-0.009035106994877747,-0.009035106994877747,1.174,592.3036078059932,592.3036078059932,-0.692193309211246,-0.692193309211246
588,-0.00923475401083854,-0.00923475401083854,1.176,593.4300353583731,593.4300353583731,-0.6993105632295084,-0.6993105632295084
589,-0.009436406968560808,-0.00919211325476538,1.178,594.5580437044823,594.4141547070568,-0.7064107804174127,-0.7055065746184784
590,-0.009640061312395998,-0.009392800100202957,1.18,595.6876361743136,595.5417520591197,-0.7134940218743541,-0.7125807495263549
591,-0.009845712533365759,-0.009595478065695936,1.182,596.8188161072192,596.6709275368263,-0.7205603484079138,-0.7196380311619517
592,-0.010053356168822886,-0.009800142661297563,1.184,597.9515868519431,597.8016844554882,-0.7276098205356006,-0.7266784799653151
593,-0.010262987802117221,-0.010006789443018933,1.186,599.0859517666555,598.9340261397102,-0.7346424984865774,-0.7337021560885145
594,-0.010474603062264177,-0.010215414012495531,1.188,600.2219142189849,600.0679559234223,-0.741658442203377,-0.7407091193973566
595,-0.010688197623616965,-0.010426012016660598,1.19,601.3594775860521,601.203477149913,-0.748657711343605,-0.7476994294730852
596,-0.010903767205542333,-0.010638579147418503,1.192,602.4986452545032,602.3405931718614,-0.7556403652816304,-0.7546731456140698
597,-0.011121307572099743,-0.010853111141325443,1.194,603.6394206205435,603.4793073513713,-0.7626064631102666,-0.7616303268374854
598,-0.011340814531724145,-0.011069603779269315,1.196,604.781807089971,604.619623060003,-0.7695560636424349,-0.7685710318809725
599,-0.0115622839369127,-0.011288052886155853,1.198,605.9258080782107,605.7615436788074,-0.7764892254128221,-0.7754953192042936
600,-0.011785711683913291,-0.01150845433059942,1.2,607.071427010348,606.9050725983597,-0.7834060066795229,-0.7824032469909731
601,-0.012011093712418057,-0.011730804024611761,1.202,608.2186673211633,608.0502132187917,-0.7903064654256724,-0.7892948731499275
602,-0.012238426005259963,-0.01195509792330087,1.204,609.3675324551665,609.1969689498271,-0.797190659361066,-0.7961702553170839
603,-0.01246770458811183,-0.012181332024567743,1.206,610.5180258666314,610.3453432108143,-0.8040586459237682,-0.8030294508569857
604,-0.012698925529188174,-0.01240950236880879,1.208,611.6701510196297,611.4953394307605,-0.8109104822817096,-0.809872516864389
605,-0.012932084938953184,-0.01263960503862176,1.21,612.8239113880667,612.6469610483662,-0.8177462253342742,-0.8166995101658463
606,-0.013167178969827099,-0.012871636158513073,1.212,613.9793104557152,613.8002115120589,-0.8245659317138733,-0.8235104873212795
607,-0.013404203815900535,-0.013404203815900535,1.214,615.1363517162516,615.1363517162516,-0.8313696577875092,-0.8313696577875092
608,-0.01364315571264921,-0.01364315571264921,1.216,616.2950386732907,616.2950386732907,-0.8381574596583314,-0.8381574596583314
609,-0.013884030936651097,-0.013884030936651097,1.218,617.4553748404205,617.4553748404205,-0.8449293931671735,-0.8449293931671735
610,-0.014126825805309353,-0.014126825805309353,1.22,618.6173637412387,618.6173637412387,-0.8516855138940884,-0.8516855138940884
611,-0.014371536676575349,-0.014682678346809691,1.222,619.7810089093875,619.9711164699007,-0.8584258771598674,-0.859524662282632
612,-0.014618159948676839,-0.014932405922033187,1.224,620.9463138885902,621.1386324242843,-0.8651505380275505,-0.8662579307162257
613,-0.014866692059847125,-0.015184048747879954,1.226,622.1132822326863,622.3078218824504,-0.8718595513039255,-0.8729755315295945
614,-0.015117129488059265,-0.015437603330865133,1.228,623.2819175056684,623.4786884451512,-0.8785529715410172,-0.8796775193445897
615,-0.015369468750761586,-0.015854942310194218,1.23,624.4522232817184,624.7507895207694,-0.8852308530375662,-0.8869304962753983
616,-0.0156237064046154,-0.01611387662947199,1.232,625.6242031452431,625.9261480037547,-0.8918932498404964,-0.8936056848801902
617,-0.01587983904523805,-0.016374715741364718,1.234,626.7978606909119,627.103199612422,-0.898540215746374,-0.900265412960607
618,-0.01613786330694639,-0.016637456323425323,1.236,627.9731995236929,628.2819480078768,-0.9051718043028543,-0.9069097341671158
619,-0.0163977758625041,-0.016902095091740177,1.238,629.15022325889,629.4623968617872,-0.9117880688101221,-0.9135387019022375
620,-0.016659573422871363,-0.017508282359350716,1.24,630.3289355221802,630.8551350627974,-0.9183890623223164,-0.9213279073217479
621,-0.016923252736956863,-0.017779877120022974,1.242,631.5093399496502,632.0413036915343,-0.9249748376489506,-0.9279347571294273
622,-0.01718881059137302,-0.017707368247882112,1.244,632.691440187834,633.0139830501827,-0.93154544735632,-0.9333340146152442
623,-0.017456243810194543,-0.017979567684104393,1.246,633.8752398937512,634.201270667197,-0.9381009437689013,-0.9399020975809377
624,-0.01772554925471763,-0.018253649456400175,1.248,635.0607427349438,635.3902772607937,-0.9446413789707402,-0.9464550904183641
625,-0.017996723823222965,-0.018529610506920834,1.25,636.2479523895144,636.5810065668255,-0.9511668048068319,-0.952993045072061
626,-0.018269764450741324,-0.018807447814662176,1.252,637.4368725461641,637.7734623319785,-0.9576772728844903,-0.9595160132484285
627,-0.01854466810882162,-0.01908715839523371,1.254,638.6275069042312,638.9676483138115,-0.9641728345747093,-0.9660240464170927
628,-0.018821431805300798,-0.01918623814460126,1.256,639.8198591737289,640.0489575548096,-0.9706535410135129,-0.9718959775460102
629,-0.019100052584076654,-0.019468076143915054,1.258,641.0139330753842,641.2454198945226,-0.9771194431032969,-0.9783701559904692
630,-0.01938052752488371,-0.01938052752488371,1.26,642.2097323406767,642.2097323406767,-0.9835705915141649,-0.983570591514165
631,-0.019662853743070318,-0.019662853743070318,1.262,643.4072607118774,643.4072607118774,-0.9900070366852468,-0.9900070366852468
632,-0.019947028389378254,-0.01956959117348688,1.264,644.606521942087,644.3679816216437,-0.9964288288260169,-0.9951533999251195
633,-0.020233048649726186,-0.01966213892490409,1.266,645.8075197952767,645.4461339394643,-1.0028360179175984,-1.0009105727631966
634,-0.02052091174499358,-0.019945132939797106,1.268,647.0102580463259,646.6452142838314,-1.0092286537140598,-1.0072909346989287
635,-0.020810614930807724,-0.020229956556758095,1.27,648.2147404810629,647.8460224135414,-1.0156067857437034,-1.0136568207150756
636,-0.02110215549733293,-0.020126614318781474,1.272,649.4209708963037,648.800526706745,-1.0219704633103444,-1.0187001578277513
637,-0.021395530769063167,-0.02041182795066359,1.274,650.6289530998932,650.0023344045727,-1.0283197354945806,-1.0250291123409978
638,-0.021690738104614495,-0.020698856004711434,1.276,651.838690910744,651.2058701310059,-1.0346546511550552,-1.031343756271359
639,-0.021987774896521227,-0.020887795529389196,1.278,653.0501881588771,652.3473013432797,-1.0409752589297085,-1.037311026018276
640,-0.022286638571034523,-0.020774943245497647,1.28,654.2634486854621,653.2959636771185,-1.0472816072370248,-1.0422546555222871
641,-0.022587326587923087,-0.021063294281575672,1.282,655.4784763428587,654.50157163449,-1.0535737442772675,-1.0485165903047364
642,-0.022889836440274966,-0.021353440361514566,1.284,656.6952749946565,655.7089087120924,-1.059851718033707,-1.0547644297871452
643,-0.02319416565430177,-0.021645378899738412,1.286,657.913848515716,656.9179786325318,-1.0661155762738408,-1.0609982215077263
644,-0.023500311789146463,-0.02193910734333469,1.288,659.1342007922103,658.1287851291075,-1.0723653665506043,-1.0672180127911612
645,-0.023808272436691515,-0.021815800044962527,1.29,660.356335721666,659.0711910290008,-1.0786011362035757,-1.072043241295458
646,-0.02411804522136959,-0.0221097876307644,1.292,661.5802572130048,660.2829228094738,-1.0848229323601697,-1.07822720893142
647,-0.02442962779997717,-0.02240555048514744,1.294,662.8059691865852,661.4963911638904,-1.0910308019368258,-1.08439733466105
648,-0.02474301786148782,-0.022703086154386567,1.296,664.0334755742441,662.7115998280425,-1.0972247916401867,-1.0905536649070144
649,-0.025058213126871558,-0.02300239221640154,1.298,665.2627803193396,663.9285525484446,-1.1034049479682704,-1.0966962458846234
650,-0.025375211348910992,-0.02330346628057389,1.3,666.4938873767921,665.147253082373,-1.109571317211633,-1.1028251236029865
651,-0.02569401031202423,-0.023606305987564274,1.302,667.7268007131278,666.3677051979043,-1.1157239454545258,-1.108940343866162
652,-0.026014607832086072,-0.023910909009132626,1.304,668.9615243065201,667.5899126739545,-1.1218628785760407,-1.1150419522742985
653,-0.026337001756254717,-0.024217273047959193,1.306,670.1980621468343,668.8138793003174,-1.127988162251255,-1.1211299942247674
654,-0.026661189962795522,-0.024525395837468298,1.308,671.4364182356683,670.0396088777043,-1.1340998419523598,-1.1272045149132892
655,-0.026987170360911555,-0.025287555970313052,1.31,672.6765965863971,671.563349160555,-1.1401979629497867,-1.1347250127276278
656,-0.02731494089057333,-0.0256025757828092,1.312,673.9186012242161,672.7952897135228,-1.1462825703133268,-1.1407804139758229
657,-0.02764449952235057,-0.025919355199911773,1.314,675.1624361861843,674.029016366342,-1.1523537089132385,-1.146822411110455
658,-0.02797584425724689,-0.026237892106584556,1.316,676.4081055212685,675.2645330061326,-1.158411423421354,-1.1528510485889316
659,-0.028308973126534638,-0.026558184417756907,1.318,677.6556132903863,676.5018435313018,-1.1644557583121717,-1.1588663706722733
660,-0.02864388419159275,-0.027349946238492198,1.32,678.9049635664512,678.0509645174049,-1.170486757863946,-1.1663666444762648
661,-0.028980575543746778,-0.027795527889243245,1.322,680.1561604344166,679.3728439347898,-1.176504466159769,-1.1727396518680577
662,-0.029319045304109517,-0.02812537228329863,1.324,681.4092079913205,680.6189964515437,-1.1825089270886435,-1.1787248985219598
663,-0.029659291623422724,-0.02845697368340777,1.326,682.6641103463293,681.8669735520994,-1.18850018434655,-1.184696983756641
664,-0.030001312681904212,-0.028790330190744326,1.328,683.9208716207844,683.1167792466542,-1.1944782814375092,-1.1906559509369092
665,-0.030345106689091003,-0.029125439935588353,1.33,685.1794959482455,684.3684175571663,-1.200443261674631,-1.1966018432372723
666,-0.03069067188368973,-0.029953297880657904,1.332,686.4399874745374,685.9488963885182,-1.2063951681811627,-1.2040788894582548
667,-0.031038006533424783,-0.03029539328459653,1.334,687.7023503577943,687.2070273208259,-1.2123340438915284,-1.2100063625272568
668,-0.03138710893489003,-0.03063924442697207,1.336,688.9665887685065,688.4670152772173,-1.218259931552361,-1.2159208724837804
669,-0.03173797741340222,-0.03123576999716417,1.338,690.2327068895661,689.8967301281028,-1.2241728737235276,-1.2226059324451615
670,-0.032090610322854186,-0.03158488427703957,1.34,691.5007089163123,691.1618724656165,-1.2300729127791485,-1.2284984194507913
671,-0.032445006045572516,-0.03193575324981721,1.342,692.7705990565792,692.4288904306273,-1.2359600909086097,-1.2343780619922466
672,-0.03280116299217404,-0.03228837529356691,1.344,694.042381530741,693.697788197277,-1.2418344501175682,-1.2402449020214177
673,-0.03315907960142557,-0.03315907960142557,1.346,695.3160605717594,695.3160605717594,-1.247696032228951,-1.247696032228951
674,-0.03351875434010491,-0.03351875434010491,1.348,696.5916404252307,696.5916404252307,-1.2535448788839474,-1.2535448788839474
675,-0.03388018570286342,-0.03388018570286342,1.35,697.8691253494328,697.8691253494328,-1.2593810315429972,-1.2593810315429972
676,-0.034243372212088646,-0.034243372212088646,1.352,699.1485196153719,699.1485196153719,-1.2652045314867668,-1.2652045314867668
677,-0.034608312417771854,-0.034608312417771854,1.354,700.4298275068315,700.4298275068315,-1.271015419817125,-1.271015419817125
678,-0.03497500489737335,-0.03550972701905008,1.356,701.7130533204191,702.075594918916,-1.2768137374581094,-1.2784480590420557
679,-0.03534344825569126,-0.03588177052447577,1.358,702.9982013656144,703.363722186119,-1.282599525156887,-1.2842412525490878
680,-0.03571364112473231,-0.036255572018812056,1.36,704.285275964818,704.6537889727922,-1.2883728234847083,-1.2900219406987687
681,-0.036085582163581764,-0.03663113019486999,1.362,705.5742814533992,705.9457996627065,-1.294133672837857,-1.2957901639390894
682,-0.036459270058277864,-0.037008443772513354,1.364,706.8652221797455,707.2397586528541,-1.2998821134385903,-1.3015459625437917
683,-0.036834703521684595,-0.0373875114985327,1.366,708.1581025053106,708.5356703534978,-1.3056181853360767,-1.307289376613307
684,-0.037211881293369255,-0.037211881293369255,1.368,709.4529268046646,709.4529268046646,-1.3113419284073249,-1.3113419284073249
685,-0.03759080213947687,-0.03759080213947687,1.37,710.7496994655417,710.7496994655417,-1.3170533823581079,-1.3170533823581079
686,-0.03797146485261173,-0.03797146485261173,1.372,712.0484248888916,712.0484248888916,-1.3227525867238832,-1.3227525867238832
687,-0.03835386825171534,-0.03835386825171534,1.374,713.3491074889284,713.3491074889284,-1.3284395808707017,-1.3284395808707017
688,-0.03873801118194803,-0.03873801118194803,1.376,714.6517516931802,714.6517516931802,-1.3341144039961168,-1.3341144039961168
689,-0.03912389251457195,-0.0385497320746738,1.378,715.9563619425401,715.5607653994502,-1.339777095130083,-1.3380621804483164
690,-0.039511511146834905,-0.03893366337732077,1.38,717.2629426913161,716.8642277303513,-1.3454276931358522,-1.3437055456886382
691,-0.03990086600185591,-0.03931932211306768,1.382,718.5714984072824,718.1696515801298,-1.3510662367108623,-1.3493368719278724
692,-0.040291956028511156,-0.03941432964824892,1.384,719.8820335717297,719.2747161165883,-1.3566927643876208,-1.3540879142799966
693,-0.04068478020132318,-0.03980158616588989,1.386,721.194552679517,720.5824992129617,-1.362307314534581,-1.3596916844906746
694,-0.04107933752034878,-0.04019056251413567,1.388,722.509060239122,721.8922503848102,-1.367909925357017,-1.3652835383003314
695,-0.041475627011070285,-0.04058125766632771,1.39,723.8255607726938,723.2039740780978,-1.3735006348978873,-1.3708635136788834
696,-0.041873647724288185,-0.04097367062096269,1.392,725.1440588161046,724.51767475219,-1.379079481038698,-1.3764316484351036
697,-0.04227339873601223,-0.04136780040158498,1.394,726.4645589190005,725.8333568799047,-1.3846465015003577,-1.381987980217477
698,-0.04267487914735825,-0.04115704166002875,1.396,727.787065644856,726.7276150787001,-1.3902017338440273,-1.3857530882957265
699,-0.04307808808444124,-0.04155084735479531,1.398,729.1115835710244,728.0440423010019,-1.3957452154719652,-1.3912788307824548
700,-0.04348302469827477,-0.04256048130830095,1.4,730.4381172887923,729.7923369158107,-1.4012769836283663,-1.3985865318197999
701,-0.04388968816466687,-0.042961469125558205,1.402,731.7666714034315,731.1159898570163,-1.4067970754001966,-1.4040960250154284
702,-0.04429807768412127,-0.04336416925854631,1.404,733.0972505342531,732.4416468194995,-1.412305527718022,-1.4095939011048035
703,-0.044708192481735916,-0.04376858087889747,1.406,734.4298593146603,733.7693123578649,-1.4178023773568313,-1.4150801967923061
704,-0.04512003180710635,-0.044174703182569885,1.408,735.7645023922029,735.0989910405292,-1.423287660936855,-1.4205549486278561
705,-0.04553359493422833,-0.04458253538975057,1.41,737.101184428631,736.4306874497742,-1.4287614149243788,-1.426018193007724
706,-0.045948881161400654,-0.04499207674475733,1.412,738.4399100999489,737.7644061817987,-1.434223675632551,-1.4314699661753365
707,-0.04636588981113178,-0.04540332651594303,1.414,739.7806840964702,739.1001518467717,-1.4396744792221856,-1.436910304222079
708,-0.046784620230046085,-0.04581628399560198,1.416,741.1235111228726,740.4379290688862,-1.445113861702562,-1.4423392430880932
709,-0.047205071788790604,-0.04623094849987471,1.418,742.4683958982525,741.7777424864112,-1.450541858932215,-1.4477568185630652
710,-0.04762724388194447,-0.04664731936865686,1.42,743.8153431561806,743.1195967517464,-1.4559585066197247,-1.453163066287015
711,-0.04805113592792833,-0.04706539596550683,1.422,745.164357644757,744.4634965314754,-1.4613638403244993,-1.4585580217510763
712,-0.04847674736891533,-0.04748517767755672,1.424,746.5154441266677,745.8094465064204,-1.4667578954575529,-1.4639417202982743
713,-0.048904077670743284,-0.047906663915422434,1.426,747.86860737924,747.1574513716962,-1.4721407072822792,-1.4693141971242971
714,-0.0493331263228278,-0.04832985411311566,1.428,749.223852194499,748.5075158367646,-1.4775123109152195,-1.4746754872782624
715,-0.0497638928380764,-0.04909091378489603,1.43,750.5811833792246,750.1000033562007,-1.4828727413268266,-1.4809746642179282
716,-0.05019637675280438,-0.04951947033077092,1.432,751.9406057550079,751.455940756832,-1.4882220333422238,-1.4863171091395457
717,-0.0506305776266497,-0.049949734112000044,1.434,753.3021241583078,752.813959358304,-1.4935602216419586,-1.4916484645582568
718,-0.051066495042492124,-0.05038170467393629,1.436,754.6657434405093,754.1740639558863,-1.4988873407627517,-1.4969687649665753
719,-0.05150412860637178,-0.050815381584967866,1.438,756.0314684679813,755.5362593595919,-1.5042034250982457,-1.50227804471412
720,-0.051943477947406794,-0.051250764436433845,1.44,757.3993041221329,756.9005503942324,-1.509508508899738,-1.5075763380083462
721,-0.05238454271771615,-0.05168785284254807,1.442,758.7692552994733,758.2669418994772,-1.514802626276924,-1.5128636789152896
722,-0.052827322592339354,-0.05212664644031603,1.444,760.141326911669,759.6354387299082,-1.5200858111986224,-1.5181401013602882
723,-0.05327181726916137,-0.05256714488946071,1.446,761.5155238856037,761.0060457550801,-1.525358097493506,-1.5234056391287143
724,-0.05371802646883355,-0.0530093478723419,1.448,762.8918511634355,762.3787678595755,-1.5306195188508194,-1.5286603258666904
725,-0.05416594993470144,-0.053453255093882976,1.45,764.2703137026585,763.7536099430652,-1.535870108821102,-1.5339041950818109
726,-0.054615587432727396,-0.054615587432727396,1.452,765.6509164761601,765.6509164761601,-1.5411099008168947,-1.5411099008168947
727,-0.055066938751419686,-0.055066938751419686,1.454,767.0336644722821,767.0336644722821,-1.5463389281134552,-1.5463389281134552
728,-0.05552000370175878,-0.05552000370175878,1.456,768.4185626948804,768.4185626948804,-1.551557223849457,-1.551557223849457
729,-0.055974782117126705,-0.055974782117126705,1.458,769.8056161633854,769.8056161633854,-1.5567648210276928,-1.5567648210276928
730,-0.05643127385323626,-0.05643127385323626,1.46,771.1948299128625,771.1948299128625,-1.561961752515768,-1.561961752515768
731,-0.05688947878806201,-0.05688947878806201,1.462,772.5862089940733,772.5862089940733,-1.5671480510467957,-1.5671480510467957
732,-0.05734939682177186,-0.05734939682177186,1.464,773.979758473537,773.979758473537,-1.5723237492200792,-1.5723237492200792
733,-0.057811027876658705,-0.057811027876658705,1.466,775.3754834335908,775.3754834335908,-1.577488879501798,-1.577488879501798
734,-0.058274371897074864,-0.058274371897074864,1.468,776.773388972453,776.773388972453,-1.5826434742256865,-1.5826434742256865
735,-0.0587394288493665,-0.0587394288493665,1.47,778.1734802042844,778.1734802042844,-1.587787565593708,-1.587787565593708
736,-0.05920619872180759,-0.05920619872180759,1.472,779.5757622592504,779.5757622592504,-1.5929211856767247,-1.5929211856767247
737,-0.05967468152453833,-0.05967468152453833,1.474,780.9802402835847,780.9802402835847,-1.5980443664151665,-1.5980443664151665
738,-0.060144877289500805,-0.060144877289500805,1.476,782.3869194396516,782.3869194396516,-1.6031571396196913,-1.6031571396196913
739,-0.060616786070376356,-0.060616786070376356,1.478,783.7958049060081,783.7958049060081,-1.6082595369718427,-1.6082595369718427
740,-0.06109040794252755,-0.060316239597680094,1.48,785.2069018774704,784.6340173022833,-1.6133515900247082,-1.6112864999894765
741,-0.0615657430029339,-0.06078739263839808,1.482,786.620215565174,786.043457945053,-1.618433330203564,-1.6163617355409035
742,-0.06204279137013727,-0.06126024828449313,1.484,788.0357511966419,787.4551042270939,-1.6235047888065293,-1.621426702676857
743,-0.06252155318417889,-0.06173480663510124,1.486,789.4535140158449,788.8689613298802,-1.6285659970051989,-1.6264814325290322
744,-0.06300202860654568,-0.06221106781065822,1.488,790.87350928327,790.2850344511297,-1.633616985845291,-1.631525956103409
745,-0.06348421782011111,-0.06268903195283894,1.49,792.2957422759828,791.703328804865,-1.6386577862472747,-1.636560304280878
746,-0.06396812102908123,-0.06316869922450442,1.492,793.7202182876946,793.1238496214803,-1.643688429007008,-1.641584507817879
747,-0.06445373845893841,-0.0632486903940784,1.494,795.146942628827,794.2467717243766,-1.6487089447963579,-1.645543423622349
748,-0.0649410703563884,-0.0637296402225766,1.496,796.5759206265785,795.6697708864873,-1.65371936416383,-1.6505442229846352
749,-0.06543011698930648,-0.06421228833334816,1.498,798.0071576249906,797.0950039616778,-1.6587197175351829,-1.6555349756775155
750,-0.0659208786466858,-0.06469663495264664,1.5,799.4406589850144,798.522476214485,-1.663710035214048,-1.6605157119464369
751,-0.06641335563858518,-0.06436380695028793,1.502,800.8764300845775,799.3372190196662,-1.668690347382539,-1.6633505382709148
752,-0.06690754829607864,-0.06484726833265249,1.504,802.3144763186511,800.7651457861547,-1.6736606841018615,-1.6683049699127355
753,-0.06740345697120705,-0.0653324180024666,1.506,803.7548030993189,802.1953107558573,-1.6786210753129198,-1.6732494878719184
754,-0.06790108203692617,-0.06581925622719853,1.508,805.1974158558423,803.6277191953077,-1.6835715508369133,-1.6781841218742353
755,-0.06840042388706126,-0.06630778329480147,1.51,806.6423200347313,805.0623763875751,-1.6885121403759387,-1.6831089015267358
756,-0.0689014829362587,-0.06679799951366407,1.512,808.0895210998116,806.49928763233,-1.6934428735135814,-1.6880238563183378
757,-0.06940425961993875,-0.06728990521256162,1.514,809.5390245322936,807.9384582459091,-1.698363779715507,-1.6929290156204173
758,-0.06990875439425097,-0.067783500740608,1.516,810.9908358308422,809.3798935613809,-1.7032748883300481,-1.697824408687392
759,-0.07041496773602861,-0.0682787864672083,1.518,812.4449605116457,810.8235989286111,-1.7081762285887885,-1.7027100646573043
760,-0.07092290014274469,-0.06877576278201257,1.52,813.901404108486,812.2695797143296,-1.7130678296071402,-1.7075860125523974
761,-0.07143255213246887,-0.06927443009487066,1.522,815.3601721728088,813.7178413021966,-1.717949720384925,-1.7124522812796932
762,-0.07194392424382351,-0.06977478883578625,1.524,816.8212702737935,815.1683890928691,-1.7228219298069418,-1.7173088996315595
763,-0.07245701703594455,-0.07027683945487402,1.526,818.2847039984257,816.6212285040689,-1.727684486643542,-1.7221558962862826
764,-0.07297183108843737,-0.07078058242231518,1.528,819.7504789515662,818.0763649706488,-1.7325374195511902,-1.7269932998086264
765,-0.07348836700133914,-0.07128601822831641,1.53,821.2186007560244,819.533803944662,-1.7373807570730329,-1.7318211386503992
766,-0.07400662539507694,-0.07179314738306546,1.532,822.6890750526289,820.9935508954281,-1.7422145276394516,-1.7366394411510053
767,-0.07452660691043174,-0.07230197041669349,1.534,824.1619075003011,822.4556113096039,-1.747038759568626,-1.7414482355380065
768,-0.0750483122084975,-0.07281248787923127,1.536,825.6371037761261,823.9199906912496,-1.7518534810670807,-1.746247549927666
769,-0.07557174197064703,-0.073324700340573,1.538,827.1146695754276,825.3866945619006,-1.7566587202302406,-1.751037412325504
770,-0.07609689689849208,-0.07383860839043442,1.54,828.5946106118389,826.8557284606345,-1.7614545050429722,-1.7558178506268347
771,-0.07662377771385045,-0.07526088945981023,1.542,830.0769326173787,829.0261457735137,-1.7662408633801296,-1.7628496809224399
772,-0.07715238515871001,-0.0757827021694268,1.544,831.5616413425241,830.5042460747975,-1.7710178230070963,-1.7676174687869226
773,-0.07768271999519419,-0.07630622424636561,1.546,833.0487425562851,831.9847113424406,-1.7757854115803182,-1.772375903590084
774,-0.07821478300552788,-0.07729217070739366,1.548,834.5382420462786,833.8241401275227,-1.7805436566478392,-1.77826456076733
775,-0.07874857499200663,-0.07782139296415695,1.55,836.0301456188051,835.3115795472216,-1.7852925856498325,-1.7830074111402008
776,-0.07928409677696217,-0.07835233284004091,1.552,837.5244590989226,836.8014102838717,-1.7900322259191268,-1.7877409846699504
777,-0.0798213492027328,-0.0798213492027328,1.554,839.0211883305234,839.0211883305234,-1.7947626046817313,-1.7947626046817313
778,-0.08036033313163159,-0.08036033313163159,1.556,840.5203391764094,840.5203391764094,-1.7994837490573572,-1.7994837490573572
779,-0.08090104944591733,-0.08090104944591733,1.558,842.0219175183696,842.0219175183696,-1.8041956860599357,-1.8041956860599357
780,-0.08144349904776489,-0.08239538610270176,1.56,843.5259292572566,844.2684011601074,-1.8088984425981331,-1.8112138326046587
781,-0.08198768285923627,-0.08294422897141106,1.562,845.0323803130635,845.779442826672,-1.8135920454758625,-1.8159134432940716
782,-0.08253360182225372,-0.08349481955789832,1.564,846.5412766250024,847.2929488942765,-1.8182765213927956,-1.8206039153401783
783,-0.08308125689857143,-0.08453075619713472,1.566,848.0526241515814,849.1875821023565,-1.8229518969448644,-1.8264519645869985
784,-0.08363064906975048,-0.08508719969020094,1.568,849.5664288706844,850.7083645571175,-1.8276181986247704,-1.83112722556613
785,-0.08418177933713152,-0.08564540038640184,1.57,851.0826967796482,852.2316393033254,-1.8322754528224785,-1.835793421691898
786,-0.08473464872181188,-0.0871880507416863,1.572,852.6014338953441,854.5298078829654,-1.8369236858257214,-1.8428018416203635
787,-0.08528925826461789,-0.08775452874265546,1.574,854.1226462542543,856.0628141204699,-1.8415629238204867,-1.8474559251767122
788,-0.08584560902608465,-0.0883227803122382,1.576,855.6463399125547,857.5983508860437,-1.846193192891516,-1.852101011108769
789,-0.08640370208643067,-0.08889280665470614,1.578,857.1725209461938,859.1364244505631,-1.850814519022788,-1.8567371254836609
790,-0.08696353854553679,-0.09046826288022534,1.58,858.7011954509741,861.469927675378,-1.8554269280980082,-1.8637392407358873
791,-0.08752511952292345,-0.0902901344251585,1.582,860.2323695426325,862.4194963303004,-1.860030445901089,-1.8665777530706609
792,-0.08808844615773144,-0.09188049697784215,1.584,861.7660493569233,864.769353606451,-1.8646250981166361,-1.8735752985875957
793,-0.08865351960869913,-0.09246370693344508,1.586,863.3022410496984,866.3237195982219,-1.8692109103304178,-1.8781831227000036
794,-0.08922034105414443,-0.09304871480496234,1.588,864.8409507969907,867.8806795551401,-1.873787908029846,-1.8827820899883891
795,-0.08978891169194538,-0.09363552198231406,1.59,866.3821847950966,869.4402399759397,-1.8783561166044462,-1.8873722259641477
796,-0.09035923273952175,-0.0942241298757307,1.592,867.9259492606593,871.0024073810816,-1.8829155613463278,-1.89195355604079
797,-0.09093130543381704,-0.09481453991574001,1.594,869.4722504307522,872.5671883128448,-1.8874662674506497,-1.896526105534413
798,-0.09150513103128205,-0.0954067535531537,1.596,871.0210945629631,874.1345893354166,-1.8920082600160855,-1.901089899664163
799,-0.09208071080785799,-0.09600077225905586,1.598,872.5724879354785,875.7046170349856,-1.8965415640452854,-1.9056449635527029
