o_GT,Error_GT,Error_measured,lambda,o_predicted,o_measured,s_GT,s_measured
100,0.10902384481363896,0.1039845972141839,0.3333333333333333,89.0976155186361,89.60154027858161,6.977861529781826,6.922038637543571
101,0.10683853553775062,0.10181370555543982,0.33666666666666667,90.20930791068719,90.71681573890058,6.855542115061038,6.80069777814055
102,0.10470201345089218,0.09969198890506462,0.34,91.320394628009,91.83141713168341,6.736265029648089,6.682374909410904
103,0.1026128527626757,0.0976180090499938,0.3433333333333333,92.4308761654444,92.94534506785064,6.6199181644790785,6.566958819163246
104,0.10056968252598814,0.09559038310014664,0.3466666666666667,93.54075301729723,94.05860015758475,6.506394851905967,6.45434369309072
105,0.09857118402539805,0.09360778085398744,0.35,94.6500256773332,95.17118301033132,6.395593539518303,6.344428791202156
106,0.09661608831339073,0.09166892231320631,0.35333333333333333,95.75869463878058,96.28309423480013,6.287417487149767,6.237118147252569
107,0.09470317388475785,0.08977257533676399,0.3566666666666667,96.86676039433091,97.39433443896625,6.181774485169418,6.132320289288063
108,0.09283126448018775,0.08791755342526703,0.36,97.97422343613972,98.50490423007116,6.078576592333383,6.029947979594716
109,0.09099922701075801,0.0868896976561585,0.36333333333333334,99.08108425582738,99.52902295547872,5.977739891630597,5.937569479558839
110,0.08920596959563987,0.08511110667648077,0.36666666666666664,100.18734334447961,100.63777826558712,5.879184262697918,5.8396761444525875
111,0.0874504397058701,0.08258921453645791,0.37,101.29300119264842,101.83259718645317,5.78283316950739,5.736570504151331
112,0.08573162240756498,0.08166681940804642,0.37333333333333335,102.39805829035272,102.8533162262988,5.688613462143233,5.650385979677631
113,0.08404853869841511,0.07999911463317307,0.37666666666666665,103.50251512707909,103.96010004645144,5.596455191589638,5.558847012702155
114,0.08240024393173334,0.07836642217825111,0.38,104.6063721917824,105.06622787167937,5.506291436543797,5.4692891580902225
115,0.08078582632272445,0.07676782360847062,0.38333333333333336,105.70962997288669,106.17170028502588,5.418058141353032,5.38164879064314
116,0.07920440553201892,0.07520243216514311,0.38666666666666666,106.8122889582858,107.2765178688434,5.331693964251277,5.295864980811508
117,0.07765513132184534,0.07366939141201126,0.39,107.9143496353441,108.38068120479468,5.247140135139253,5.211879353431117
118,0.07613718228053241,0.07216787395039148,0.3933333333333333,109.01581249089718,109.4841908738538,5.164340322215425,5.129635955250137
119,0.0746497646113222,0.07069708019909973,0.39666666666666667,110.11667801125266,110.58704745630713,5.083240506821736,5.049081130615893
120,0.0731921109817435,0.06963252202088022,0.4,111.21694668219078,111.64409735749437,5.003788865919781,4.973365829614989
121,0.07176347943003929,0.06821924959500676,0.4033333333333333,112.31661898896525,112.74547079900418,4.925935661660148,4.895985972837255
122,0.07036315232537887,0.06683444097503168,0.4066666666666667,113.41569541630378,113.84619820104614,4.849633137550426,4.82014736807412
123,0.06899043537878836,0.06510606096114976,0.41,114.51417644840903,114.99195450177858,4.774835420766421,4.742748526738871
124,0.06764465670194271,0.06377778764918307,0.41333333333333333,115.6120625689591,116.0915543315013,4.7014984301866605,4.669904360735806
125,0.06632516591113279,0.06284392120289158,0.4166666666666667,116.7093542611084,117.14450984963855,4.629579789762782,4.601431944641025
126,0.06503133327390313,0.061566200240036555,0.42,117.8060520074882,118.2426587697554,4.559038746868099,4.531319791287141
127,0.06376254889600337,0.06031366547201941,0.42333333333333334,118.90215629020757,119.34016448505353,4.489836095293707,4.46253789183432
128,0.06251822194645462,0.059085722183813694,0.4266666666666667,119.99766759085381,120.43702756047185,4.421934102586465,4.3950487432427385
129,0.061297779918655856,0.057881794106296874,0.43,121.0925863904934,121.5332485602877,4.355296441445858,4.328816239081867
130,0.06010066792559631,0.05741901617645646,0.43333333333333335,122.18691316967248,122.53552789706066,4.289888124917667,4.2692966619180615
131,0.0589263480273449,0.05554376651205559,0.43666666666666665,123.28064840841782,123.72376658692072,4.225675445141539,4.199983338435078
132,0.0577742985891119,0.05405291718115322,0.44,124.37379258623723,124.86501493208777,4.162625915427148,4.134653069275477
133,0.05664401366826711,0.05294143722222617,0.44333333333333336,125.46634618212047,125.95878884944392,4.100708215449795,4.073151456241972
134,0.055535002428806615,0.05220341694877159,0.44666666666666666,126.55830967453991,127.0047421288646,4.039892139371211,4.015329595163835
135,0.05444678858184341,0.05183211602409806,0.45,127.64968354145114,128.00266433674676,3.9801485467050073,3.961043833680823
136,0.05337890985078113,0.05077789652344724,0.4533333333333333,128.74046826029377,129.09420607281118,3.9214493157588497,3.9026263590432073
137,0.052330917459912134,0.04905131873779577,0.45666666666666667,129.83066430799204,130.27996933292198,3.8637672994970718,3.8402755943161297
138,0.051302375645249344,0.04804031205690579,0.46,130.9202721609556,131.370436936147,3.8070762836781777,3.783929259873415
139,0.05029286118647358,0.04704843114835302,0.4633333333333333,132.00929229508017,132.46026807037893,3.751350947131627,3.7285427333730667
140,0.049301962958942014,0.0460752621951197,0.4666666666666667,133.09772518574812,133.54946329268324,3.6965668240474,3.674091697757192
141,0.04832928150475579,0.04579775349899018,0.47,134.18557130782943,134.54251675664239,3.642700268160393,3.625215306873223
142,0.047374428621956566,0.04418346319350359,0.47333333333333333,135.27283113568217,135.7259482265225,3.5897284187194627,3.5679028699336484
143,0.04643702697095744,0.043264062594805856,0.4766666666666667,136.3595051431531,136.81323904894276,3.5376291681382352,3.516120382795955
144,0.04551670969737032,0.04302774880072787,0.48,137.44559380357867,137.8040041726952,3.4863811312315076,3.4696465018015963
145,0.044613120070445,0.042138482504188446,0.48333333333333334,138.53109758978547,138.88992003689268,3.4359636159473084,3.419470990590761
146,0.04372591113636343,0.04060745486349633,0.4866666666666667,139.61601697409094,140.07131158992954,3.3863565955104624,3.365767547409759
147,0.04285474538568572,0.03975461923739913,0.49,140.7003524283042,141.15607097210233,3.3375406818988727,3.317248434552927
148,0.04199929443428048,0.03891757516517183,0.49333333333333335,141.7841044237265,142.24019887555457,3.289497100578727,3.269496958207208
149,0.04115923871710029,0.03809600099639905,0.49666666666666665,142.86727343115206,143.32369585153654,3.2422076664294575,3.2224950438175664
150,0.04033426719420788,0.03728958366228521,0.5,143.94985992086882,144.40656245065722,3.195654760793598,3.1762251798479735
151,0.03952407706848415,0.03713666689881602,0.5033333333333333,145.0318643626589,145.39236329827878,3.1498213095907,3.1347021673046647
152,0.03872837351447681,0.03572100843717825,0.5066666666666667,146.11328722579952,146.5704067175489,3.1046907624381817,3.0858142426025577
153,0.03794686941788567,0.034958264814777415,0.51,147.1941289790635,147.65138548333906,3.0602470727254762,3.0416407705233057
154,0.03717928512519551,0.034209506049948546,0.5133333333333333,148.2743900907199,148.73173606830792,3.016474678591096,2.998134512545262
155,0.036425348202999794,0.03409719900697206,0.5166666666666667,149.35407102853503,149.71493415391933,2.973358484755209,2.959086364028384
156,0.035684793206585595,0.033371584475167776,0.52,150.43317225977265,150.79403282187383,2.9308838451632058,2.9168156027064223
157,0.034957361457356534,0.03265914057258913,0.5233333333333333,151.51169425119502,151.8725149301035,2.8890365463983088,2.875169170975597
158,0.03424280082871245,0.03195961388051312,0.5266666666666666,152.58963746906343,152.95038100687893,2.8478027918237734,2.8341333384230194
159,0.03354086554000732,0.031272757359325755,0.53,153.66700237913884,154.0276315798672,2.8071691864175126,2.7936947743227085
160,0.03285131595823376,0.029995760051892795,0.5333333333333333,154.7437894466826,155.20067839169715,2.7671227222641166,2.750298616112751
161,0.0321739184070985,0.02903806866409271,0.5366666666666666,155.81999913645714,156.32487094508107,2.727650764671278,2.709320951532687
162,0.03150844498316966,0.028691408672327893,0.54,156.89563191272651,157.35199179508288,2.6887410388794737,2.6723934933630864
163,0.030854673378789402,0.028056973556697066,0.5433333333333333,157.97068823925733,158.42671331025838,2.6503816173355483,2.634267297102148
164,0.030212386711468926,0.028020302962023787,0.5466666666666666,159.0451685793191,159.4046703142281,2.6125609075024827,2.6000206151464704
165,0.02958137335948429,0.027404612655598983,0.55,160.1190733956851,160.47823891182617,2.5752676401791676,2.5629063555063074
166,0.028961426803415503,0.02680002600911879,0.5533333333333333,161.19240315063303,161.55119568248628,2.5384908583054675,2.5263061021856013
167,0.02835234547338004,0.025632470496171816,0.5566666666666666,162.26515830594553,162.7193774271393,2.5022199062292136,2.4870064091993402
168,0.027753932601719777,0.02505362695714079,0.56,163.33733932291108,163.79099067120035,2.4664444194130364,2.4514484373430054
169,0.02716599608092048,0.024202264562368212,0.5633333333333334,164.40894666232444,164.90981728895977,2.4311543145601564,2.414816957566312
170,0.026588348326544567,0.02392730829707395,0.5666666666666667,165.47998078448742,165.93235758949743,2.3963397801393667,2.381770034276119
171,0.026020806144973256,0.02393672274041841,0.57,166.55044214920957,166.90682041138845,2.3619912672905143,2.3506537092075197
172,0.025463190605763675,0.023947131822342402,0.5733333333333334,167.62033121580865,167.8810933265571,2.3280994810927615,2.319904570919315
173,0.024915326918430094,0.023547665058379547,0.5766666666666667,168.6896484431116,168.92625394490034,2.2946553721788607,2.2873124749878886
174,0.02437704431347768,0.022883846505728517,0.58,169.75839428945488,170.01821070800324,2.261650128679556,2.253689120226604
175,0.02384817592751233,0.021285985962601575,0.5833333333333334,170.82656921268534,171.27495245654472,2.229075168483034,2.2155223914586575
176,0.023328558692268363,0.019980660363645954,0.5866666666666667,171.89417367016077,172.4834037759983,2.196922131795159,2.1793467547407976
177,0.022818033227397633,0.018361867787656257,0.59,172.96120811875062,173.74994940158484,2.1651828739869305,2.1419721135777907
178,0.022316443736873626,0.016833941097416823,0.5933333333333334,174.0276730148365,175.0035584846598,2.133849458716318,2.1055119379045655
179,0.021823637908865514,0.016385042590871132,0.5966666666666667,175.09356881431307,176.06707737623407,2.1029141513122633,2.0749874513828366
180,0.02133946681895272,0.01646739627928358,0.6,176.1588959725885,177.03586866972896,2.072369412409277,2.047500979460366
181,0.020863784836545822,0.017130964604882153,0.6033333333333334,177.2236549445852,177.89929540651633,2.0422078918216138,2.023256202585509
182,0.02039644953439308,0.017974086556767667,0.6066666666666667,178.28784618474046,178.72871624666828,2.012422422646576,2.000186894316885
183,0.019937321601054298,0.019179980843540004,0.61,179.35147014700706,179.49006350563218,1.9830060155870144,1.9791986440370872
184,0.019486264756228784,0.019986298470425122,0.6133333333333333,180.4145272848539,180.32252108144178,1.9539518534835691,1.956452911856028
185,0.019043145668828206,0.02028174970610191,0.6166666666666667,181.47701805126678,181.24787630437115,1.9252532860476705,1.931414096563023
186,0.018607833877693936,0.01983589906626319,0.62,182.53894289874893,182.31052277367505,1.896903824786757,1.9029739170260744
187,0.018180201714857774,0.018911071824788753,0.6233333333333333,183.6003022793216,183.4636295687645,1.8688971381135666,1.8724854206187447
188,0.017760124231251045,0.017760124231251194,0.6266666666666667,184.6610966445248,184.66109664452478,1.8412270466317662,1.8412270466317664
189,0.01734747912477271,0.01614819080766566,0.63,185.72132644541796,185.9479919373512,1.813887518590541,1.8080830785310513
190,0.016942146670629057,0.014681261988959561,0.6333333333333333,186.78099213258048,187.21056022209768,1.7868726655011267,1.7760084796948798
191,0.01654400965386148,0.013593736757619355,0.6366666666666667,187.84009415611246,188.4035962792947,1.7601767379085858,1.746095324005317
192,0.016152953303983402,0.012760070673119905,0.64,188.8986329656352,189.55006643076098,1.733794121312455,1.7177045118666756
193,0.015768865231647822,0.012407090182369896,0.6433333333333333,189.95660901029197,190.6054315948026,1.7077193322301882,1.6918716968270922
194,0.015391635367275436,0.012521734466116553,0.6466666666666666,191.01402273874857,191.5707835135734,1.6819470143975892,1.6684914382824085
195,0.01502115590156858,0.012861926002313322,0.65,192.07087459919413,192.4919244295489,1.656471935100708,1.6464005857352957
196,0.014657321227849678,0.01296953332118568,0.6533333333333333,193.12716503934146,193.4579714690476,1.6312889816339293,1.6234587945220866
197,0.014300027886153298,0.012628334899796914,0.6566666666666666,194.1828945064278,194.51221802474,1.6063931578792092,1.598682470721389
198,0.013949174509011933,0.012293589928777385,0.66,195.23806344721564,195.56586919410208,1.5817795810016568,1.5741870390128487
199,0.013604661768879105,0.011965198586137893,0.6633333333333333,196.29267230799306,196.61892548135856,1.5574434782568725,1.5499677495612394
200,0.013266392327127506,0.011209272767163157,0.6666666666666666,197.3467215345745,197.75814544656737,1.5333801839056531,1.5240572323875068
201,0.01293427078457,0.010897620910941215,0.67,198.40021157230143,198.80957819690082,1.5095851362318797,1.50040685860359
202,0.01260820363345073,0.010379330877464999,0.6733333333333333,199.45314286604295,199.90337516275207,1.486053874659579,1.4760675926218667
203,0.012288099210855748,0.010081892041435074,0.6766666666666666,200.50551586019628,200.95337591558868,1.4627820369653401,1.452952141676933
204,0.011973867653492136,0.00937333611277422,0.68,201.5573309986876,202.08783943299406,1.439765356582417,1.4282472337297578
205,0.011665420853792722,0.009091929241660138,0.6833333333333333,202.6085887249725,203.13615450545967,1.4169996599930252,1.405663662713081
206,0.011362672417297513,0.00922454736932517,0.6866666666666666,203.6592894820367,204.09974324191901,1.3944808642054827,1.3851099527980217
207,0.011065537621272244,0.00895013307320532,0.69,204.70943371239665,205.1473224538465,1.372204974312991,1.3629837568856078
208,0.010773933374518417,0.008880945049527966,0.6933333333333334,205.75902185810017,206.15276342969818,1.35016808113099,1.3419590591977135
209,0.010487778178339855,0.009010141810444128,0.6966666666666667,206.80805436072697,207.11688036161718,1.3283663589101566,1.321990200387388
210,0.010206992088621377,0.009233203406457625,0.7,207.8565316613895,208.0610272846439,1.30679606312223,1.3026143157202388
211,0.009931496678989581,0.00858281224414425,0.7033333333333334,208.9044542007332,209.18902661648556,1.2854535283159751,1.2796946965091196
212,0.009661215005011676,0.008232305028756812,0.7066666666666667,209.95182241893752,210.25475133390356,1.2643351660407107,1.2582663572437154
213,0.009396071569407352,0.0076060300677665066,0.71,210.99863675571623,211.37991559556573,1.2434374628349207,1.2358773630608844
214,0.009135992288232553,0.007179943880053476,0.7133333333333334,212.04489765031823,212.46349200966856,1.22275697827759,1.2145400513835647
215,0.008880904458008942,0.006578566986401611,0.7166666666666667,213.09060554152808,213.58560809792365,1.2022903430999932,1.1926720203551933
216,0.008630736723766049,0.005990580978502128,0.72,214.13576086766653,214.70603450864354,1.1820342573557538,1.1710649794474925
217,0.00838541904796625,0.005370809046375016,0.7233333333333334,215.18036406659132,215.83453443693662,1.1619854886470937,1.1495290042087971
218,0.008144882680285822,0.005166768937578201,0.7266666666666667,216.2244155756977,216.87364437160795,1.1421408704052667,1.1298971202745223
219,0.007909060128224012,0.004615049267277619,0.73,217.26791583191894,217.9893042104662,1.1224973002232548,1.1090273326205757
220,0.007677885128513072,0.004424777990799617,0.7333333333333333,218.31086527172712,219.02654884202408,1.1030517382388854,1.0898151173800188
221,0.007451292619304584,0.004239097969085385,0.7366666666666667,219.3532643311337,220.06315934883213,1.0838012055665944,1.0707955910997953
222,0.007229218713108297,0.0043971787526911835,0.74,220.39511344568996,221.02382631690256,1.064742782776146,1.053328740144786
223,0.007011600670458676,0.0043834352631086,0.7433333333333333,221.43641305048772,222.02249393632678,1.0458736084166658,1.0353312024438255
224,0.006798376874285163,0.004410914683064172,0.7466666666666667,222.47716358016012,223.01195511099363,1.0271908775844258,1.0176585462404424
225,0.006589486804969182,0.004559248640072155,0.75,223.51736546888193,223.97416905598377,1.0086918405328786,1.0006223058086157
226,0.006384871016060581,0.0047028957756902095,0.7533333333333333,224.5570191503703,224.937145554694,0.9903738013234873,0.9837184893785934
227,0.006184471110637309,0.004525366499523326,0.7566666666666667,225.59612505788533,225.9727418046082,0.9722341165159651,0.9657007032529779
228,0.005988229718286202,0.0043519986324153945,0.76,226.63468362423075,227.0077443118093,0.9542701938965884,0.9478574981936033
229,0.005796090472688395,0.0038748358517586776,0.7633333333333333,227.67269528175436,228.11266258994726,0.9364794912432952,0.9289876553133488
230,0.0056079979897877205,0.0037139961404876755,0.7666666666666667,228.71016046234882,229.14578088768783,0.9188595151263361,0.9115086390053254
231,0.005423897846527523,0.003257820597726595,0.77,229.74707959745214,230.24744344192516,0.9014078197432901,0.8930427551760723
232,0.005243736560136884,0.0031092953509195124,0.7733333333333333,230.78345311804824,231.27864347858667,0.8841220057872983,0.8759173535735921
233,0.005067461567949896,0.002819308631664217,0.7766666666666666,231.81928145466767,232.34310108882224,0.8669997193474197,0.8583990821314932
234,0.004895021207742985,0.002680697378938603,0.78,232.85456503738814,233.37271681332837,0.850038650840046,0.8416062674237128
235,0.004726364698574513,0.0025458697855872577,0.7833333333333333,233.889304295835,234.401720600387,0.833236533970364,0.8249708275533779
236,0.004561442122109931,0.0025535494243561965,0.7866666666666666,234.92349965918206,235.39736233585194,0.8165911447228752,0.8090131788998469
237,0.0044002044044217665,0.0024239476085807393,0.79,235.95715155615204,236.42552441676636,0.8001003003800347,0.792675369592508
238,0.004242603298246983,0.0022979810181570815,0.7933333333333333,236.99026041501722,237.45308051767861,0.7837618585681002,0.7764885485205882
239,0.004088591365690495,0.002439899224911521,0.7966666666666666,238.02282666359997,238.41686408524615,0.7675737163293113,0.7614331265986768
240,0.003938121961361081,0.0023166830633445084,0.8,239.05485072927334,239.44399606479732,0.7515338092195553,0.7455215387457989
241,0.003791149215926212,0.002196961510839512,0.8033333333333333,240.08633303896178,240.47053227588768,0.7356401104307124,0.7297549895472667
242,0.0036476280200761343,0.0020806891044903215,0.8066666666666666,241.11727401914158,241.49647323671334,0.719890629936889,0.7141315048973939
243,0.0035075140088828534,0.00196782113222436,0.81,242.14767409584147,242.52181946486948,0.7042834136637872,0.698649146354477
244,0.0033707635465436135,0.001858313617411744,0.8133333333333334,243.17753369464336,243.54657147735153,0.6888165426804841,0.6833060103390403
245,0.003237333711499397,0.0017521233038543906,0.8166666666666667,244.20685324068265,244.57072979055567,0.6734881324129156,0.6681002273536123
246,0.003107182281913848,0.001649207641137896,0.82,245.2356331586492,245.59429492028008,0.6582963318783878,0.6530299612233607
247,0.002980267721508157,0.0015495247703423457,0.8233333333333334,246.26387387278749,246.61726738172544,0.643239322940468,0.6380934083569443
248,0.0028565491657360094,0.001228104269931728,0.8266666666666667,247.29157580689747,247.69543014105693,0.6283153195836162,0.6224845534178802
249,0.002735986408292359,0.0008908879373228979,0.83,248.3187393843352,248.7781689036066,0.6135225672069577,0.6069456052864991
250,0.0026185398879478043,0.0005935571458907134,0.8333333333333334,249.34536502801305,249.85161071352732,0.59885934193661,0.5916730298333707
251,0.0025041706756938364,0.0003079568830959075,0.8366666666666667,250.37145316040085,250.92270282234293,0.5843239499559864,0.5765641279005709
252,0.002392840462198883,0.00013797261017600704,0.84,251.39700420352588,251.96523090223565,0.5699147268535473,0.5619815138557458
253,0.0022845115455574637,-0.00012641090815050532,0.8433333333333334,252.42201857897396,253.03198195976208,0.5556300369874608,0.5471844604252514
254,0.0021791468193321957,1.9105536113410895e-05,0.8466666666666667,253.44649670788962,253.9951471938272,0.5414682728666603,0.5339310345083563
255,0.0020767097608744975,6.139159228112868e-05,0.85,254.470439010977,254.9843451439683,0.5274278545478187,0.5204236126394237
256,0.00197716441992124,0.00019726944443299033,0.8533333333333334,255.49384590850016,255.94949902222515,0.5135072290477569,0.5073451422991839
257,0.0018804754074561907,0.00032718116585275006,0.8566666666666667,256.51671782028376,256.91591444037584,0.4997048697708229,0.49434803356687973
258,0.0017866078848301592,0.0006550577391299456,0.86,257.5390551657138,257.8309951033045,0.48601927595080946,0.482131121743203
259,0.0016955275531354943,0.0007680036697310415,0.8633333333333333,258.5608583637379,258.80108704953966,0.4724489721069762,0.4692741150144173
260,0.0016072006428229403,0.0009611362414565642,0.8666666666666667,259.58212783286604,259.7501045772213,0.4589925075137555,0.4567893434776894
261,0.0015215939035586022,0.000891801878455665,0.87,260.6028639911712,260.76723970972307,0.4456484556837546,0.4435093430964726
262,0.0014386745943141715,0.0006614165222926489,0.8733333333333333,261.6230672562897,261.8267088711593,0.4324154138636598,0.4297863281473687
263,0.0013584104736806355,0.0005220446542574629,0.8766666666666667,262.642738045422,262.8627022559303,0.4192920025426646,0.4164743602855779
264,0.0012807697904047145,0.000156886862121577,0.88,263.66187677533316,263.9585818683999,0.40627686497306964,0.40250661566611956
265,0.0012057212741384954,-0.00020735231470432995,0.8833333333333333,264.6804838623533,265.05494836339665,0.3933686667027003,0.3886482427022679
266,0.001133234126396865,-0.0006057582856735188,0.8866666666666667,265.69855972237843,266.16113170398916,0.3805660951187972,0.3747814904729915
267,0.0010632780117192126,-0.0008021151821023696,0.89,266.71610477087097,267.21416475362133,0.3678678590030626,0.3616876789718112
268,0.0009958230490300637,-0.001157792880419849,0.8933333333333333,267.73311942285994,268.3102884919525,0.355272688097543,0.3481672343355921
269,0.0009308398031896686,-0.0011549260503684613,0.8966666666666666,268.749604092942,269.3106751075491,0.34277933268103233,0.3359237460274117
270,0.0008682992767342478,-0.0012790735300534884,0.9,269.76555919528175,270.34534985311444,0.3303865631557128,0.32335593709175925
271,0.0008081729017995323,-0.0013296017316681283,0.9033333333333333,270.7809851436123,271.36032206928206,0.3180931696437397,0.31112056736514887
272,0.0007504325322199514,-0.0014338132157165095,0.9066666666666666,271.7958823512362,272.3899971946749,0.3058979615934862,0.2988011288845174
273,0.0006950504358052131,-0.0015561331609919163,0.91,272.8102512310252,273.4248243529508,0.29379976739519376,0.2865135331637929
274,0.0006419992867822773,-0.0016933494446888734,0.9133333333333333,273.82409219542166,274.46397774784475,0.28179743400575075,0.2742678065691171
275,0.0005912521584047103,-0.0017613932946565828,0.9166666666666666,274.8374056564387,275.48438315603056,0.26988982658236,0.26233291143805393
276,0.0005427825157222943,-0.0017150652883045673,0.92,275.85019202566065,276.47335801957206,0.25807582812484703,0.25084970493735126
277,0.0004965642085054054,-0.0017656477335302762,0.9233333333333333,276.862451714244,277.4890844221879,0.2463543391263645,0.23914108407674456
278,0.0004525714643251694,-0.0016158414253709043,0.9266666666666666,277.8741851329176,278.4492039162531,0.23472427723227635,0.22815199746977258
279,0.0004107788817805973,-0.0013370290721044556,0.93,278.8853926919832,279.37303111111714,0.22318457690699242,0.217649599399699
280,0.000371161423870043,-0.0010993802864813266,0.9333333333333333,279.8960748013164,280.30782648021477,0.21173418910853406,0.207092975683275
281,0.00033369441150601513,-0.0007363439402594406,0.9366666666666666,280.9062318703668,281.2069126472129,0.20037208097063136,0.19700583001032476
282,0.00029835351716756865,-0.0003094614792159296,0.94,281.91586430815875,282.0872681371389,0.1890972354921455,0.18719113535838466
283,0.0002651147586862708,0.00019227531603930673,0.9433333333333334,282.9249725232918,282.9455860855609,0.1779086512336142,0.1776809281600352
284,0.0002339544931642499,0.00059362917785777,0.9466666666666667,283.93355692394135,283.8314093134884,0.16680534202074085,0.16792627391912024
285,0.00020484941102088335,0.0009670696030010923,0.95,284.94161791785905,284.7243851631447,0.1557863366546374,0.1581542889717879
286,0.00017777653016199562,0.0013377591187687021,0.9533333333333334,285.94915591237367,285.61740089203215,0.14485067862863746,0.14844297545862767
287,0.0001527131902743213,0.0014239780353366813,0.9566666666666667,286.95617131439127,286.5913183038584,0.1339974258515163,0.13792087048044874
288,0.00012963704723666246,0.0013605831130786407,0.96,287.96266453039584,287.60815206343335,0.12322565037694429,0.127011142356524
289,0.00010852606764668408,0.0011839125247248238,0.9633333333333334,288.9686359664501,288.6578492803545,0.11253443813900554,0.11582944648771563
290,8.935852346271218e-05,0.000981456845049079,0.9666666666666667,289.9740860281958,289.71537751493577,0.10192288869363401,0.10464626827952792
291,7.211298675503363e-05,0.000711546203929854,0.97,290.9790151208543,290.7929400546564,0.09139011496580773,0.09333489661228013
292,5.676832456504611e-05,0.0005054696805761324,0.9733333333333334,291.983423649227,291.85240285327177,0.08093524300234754,0.08229495508478699
293,4.330369386871129e-05,0.0003237204071526442,0.9766666666666667,292.98731201769647,292.9051499207043,0.07055741173018554,0.07140410067094777
294,3.169853664666161e-05,0.00019191629887174502,0.98,293.9906806302259,293.9435766081317,0.06025577271995782,0.06073781890171748
295,2.1932575047831977e-05,2.1932575047831977e-05,0.9833333333333333,294.9935298903609,294.9935298903609,0.050029489954780196,0.050029489954780196
296,1.3985806658615422e-05,-0.00018892893903852523,0.9866666666666667,295.99586020122905,296.0559229659554,0.0398777396040845,0.03927159796210242
297,7.838499862041026e-06,-0.0004727610870698373,0.99,296.997671965541,297.14041004285974,0.029799709802382106,0.028369323731867763
298,3.471189293061694e-06,-0.000770858556551954,0.9933333333333333,297.99896558559067,298.2297158498525,0.019794600432824782,0.017498426782617107
299,8.646713838995089e-07,-0.0005409015002204535,0.9966666666666667,298.9997414632562,299.1617295485659,0.009861622915451722,0.008260095353982363
300,0.0,0.0,1.0,300.0,300.0,0.0,0.0
301,8.584821609000214e-07,-0.0005406275530358577,1.0033333333333334,300.99974159686957,301.1627288934638,-0.009791034436840642,-0.011381098429383561
302,3.4216738470526167e-06,-0.0010798541264685788,1.0066666666666666,301.9989666544982,302.3261159461935,-0.019512235589830083,-0.02268102264961849
303,7.671375891373473e-06,-0.0016176954362081743,1.01,302.9976755731049,303.4901617171711,-0.029164347919349933,-0.033900638021452364
304,1.3589629948322562e-05,-0.0021541669934588164,1.0133333333333334,303.9958687524957,304.6548667660115,-0.03874810534145512,-0.04504079764890743
305,2.115871454526448e-05,-0.002335962140115625,1.0166666666666666,304.9935465920637,305.71246845273527,-0.0482642314138972,-0.0550830020280526
306,3.0361141210881577e-05,-0.0025482041432882785,1.02,305.99070949078947,306.7797504678462,-0.05771343951822336,-0.06514693052817054
307,4.117965067666107e-05,-0.0026977806774117785,1.0233333333333334,306.98735784724227,307.8282186679654,-0.06709643303805238,-0.07496550270475516
308,5.359720915643939e-05,-0.0029142410449641415,1.0266666666666666,307.9834920595798,308.89758624184896,-0.07641390553360827,-0.08491113182894552
309,6.759700469542902e-05,-0.0031751471056352854,1.03,308.9791125255491,309.9811204556413,-0.08566654091261795,-0.0949185273311807
310,8.316244358899248e-05,-0.0034130571600837446,1.0333333333333334,309.9742196424874,311.05804771962596,-0.09485501359764865,-0.10479581902268223
311,0.00010027714687562527,-0.0036397579856448227,1.0366666666666666,310.9688138073217,312.13196473353554,-0.10397998868997606,-0.11457762913725841
312,0.0001189249468900937,-0.0037555993579868295,1.04,311.9628954165703,313.1717469996919,-0.11304212213007138,-0.12398459955226228
313,0.00013908988388827684,-0.003849521372905827,1.0433333333333332,312.95646486634297,314.2049001897195,-0.12204206085477969,-0.13326993045341942
314,0.00016075620273541555,-0.0037972817677172995,1.0466666666666666,313.9495225523411,315.19234647506323,-0.13098044295127292,-0.14208758451354087
315,0.00018390834965437478,-0.003719478873128739,1.05,314.9420688698589,316.17163584503555,-0.13985789780785945,-0.15077800246869713
316,0.0002085309690401449,-0.003415535311753998,1.0533333333333332,315.9341042137833,317.07930915851426,-0.14867504626171554,-0.1587849494075122
317,0.0002346089003315881,-0.003052194305628212,1.0566666666666666,316.9256289785949,317.96754559488414,-0.15743250074361614,-0.16657618038680536
318,0.0002621271749425655,-0.0026120235856846702,1.06,317.91664355836826,318.8306235002477,-0.16613086541974093,-0.1741051469598885
319,0.00029107101325149946,-0.002235517735044734,1.0633333333333332,318.9071483467728,319.71313015747927,-0.17477073633061463,-0.18176156578383923
320,0.0003214258216484467,-0.001804766544903913,1.0666666666666667,319.8971437370725,320.57752529436925,-0.18335270152725405,-0.18921998797612619
321,0.00035317718963453354,-0.001375826441041527,1.07,320.8866301221273,321.44164028757433,-0.19187734120459113,-0.196635899266465
322,0.00038631088697720404,-0.0009800648713587845,1.0733333333333333,321.87560789439334,322.31558088857753,-0.20034522783222664,-0.20409569049724594
323,0.00042081286091936765,-0.0007384892300047026,1.0766666666666667,322.86407744592304,323.2385320212915,-0.2087569262825814,-0.21193003156207663
324,0.0004566692334370715,-0.0004978873584486075,1.08,323.8520391683664,324.16131550413735,-0.21711299395650904,-0.21971834988398714
325,0.0004938662985512984,-0.0002747131131167617,1.0833333333333333,324.8394934529708,325.08928176176295,-0.22541398090642034,-0.22750582264923191
326,0.0005323905196871483,-4.6148449225983384e-05,1.0866666666666667,325.826440690582,326.01504439444767,-0.23366042995698097,-0.23523062804629188
327,0.0005722285270818228,0.000143283896401303,1.09,326.81288127164424,326.9531461658768,-0.24185287682344223,-0.24301377063219473
328,0.0006133671152398517,0.0003169403950411651,1.0933333333333333,327.79881558620133,327.8960435504265,-0.2499918502276505,-0.25079182414837903
329,0.0006557932404361107,0.0003488684179269222,1.0966666666666667,328.7842440238965,328.88522229050204,-0.25807787201179233,-0.25890372120223004
330,0.0006994940182619992,0.00038207756126735836,1.1,329.76916697397354,329.8739144047818,-0.26611145724993096,-0.26696301391313076
331,0.0007444567212185031,0.0004165551290927446,1.1033333333333333,330.7535848252767,330.8621202522703,-0.27409311435737593,-0.27497021232331953
332,0.0007906687763505304,0.00045228857946111577,1.1066666666666667,331.7374979662516,331.8498401916189,-0.28202334519793815,-0.28292581990257154
333,0.000838117762925237,0.0004892655221422982,1.11,332.7209067849459,332.8370745811266,-0.28990264518912345,-0.2908303336537286
334,0.0008867914101520585,0.00038367426308574766,1.1133333333333333,333.7038116690092,333.87185279612936,-0.29773150340530075,-0.2990653405405565
335,0.0009366775949430704,0.000418913803356808,1.1166666666666667,334.68621300569407,334.85966387587547,-0.30551040267889595,-0.3068790892828974
336,0.000987764339712493,0.000455363092388525,1.12,335.6681111818566,335.84699800095746,-0.3132398196996591,-0.3146431340919135
337,0.0010400398102190873,0.0006493655952290715,1.1233333333333333,336.64950658395617,336.7811637944078,-0.3209202251120358,-0.3219471698323943
338,0.0010934923134404604,0.0006923792991646621,1.1266666666666667,337.6303995980571,337.76597579688234,-0.3285520836107,-0.3296034502782542
339,0.001148110295492035,0.0007365652155504142,1.13,338.6107906098282,338.7503043919284,-0.3361358540342756,-0.33721148876718526
340,0.0012038823395773962,0.0007819119547394514,1.1333333333333333,339.5906800045437,339.7341499353886,-0.3436719894572924,-0.3447717398235557
341,0.001260797163977532,0.0008284082617116418,1.1366666666666667,340.57006816708366,340.71751278275633,-0.3511609372804186,-0.35228465227971595
342,0.001318843620074357,0.0008760430141038748,1.14,341.54895548193457,341.7003932891765,-0.35860313931899973,-0.35975066936482053
343,0.001378010690409305,0.0008794620475870555,1.1433333333333333,342.5273423331896,342.69834451767764,-0.36599903188994454,-0.3672873484821972
344,0.0014382874867746277,0.000742720816930552,1.1466666666666667,343.5052291045495,343.7445040389759,-0.3733490458969983,-0.37514112131730387
345,0.0014996632483393693,0.0007885025839949565,1.15,344.4826161793229,344.72796660852174,-0.3806536069144297,-0.38248074422761896
346,0.001562127339807842,0.0006414056617416337,1.1533333333333333,345.4595039404265,345.7780736410374,-0.38791313526917015,-0.39027164713160667
347,0.0016256692496079738,0.0005861149071765415,1.1566666666666667,346.43589277038603,346.79661812720974,-0.3951280461214428,-0.3977833065913789
348,0.0016902785881128543,0.0004265036079848689,1.16,347.4117830513367,347.85157674442127,-0.4022987495439051,-0.40551713954025637
349,0.001755945085892856,0.00025955696625316345,1.1633333333333333,348.3871751650234,348.90941461877765,-0.4094256505993411,-0.41322512063690303
350,0.00182265859199593,0.0001907308123898994,1.1666666666666667,349.3620694928014,349.93324421566354,-0.4165091494169386,-0.42064092017915466
351,0.0018904090722592437,0.00022632662754281578,1.17,350.336466415637,350.9205593537325,-0.4235496412671726,-0.42775125370854294
352,0.00195918660764863,0.0002629699996059352,1.1733333333333333,351.3103663141077,351.9074345601387,-0.4305475166353293,-0.43481854800035175
353,0.002028981392627062,0.00030065119304102027,1.1766666666666667,352.28376956840265,352.8938701288565,-0.4375031612937024,-0.4418431926537359
354,0.002099783733548376,0.00045312368425981867,1.18,353.2566765583239,353.839594215772,-0.44441695637248324,-0.4485411457276199
355,0.0021715840470826254,0.0004949278367691259,1.1833333333333333,354.22908766328567,354.82430061794696,-0.4512892784293741,-0.45547724293319874
356,0.002244372858663021,0.0007734846951661204,1.1866666666666668,355.20100326231596,355.72463944852086,-0.4581204995179575,-0.46178546351410116
357,0.0023181408009618435,0.0008214399620169643,1.19,356.1724237340566,356.70674593355994,-0.46491098725483765,-0.46863027515287636
358,0.0023928786123930076,0.0011142938930327243,1.1933333333333334,357.1433494567633,357.6010827862943,-0.4716611048855847,-0.4748306675104159
359,0.002468577135634904,0.0012923265781184853,1.1966666666666668,358.11378080830707,358.53605475845546,-0.4783712113495111,-0.48127970831451616
360,0.0025452273161832295,0.0013494131224662611,1.2,359.08371816617404,359.51421127591215,-0.485041661343294,-0.48799071464426125
361,0.0026228202009253494,0.0016635680507500138,1.2033333333333334,360.05316190746595,360.39945193367925,-0.491672805383474,-0.49403283484931476
362,0.002701346936737662,0.0020517799131175517,1.2066666666666668,361.02211240890097,361.25725567145145,-0.49826498986785667,-0.4998594378354338
363,0.002780798769107243,0.00238500534699023,1.21,361.99057004681407,362.13424305904255,-0.5048185571358293,-0.5057878087655301
364,0.0028611670407765223,0.0025932405615445835,1.2133333333333334,362.95853519715735,363.0560604355978,-0.5113338455276228,-0.5119883528498982
365,0.0029424431904089944,0.002670420581737383,1.2166666666666666,363.9260082355007,364.02529648766586,-0.517811189442541,-0.5184739877650275
366,0.0030246187512777342,0.0030246187512777342,1.22,364.89298953703235,364.89298953703235,-0.524250919396171,-0.524250919396171
367,0.003107685349975664,0.003107685349975664,1.2233333333333334,365.85947947655893,365.85947947655893,-0.5306533620766016,-0.5306533620766016
368,0.003191634705145149,0.003191634705145149,1.2266666666666666,366.8254784285066,366.8254784285066,-0.5370188403996705,-0.5370188403996705
369,0.003276458626230406,0.0035646691193709787,1.23,367.790986766921,367.6846370949521,-0.5433476735632533,-0.5426521885410923
370,0.003362149012249224,0.003654435904847001,1.2333333333333334,368.7560048654678,368.6478587152066,-0.5496401771006186,-0.5489366376739299
371,0.0034486978505830143,0.003745058066700516,1.2366666666666666,369.7205330974337,369.6105834572541,-0.5558966629328708,-0.5551851152043167
372,0.003536097215790197,0.003836527673474689,1.24,370.68457183572605,370.5728117054674,-0.5621174394204875,-0.5613979290980293
373,0.0036243392684339516,0.0036243392684339516,1.2433333333333334,371.64812145287414,371.64812145287414,-0.5683028114139858,-0.5683028114139858
374,0.0037134162539322665,0.0037134162539322665,1.2466666666666666,372.61118232102933,372.61118232102933,-0.5744530803037184,-0.5744530803037184
375,0.0038033205014262423,0.0038033205014262423,1.25,373.57375481196516,373.57375481196516,-0.5805685440688273,-0.5805685440688273
376,0.003894044422662969,0.003894044422662969,1.2533333333333334,374.5358392970787,374.5358392970787,-0.586649497325371,-0.586649497325371
377,0.003985580510901015,0.003664638578825138,1.2566666666666666,375.4974361473903,375.6184312557829,-0.5926962313736355,-0.5934548825497937
378,0.004077921339829974,0.003752922501486218,1.26,376.45854573354427,376.5813952944382,-0.5987090342446493,-0.5994753818084825
379,0.004171059562508322,0.003842006875795103,1.2633333333333334,377.41916842580935,377.54387939407366,-0.6046881907459212,-0.605462191630076
380,0.004264987910317143,0.0037652491136009004,1.2666666666666666,378.3793045940795,378.56920533683166,-0.6106339825064082,-0.6118063997528205
381,0.004359699191932726,0.0038538867678652735,1.27,379.33895460787363,379.53166914144333,-0.6165466880207334,-0.6177304576617333
382,0.004455186292311415,0.0036017579782189816,1.2733333333333334,380.29811883633704,380.62412845232035,-0.622426582692671,-0.6244183477572876
383,0.004551442171694393,0.0036878994437007273,1.2766666666666666,381.25679764824105,381.5875345130626,-0.6282739388779058,-0.6302844154823152
384,0.00464845986462518,0.0037748103135375466,1.28,382.21499141198393,382.5504728396016,-0.6340890259260853,-0.6361181108090488
385,0.004746232478983784,0.00386248370783718,1.2833333333333334,383.17270049559124,383.5129437724827,-0.6398721102221797,-0.6419197009748907
386,0.004844753195035127,0.003950912818858804,1.2866666666666666,384.12992526671644,384.4749476519205,-0.6456234552271595,-0.6476894502838864
387,0.004944015264493402,0.004040090910078639,1.29,385.08666609264105,385.43648481779957,-0.651343321518003,-0.6534276201468606
388,0.005044012009599281,0.0041300113152710335,1.2933333333333332,386.0429233402755,386.39755560967484,-0.6570319668270539,-0.6591344691209005
389,0.00514473682221311,0.004590501111754713,1.2966666666666666,386.9986973761591,387.2142950675274,-0.662689646080731,-0.6639620102012059
390,0.0052461831629201676,0.004685915363751292,1.3,387.95398856646113,388.172493008137,-0.6683166114376098,-0.66959977933157
391,0.0053483445601511005,0.004970886035230722,1.3033333333333332,388.9087972769809,389.0563835602248,-0.6739131123258864,-0.6747757211096634
392,0.005451214609315099,0.005069742434463916,1.3066666666666666,389.8631238731485,390.01266096569015,-0.679479395480233,-0.6803491291064476
393,0.005554786971947896,0.005169304270397705,1.31,390.8169687200245,390.9684634217337,-0.685015704978057,-0.6858925250804289
394,0.005659055374868997,0.005269565273848603,1.3133333333333332,391.7703321823016,391.92379128210365,-0.6905222822751804,-0.6914061507964927
395,0.005764013609356442,0.005370519240007444,1.3166666666666667,392.7232146243042,392.87864490019706,-0.6959993662409409,-0.6968902454297293
396,0.005869655530330223,0.005472160027625996,1.32,393.67561640998923,393.8330246290601,-0.7014471931927325,-0.7023450456000192
397,0.005975975055550449,0.00557448155821502,1.3233333333333333,394.6275379029465,394.78693082138864,-0.706865996929995,-0.7077707854060653
398,0.006082966164825906,0.005677477815254263,1.3266666666666667,395.5789794663993,395.7403638295288,-0.7122560087676608,-0.7131676964588834
399,0.006190622899236928,0.005781142843416336,1.33,396.52994146320447,396.6933240054769,-0.7176174575690687,-0.7185360079147571
400,0.00629893936036595,0.005885470747798962,1.3333333333333333,397.4804242558536,397.6458117008804,-0.7229505697783591,-0.7238759465076754
401,0.006407909709544678,0.00599045569317154,1.3366666666666667,398.4304282064726,398.5978272670382,-0.7282555694523526,-0.7291877365812516
402,0.006517528167107266,0.0060960919032314095,1.34,399.3799536768229,399.549371054901,-0.7335326782919304,-0.734471600120144
403,0.006627789011658691,0.006202373659872029,1.3433333333333333,400.32900102830155,400.5004434150716,-0.7387821156729174,-0.7397277567809787
404,0.0067386865793523185,0.006309295302461176,1.3466666666666667,401.27757062194166,401.4510446978057,-0.7440040986764822,-0.7449564239227882
405,0.006850215263178025,0.0064168512271309715,1.35,402.2256628184129,402.40117525301196,-0.7491988421190616,-0.750157816636974
406,0.006962369512260279,0.006962369512260279,1.3533333333333333,403.1732779780223,403.1732779780223,-0.7543665585818183,-0.7543665585818183
407,0.007075143831169784,0.007075143831169784,1.3566666666666667,404.1204164607139,404.1204164607139,-0.759507458439637,-0.759507458439637
408,0.007188532779239813,0.007188532779239813,1.36,405.06707862607016,405.06707862607016,-0.7646217498896763,-0.7646217498896763
409,0.0073025309698978485,0.0073025309698978485,1.3633333333333333,406.0132648333118,406.0132648333118,-0.7697096389794726,-0.7697096389794726
410,0.0074171330700042335,0.0074171330700042335,1.3666666666666667,406.95897544129826,406.95897544129826,-0.7747713296346107,-0.7747713296346107
411,0.007532333799200618,0.007532333799200618,1.37,407.90421080852855,407.90421080852855,-0.7798070236859732,-0.7798070236859732
412,0.0076481279292684385,0.0076481279292684385,1.3733333333333333,408.8489712931414,408.8489712931414,-0.7848169208965647,-0.7848169208965647
413,0.00776451028349728,0.00776451028349728,1.3766666666666667,409.7932572529156,409.7932572529156,-0.7898012189879265,-0.7898012189879265
414,0.007881475736060593,0.007881475736060593,1.38,410.7370690452709,410.7370690452709,-0.794760113666152,-0.794760113666152
415,0.007999019211401956,0.007999019211401956,1.3833333333333333,411.6804070272682,411.6804070272682,-0.7996937986474981,-0.7996937986474981
416,0.008117135683631132,0.008117135683631132,1.3866666666666667,412.62327155560945,412.62327155560945,-0.8046024656836122,-0.8046024656836122
417,0.008235820175925017,0.008235820175925017,1.39,413.56566298663927,413.56566298663927,-0.8094863045863748,-0.8094863045863748
418,0.008355067759941251,0.008355067759941251,1.3933333333333333,414.50758167634456,414.50758167634456,-0.8143455032523663,-0.8143455032523663
419,0.0084748735552386,0.0084748735552386,1.3966666666666667,415.449027980355,415.449027980355,-0.8191802476869625,-0.8191802476869625
420,0.008595232728705089,0.008595232728705089,1.4,416.39000225394386,416.39000225394386,-0.8239907220280712,-0.8239907220280712
421,0.008716140493994811,0.008716140493994811,1.4033333333333333,417.3305048520282,417.3305048520282,-0.8287771085695087,-0.8287771085695087
422,0.008837592110973692,0.008837592110973692,1.4066666666666667,418.2705361291691,418.2705361291691,-0.8335395877840266,-0.8335395877840266
423,0.008959582885170564,0.008455253733910546,1.41,419.21009643957285,419.42342767055584,-0.8382783383459969,-0.8393513346190797
424,0.009082108167239363,0.008573866917084698,1.4133333333333333,420.1491861370905,420.3646804271561,-0.8429935371537557,-0.8440725688813125
425,0.009205163352426231,0.008693013218321673,1.4166666666666667,421.08780557521885,421.3054693822133,-0.8476853593516156,-0.8487703966115857
426,0.009328743880045473,0.00881268807875587,1.42,422.02595510710063,422.24579487845,-0.8523539783515529,-0.8534449914438429
427,0.009452845232961667,0.008932886983019105,1.4233333333333333,422.96363508552537,423.18565725825084,-0.8569995658545724,-0.8580965252988663
428,0.009577462937081437,0.0090536054587306,1.4266666666666667,423.90084586292915,424.1250568636633,-0.8616222918717564,-0.8627251684053523
429,0.009702592560848874,0.009174839075994376,1.43,424.83758779139583,425.0639940363984,-0.8662223247450056,-0.8673310893206793
430,0.009828229714751452,0.00929658344690578,1.4333333333333333,425.7738612226569,426.0024691178305,-0.8707998311674735,-0.8719144549513679
431,0.009954370050831222,0.009418834225062355,1.4366666666666668,426.70966650809174,426.9404824489981,-0.8753549762037012,-0.876475430573242
432,0.01008100926220071,0.009271655511840195,1.44,427.6450039987293,427.99464481888504,-0.8798879233094604,-0.8815773081222146
433,0.010208143082570875,0.009392961461811867,1.4433333333333334,428.5798740452468,428.93284768703546,-0.8843988343513041,-0.8860968801132586
434,0.010335767285779873,0.009514762617640758,1.4466666666666668,429.51427699797154,429.8705930239439,-0.8888878696258332,-0.8905945343355148
435,0.010463877685331672,0.009637054794910485,1.45,430.4482132068807,430.80788116421394,-0.8933551878786867,-0.8950704298394139
436,0.010592470133940528,0.009759833848343204,1.4533333333333334,431.38168302160193,431.74471244212236,-0.8978009463232515,-0.899524724140192
437,0.010721540523080927,0.009883095671349054,1.4566666666666668,432.31468679141364,432.68108719162046,-0.9022253006591073,-0.9039575732363728
438,0.010851084782543808,0.010006836195583887,1.46,433.2472248652458,433.61700574633426,-0.9066284050902028,-0.9083691316279761
439,0.010981098880000296,0.01013105139051404,1.4633333333333334,434.17929759167987,434.55246843956434,-0.9110104123427701,-0.9127595523344684
440,0.011111578820568659,0.010255737262983835,1.4666666666666666,435.1109053189498,435.4874756042871,-0.915371473682985,-0.9171289869124563
441,0.011242520646390248,0.010380889856792305,1.47,436.0420483949419,436.4220275731546,-0.9197117389343723,-0.9214775854731263
442,0.011373920436208631,0.010506505252273868,1.4733333333333334,436.9727271671958,437.35612467849495,-0.9240313564949627,-0.925805496699433
443,0.011505774304956348,0.010632579565885073,1.4766666666666666,437.90294198290434,438.2897672523129,-0.9283304733542074,-0.9301128678630475
444,0.011638078403345582,0.010759108949796141,1.48,438.83269318891456,439.2229556262905,-0.9326092351096507,-0.9343998448410611
445,0.011770828917466144,0.010886089591490853,1.4833333333333334,439.76198113172757,440.15569013178657,-0.9368677859833655,-0.9386665721324536
446,0.011904022068386942,0.011013517713367458,1.4866666666666666,440.6908061574994,441.0879710998381,-0.9411062688381602,-0.9429131928743295
447,0.012037654111763715,0.01114138957234852,1.49,441.6191686120416,442.0197988611602,-0.945324825193553,-0.9471398488579246
448,0.012171721337453383,0.011269701459494717,1.4933333333333334,442.5470688408209,442.95117374614637,-0.9495235952415224,-0.9513466805443861
449,0.012306220069131173,0.011398449699623281,1.4966666666666666,443.4745071889601,443.88209608486915,-0.9537027178620392,-0.9555338270803344
450,0.012441146663913464,0.011527630650932678,1.5,444.40148400123894,444.8125662070803,-0.9578623306383772,-0.959701426313203
451,0.012576497511987174,0.011657240704631146,1.5033333333333334,445.3279996220938,445.74258444221135,-0.9620025698722122,-0.9638496148063669
452,0.012712269036242674,0.011787276284571033,1.5066666666666666,446.2540543956183,446.6721511193739,-0.9661235705985105,-0.9679785278540596
453,0.012848457691911067,0.012228170072111445,1.51,447.1796486655643,447.4606389573335,-0.97022546660021,-0.9714673551974584
454,0.01298505996620889,0.012360957285113452,1.5133333333333334,448.10478277534116,448.3881253925585,-0.974308390422696,-0.9755555051624372
455,0.013122072377983376,0.012494157884108202,1.5166666666666666,449.02945706801756,449.31515816273077,-0.9783724733880799,-0.9796247901540166
456,0.013259491477366376,0.0126277684196851,1.52,449.95367188632093,450.2417376006236,-0.9824178456092781,-0.9836753404516582
457,0.013397313845430952,0.013397313845430952,1.5233333333333334,450.87742757263806,450.87742757263806,-0.9864446360038971,-0.9864446360038971
458,0.013535536093851861,0.013535536093851986,1.5266666666666666,451.80072446901585,451.8007244690158,-0.9904529723079291,-0.990452972307929
459,0.013674154864571953,0.013674154864571707,1.53,452.7235629171615,452.7235629171616,-0.9944429810892589,-0.994442981089259
460,0.013813166829472177,0.013813166829472177,1.5333333333333334,453.6459432584428,453.6459432584428,-0.9984147877609849,-0.9984147877609849
461,0.013952568690045766,0.014602428102040184,1.5366666666666666,454.5678658338889,454.2682806449595,-1.0023685165945604,-1.0010854848933193
462,0.01409235717707665,0.014745995517371206,1.54,455.4893309841906,455.1873500709745,-1.0063042907327548,-1.0050162212406168
463,0.014232529050323515,0.014889943015184546,1.5433333333333332,456.4103390497002,456.10595638396956,-1.0102222322024366,-1.0089291477452174
464,0.014373081098204505,0.015364527981423787,1.5466666666666666,457.3308903704331,456.87085901661936,-1.0141224619271878,-1.0121753468002874
465,0.014514010137490279,0.015511106696648293,1.55,458.250985286067,457.78733538605854,-1.0180050997397423,-1.016050529948242
466,0.014655313012997363,0.015658054272930547,1.5533333333333332,459.1706241359432,458.70334670881437,-1.0218702643942605,-1.0199082734866236
467,0.01479698659728727,0.016476475572863962,1.5566666666666666,460.08980725906684,459.30548590747253,-1.0257180735784366,-1.0224357757429856
468,0.014939027790371035,0.016627895011472552,1.56,461.00853499410636,460.21814513463084,-1.029548643925442,-1.0262540882648805
469,0.015081433519412348,0.01677967063066854,1.5633333333333332,461.9268076793956,461.13033447421645,-1.0333620910257122,-1.03005533233443
470,0.015224200738440628,0.01693179938505881,1.5666666666666667,462.8446256529329,462.04205428902236,-1.0371585294385728,-1.0338396221443693
471,0.015367326428063767,0.01708427825590636,1.57,463.76198925238197,462.9533049414681,-1.0409380727037103,-1.0376070708710585
472,0.015510807595185984,0.017925928952039538,1.5733333333333333,464.6788988150722,463.53896153463734,-1.0447008333524928,-1.0400205736190735
473,0.01565464127272828,0.017563501139662898,1.5766666666666667,465.5953546779995,464.69246396093945,-1.048446922919138,-1.0447563897504626
474,0.01579882451935437,0.018413948130292825,1.58,466.511357177826,465.2717885862412,-1.0521764519517323,-1.0471260049823639
475,0.015943354419197905,0.018572432526780893,1.5833333333333333,467.426906650881,466.1780945497791,-1.0558895300231068,-1.050821260278996
476,0.016088228081594335,0.01873124804336624,1.5866666666666667,468.3420034331611,467.08392593135767,-1.0595862657415687,-1.0545002516660091
477,0.01623344264081626,0.018890391816252038,1.59,469.25664786033065,467.9892831036478,-1.0632667667614886,-1.0581630862810334
478,0.01637899525581032,0.01904986100642289,1.5933333333333333,470.17084026772267,468.89416643892986,-1.066931139793753,-1.061809870322743
479,0.016524883109941074,0.01920965279938393,1.5966666666666667,471.0845809903382,469.7985763090951,-1.0705794906160775,-1.0654407090611204
480,0.016671103410733797,0.0193697644049062,1.6,471.9978703628478,470.702513085645,-1.0742119240831831,-1.0690557068475837
481,0.016817653389623436,0.019530193056770638,1.6033333333333333,472.9107087195911,471.6059771396933,-1.0778285441368443,-1.0726549671249874
482,0.016964530301705066,0.019690936012520775,1.6066666666666667,473.82309639457816,472.508968841965,-1.0814294538158018,-1.0762385924374858
483,0.01711173142548943,0.0205801477001169,1.61,474.7350337214886,473.05978866084354,-1.085014755265548,-1.0784178655535335
484,0.017259254062658567,0.020745175512691894,1.6133333333333333,475.64652103367325,473.9593350518571,-1.0885845497479871,-1.0819659556855192
485,0.017407095537827183,0.020910506059973046,1.6166666666666667,476.5575586641538,474.8584045609131,-1.0921389376509671,-1.0854987329100492
486,0.01755525319830587,0.021076136693149932,1.62,477.46814694562335,475.75699756712913,-1.0956780184976904,-1.0890162961452245
487,0.017703724413865914,0.021242064785992432,1.6233333333333333,478.3782862104473,476.6551144492217,-1.0992018909560035,-1.0925187434589911
488,0.017852506576510517,0.021408287734619627,1.6266666666666667,479.28797679066287,477.5527555855056,-1.1027106528475665,-1.0960061720782535
489,0.01800159710024519,0.021574802957269518,1.63,480.1972190179801,478.4499213538952,-1.1062044011569037,-1.0994786783978696
490,0.018150993420852395,0.02174160789407171,1.6333333333333333,481.1060132237823,479.34661213190486,-1.109683232040341,-1.1029363579895357
491,0.018300692995669353,0.021908700006825408,1.6366666666666667,482.01435973912635,480.2428282966487,-1.1131472408348264,-1.1063793056105506
492,0.0184506933033685,0.02207607677877527,1.64,482.9222588947427,481.13857022484257,-1.1165965220666414,-1.1098076152124763
493,0.01860099184373975,0.02224373571439586,1.6433333333333333,483.8297110210363,482.03383829280284,-1.1200311694599947,-1.113221379949678
494,0.018751586137476153,0.02241167433917287,1.6466666666666667,484.7367164480868,482.9286328764486,-1.1234512759455164,-1.1166206921877677
495,0.0189024737259615,0.02257989019939179,1.65,485.64327550564906,483.82295435130106,-1.1268569336686372,-1.1200056435119319
496,0.01905365217106176,0.022748380861926647,1.6533333333333333,486.54938852315337,484.7168030924844,-1.1302482339978628,-1.123376324735156
497,0.01920511905491785,0.022917143914031487,1.6566666666666667,487.4550558297058,485.61017947472635,-1.1336252675329475,-1.1267328259063472
498,0.019356871979740627,0.023086176963134284,1.66,488.36027775408917,486.5030838723591,-1.1369881241129607,-1.130075236318354
499,0.01950890856761065,0.02325547763663604,1.6633333333333333,489.2650546247623,487.3955166593186,-1.140336892824253,-1.1334036445158815
500,0.01966122646027668,0.02342504358170663,1.6666666666666667,490.16938676986166,488.2874782091467,-1.143671662008325,-1.1367181383033145
501,0.01981382331895994,0.02359487246508921,1.67,491.07327451720107,489.1789688949903,-1.1469925192695944,-1.1400188047524356
502,0.019966696824158917,0.02376496197290265,1.6733333333333333,491.9767181942722,490.06998908960287,-1.1502995514830685,-1.1433057302100516
503,0.020119844675456855,0.02313452527408641,1.6766666666666667,492.8797181282452,491.36333378713454,-1.153592844801918,-1.1480555991468686
504,0.020273264591331837,0.023301534196876663,1.68,493.78227464596876,492.25602676477416,-1.1568724846649603,-1.1513194967385685
505,0.02042695430896937,0.023468800373520126,1.6833333333333333,494.68438807397047,493.14825581137234,-1.160138555804047,-1.1545698907361874
506,0.020580911584075535,0.02363632156424579,1.6866666666666668,495.5860587384578,494.04002128849163,-1.1633911422513619,-1.1578068647685553
507,0.02073513419069497,0.023804095547694637,1.69,496.48728696531765,494.9313235573188,-1.166630327346628,-1.1610305017753644
508,0.0208896199210285,0.023972120120738065,1.6933333333333334,497.3880730801175,495.82216297866506,-1.169856193744225,-1.1642408840142526
509,0.021044366585254555,0.024140393098295257,1.6966666666666668,498.28841740810543,496.7125399129677,-1.1730688234202193,-1.1674380930678023
510,0.0211993720113518,0.024308912313157675,1.7,499.1883202742106,497.6024547202896,-1.1762682976793102,-1.1706222098504495
511,0.021354634044925075,0.023646815138595245,1.7033333333333334,500.0877820030433,498.91647746417783,-1.1794546971616853,-1.1753030166276761
512,0.02151015054903127,0.024438204573964506,1.7066666666666668,500.986802918896,499.4876392581302,-1.182628101849799,-1.1773299279535119
513,0.02166591940400923,0.023768180046203184,1.71,501.88538334574326,500.80692363629777,-1.1857885910750632,-1.181994067583623
514,0.02182193850731064,0.02393319467860826,1.7133333333333334,502.78352360724233,501.69833793519535,-1.188936243524458,-1.1851316475451796
515,0.021978205773333113,0.024098449212203058,1.7166666666666666,503.68122402673345,502.5892986557154,-1.1920711372470627,-1.188256509607872
516,0.022134719133256535,0.024263941581471344,1.72,504.57848492723963,503.4798061439608,-1.1951933496605047,-1.191368730941591
517,0.022291476534876904,0.024429669737556704,1.7233333333333334,505.47530663146864,504.3698607456832,-1.1983029575573365,-1.194468388093153
518,0.02244847594244805,0.024595631648103612,1.7266666666666666,506.3716894618119,505.25946280628233,-1.2014000371113285,-1.1975555569925722
519,0.02260571533652119,0.02476182529709648,1.73,507.2676337403455,506.1486126708069,-1.2044846638836901,-1.2006303129592624
520,0.022763192713788363,0.024928248684702115,1.7333333333333334,508.16313978883005,507.0373106839549,-1.2075569128292145,-1.203692730708161
521,0.022920906086924337,0.0242264642739527,1.7366666666666666,509.0582079287124,508.37801211327064,-1.2106168583023509,-1.2082924739344103
522,0.023078853484437344,0.024389779149197707,1.74,509.9528384811237,509.2685352841188,-1.2136645740632,-1.2113343380809987
523,0.0232370329505114,0.024553321186509314,1.7433333333333334,510.84703176688254,510.15861301945563,-1.2167001332834455,-1.2143640690275415
524,0.0233954425448602,0.02471708844770105,1.7466666666666666,511.74078810649326,511.04824565340465,-1.219723608552207,-1.217381739223787
525,0.02355408034257683,0.02443914705869182,1.75,512.6341078201472,512.1694477941868,-1.2227350718818257,-1.221169970989817
526,0.023712944433986933,0.024601579697711554,1.7533333333333334,513.5269912277229,513.0595690790037,-1.225734594713584,-1.2241656544323507
527,0.023872032924503208,0.024764233481760024,1.7566666666666666,514.4194386487868,513.9492489551125,-1.2287222479233537,-1.2271494834460117
528,0.024031343934483636,0.02492710653263061,1.76,515.3114504025926,514.838487750771,-1.2316981018271762,-1.2301215282568374
529,0.024190875599086534,0.02509019698693198,1.7633333333333334,516.2030268080832,515.727285793913,-1.2346622261867841,-1.233081858537265
530,0.02435062606813204,0.02525350299594982,1.7666666666666666,517.09416818389,516.6156434121466,-1.2376146902150489,-1.2360305434115737
531,0.024510593505963803,0.024510593505963803,1.77,517.9848748483332,517.9848748483332,-1.2405555625813687,-1.2405555625813687
532,0.024670776091310596,0.024670776091310596,1.7733333333333334,518.8751471194228,518.8751471194228,-1.2434849114169928,-1.2434849114169928
533,0.02483117201715006,0.02483117201715006,1.7766666666666666,519.764985314859,519.764985314859,-1.2464028043202837,-1.2464028043202837
534,0.024991779490578077,0.024991779490578077,1.78,520.6543897520313,520.6543897520313,-1.2493093083619136,-1.2493093083619136
535,0.02515259673267129,0.02515259673267129,1.7833333333333334,521.5433607480209,521.5433607480209,-1.252204490090008,-1.252204490090008
536,0.025313621978359232,0.025313621978359232,1.7866666666666666,522.4318986195995,522.4318986195995,-1.2550884155352222,-1.2550884155352222
537,0.02547485347629386,0.02547485347629386,1.79,523.3200036832302,523.3200036832302,-1.2579611502157613,-1.2579611502157613
538,0.025636289488720963,0.025636289488720963,1.7933333333333332,524.2076762550681,524.2076762550681,-1.2608227591423422,-1.2608227591423422
539,0.025797928291353432,0.025797928291353432,1.7966666666666666,525.0949166509605,525.0949166509605,-1.2636733068230985,-1.2636733068230985
540,0.02595976817324699,0.02595976817324699,1.8,525.9817251864466,525.9817251864466,-1.2665128572684257,-1.2665128572684257
541,0.026121807436674343,0.026121807436674343,1.8033333333333332,526.8681021767592,526.8681021767592,-1.2693414739957751,-1.2693414739957751
542,0.026284044397003676,0.026284044397003676,1.8066666666666666,527.754047936824,527.754047936824,-1.2721592200343883,-1.2721592200343883
543,0.026446477382577438,0.026446477382577438,1.81,528.6395627812605,528.6395627812605,-1.2749661579299794,-1.2749661579299794
544,0.026609104734591223,0.026609104734591223,1.8133333333333332,529.5246470243824,529.5246470243824,-1.277762349749363,-1.277762349749363
545,0.0267719248069773,0.0267719248069773,1.8166666666666667,530.4093009801974,530.4093009801974,-1.2805478570850275,-1.2805478570850275
546,0.026934935966285687,0.026934935966285687,1.82,531.293524962408,531.293524962408,-1.28332274105966,-1.28332274105966
547,0.02709813659156841,0.026133401717414455,1.8233333333333333,532.1773192844121,532.7050292605743,-1.286087062330615,-1.2877332537703983
548,0.02726152507426501,0.02629327865402072,1.8266666666666667,533.0606842593028,533.5912832975966,-1.288840881094336,-1.2904905974221366
549,0.027425099818088057,0.026453345028125186,1.83,533.9436201998697,534.4771135795593,-1.291584257090723,-1.2932374849397992
550,0.02758885923891326,0.026613599253978257,1.8333333333333333,534.8261274185977,535.362520410312,-1.294317249607455,-1.2959739756869526
551,0.027752801764665762,0.026774039757869492,1.8366666666666667,535.7082062276692,536.2475040934139,-1.2970399174842582,-1.298700128578638
552,0.027916925835212453,0.026934664978017345,1.84,536.5898569389627,537.1320649321344,-1.2997523191171305,-1.3014160020856005
553,0.028081229902251537,0.02709547336446066,1.8433333333333333,537.4710798640549,538.0162032294533,-1.3024545124625164,-1.3041216542384684
554,0.028245712429206555,0.027256463378952035,1.8466666666666667,538.3518753142196,538.8999192880606,-1.3051465550414345,-1.3068171426318875
555,0.02841037189111871,0.02741763349485101,1.85,539.2322436004291,539.7832134103577,-1.307828503943559,-1.309502524428607
556,0.02857520677454302,0.02857520677454302,1.8533333333333333,540.1121850333541,540.1121850333541,-1.3105004158312563,-1.3105004158312563
557,0.028740215577444526,0.028740215577444526,1.8566666666666667,540.9916999233634,540.9916999233634,-1.3131623469435725,-1.3131623469435725
558,0.028905396809093223,0.028905396809093223,1.86,541.870788580526,541.870788580526,-1.3158143531001838,-1.3158143531001838
559,0.02907074898996435,0.02907074898996435,1.8633333333333333,542.7494513146099,542.7494513146099,-1.3184564897052948,-1.3184564897052948
560,0.029236270651637346,0.029236270651637346,1.8666666666666667,543.6276884350831,543.6276884350831,-1.321088811751498,-1.321088811751498
561,0.02940196033669544,0.02940196033669544,1.87,544.5055002511139,544.5055002511139,-1.3237113738235895,-1.3237113738235895
562,0.029567816598628182,0.029567816598628182,1.8733333333333333,545.382887071571,545.382887071571,-1.3263242301023415,-1.3263242301023415
563,0.029733838001732946,0.029733838001732946,1.8766666666666667,546.2598492050244,546.2598492050244,-1.3289274343682322,-1.3289274343682322
564,0.029900023121019133,0.029900023121019133,1.88,547.1363869597452,547.1363869597452,-1.3315210400051392,-1.3315210400051392
565,0.03006637054211236,0.03109165643515585,1.8833333333333333,548.0125006437065,547.433214114137,-1.3341051000039856,-1.3323974454759806
566,0.030232878861159877,0.031261604392522846,1.8866666666666667,548.8881905645835,548.3059319138321,-1.3366796669663503,-1.3349687169926334
567,0.030399546684738578,0.03143170866793872,1.89,549.7634570297532,549.1782211852787,-1.3392447931080365,-1.3375305597728582
568,0.0305663726297598,0.03160196788023124,1.8933333333333333,550.6383003462964,550.0500822440287,-1.3418005302626033,-1.3400830255838672
569,0.030733355323381506,0.03177238065848387,1.8966666666666667,551.5127208209959,550.9215154053227,-1.344346929884854,-1.3426261658146015
570,0.030900493402913596,0.031942945641942076,1.9,552.3867187603392,551.792520984093,-1.3468840430542939,-1.3451600314791843
571,0.031067785515732627,0.03211366147992491,1.9033333333333333,553.2602944705167,552.6630992949629,-1.3494119204785413,-1.3476846732203287
572,0.03123523031918962,0.032284526831737145,1.9066666666666667,554.1334482574235,553.5332506522464,-1.3519306124967083,-1.3502001413127125
573,0.03140282648052461,0.032455540366579584,1.91,555.0061804266594,554.4029753699499,-1.354440169082742,-1.352706485666316
574,0.03157057267677874,0.0331539014511789,1.9133333333333333,555.878491283529,554.9696605670233,-1.3569406398487294,-1.3543353138202199
575,0.031738467594709815,0.0333269071787924,1.9166666666666667,556.7503811330419,555.8370283721944,-1.3594320740481651,-1.3568219644659927
576,0.031906509930705776,0.03350005555619736,1.92,557.6218502799135,556.7039679996303,-1.3619145205791887,-1.3592996446996766
577,0.032074698390700665,0.033673345292357854,1.9233333333333333,558.4928990285657,557.5704797663095,-1.3643880279877814,-1.3617684029740447
578,0.032243031690093044,0.03384677510571556,1.9266666666666667,559.3635276831262,558.4365639888964,-1.3668526444709308,-1.3642282873935465
579,0.03241150855366188,0.03402034372410332,1.93,560.2337365474298,559.3022209837442,-1.3693084178797628,-1.3666793457174338
580,0.03258012771548669,0.0341940498846674,1.9333333333333333,561.1035259250177,560.1674510668929,-1.3717553957226352,-1.3691216253628478
581,0.03274888791886512,0.034367892333783165,1.9366666666666668,561.9728961191394,561.032254554072,-1.3741936251682059,-1.3715551734078828
582,0.03291778791623438,0.03454186982697757,1.94,562.8418474327516,561.896631760699,-1.3766231530484596,-1.3739800365946064
583,0.03308682646909183,0.03471598112884915,1.9433333333333334,563.7103801685195,562.760583001881,-1.3790440258617094,-1.3763962613320548
584,0.03325600234791727,0.034890225012990085,1.9466666666666668,564.5784946288163,563.6241085924138,-1.3814562897755607,-1.3788038936991915
585,0.03342531433209458,0.03506460026190706,1.95,565.4461911157247,564.4872088467844,-1.383859990629848,-1.3812029794478389
586,0.033594761209836524,0.035239105666947705,1.9533333333333334,566.3134699310358,565.3498840791686,-1.3862551739395366,-1.3835935640055728
587,0.033764341778107824,0.035413740028221403,1.9566666666666668,567.1803313762507,566.212134603434,-1.3886418848975974,-1.385975692478594
588,0.03393405484255034,0.03558850215452596,1.96,568.0467757525804,567.0739607331387,-1.3910201683778487,-1.3883494096545632
589,0.034103899217409195,0.03576339086327309,1.9633333333333334,568.912803360946,567.9353627815321,-1.3933900689377676,-1.390714760005407
590,0.03427387372545894,0.03593840498041326,1.9666666666666666,569.7784145019792,568.7963410615562,-1.3957516308212738,-1.393071787690097
591,0.03444397719793079,0.036113543340365206,1.97,570.6436094760229,569.6568958858442,-1.3981048979614834,-1.3954205365573975
592,0.03461420847444142,0.03628880478594287,1.9733333333333334,571.5083885831307,570.5170275667218,-1.4004499139834305,-1.3977610501485824
593,0.03478456640292067,0.03758069222218278,1.9766666666666666,572.372752123068,570.7146495122456,-1.4027867222067665,-1.3982978046957049
594,0.034955049839541084,0.03775952357570091,1.98,573.2367003953126,571.5708429960337,-1.4051153656484254,-1.4006189964783504
595,0.03512565764864816,0.03793847140673145,1.9833333333333334,574.1002336990543,572.4266095129948,-1.4074358870252646,-1.4029320921867836
596,0.035296388702692444,0.03811753459323909,1.9866666666666666,574.9633523331953,573.2819493824295,-1.4097483287566757,-1.4052371341046543
597,0.03546724188215797,0.038296712021239916,1.99,575.8260565963517,574.1368629233198,-1.4120527329671713,-1.4075341642216763
598,0.03563821607549912,0.03847600258473336,1.9933333333333334,576.6883467868515,574.9913504543294,-1.4143491414889393,-1.4098232242361748
599,0.03580931017906895,0.03865540518563401,1.9966666666666666,577.5502232027377,575.8454122938052,-1.4166375958643784,-1.4121043555576125
