o_GT,Error_GT,Error_measured,lambda,o_predicted,o_measured,s_GT,s_measured
150,-0.5040893875706047,-0.4950079422677339,0.0006,225.6134081355907,224.2511913401601,3.4315312475501347,3.4523949575352395
160,-0.47254597792657227,-0.46365534016091414,0.00064,235.60735646825157,234.18485442574627,3.285841725382612,3.3058196430729385
170,-0.44471355907658344,-0.43507930023256114,0.00068,245.60130504301918,243.9634810395354,3.1520089250382566,3.1731904250145138
180,-0.4199736325549657,-0.41140108732128766,0.00072,255.59525385989383,254.05219571783178,3.0286420291919236,3.0470561727294103
190,-0.3978379100993442,-0.3885169886111097,0.00076,265.5892029188754,263.81822783611085,2.9145595626609846,2.934145402922067
200,-0.3779157610998197,-0.3687280477119168,0.0008,275.58315221996395,273.74560954238336,2.8087514337335313,2.8276262433682207
210,-0.3598909607769496,-0.3534020517407945,0.00084,285.5771017631594,284.21443086556684,2.710348945818887,2.723358620758818
220,-0.34350477976573573,-0.3353951762989241,0.00088,295.57105154846187,293.7869387857633,2.6186008929541664,2.634521986383328
230,-0.32854348511248366,-0.31968603431824016,0.00092,305.56500157587124,303.52778789319524,2.532854346297558,2.549875127504678
240,-0.31482896602244875,-0.3085558262453664,0.00096,315.5589518453877,314.05339829888794,2.4525390916432297,2.464311279283117
250,-0.30221160942804476,-0.29599891542520435,0.001,325.5529023570112,323.9997288563011,2.377154933394716,2.388565277075011
260,-0.2905648196566983,-0.28033588022055084,0.00104,335.54685311074155,332.8873288573432,2.306261267373438,2.3247113575124256
270,-0.2797807559502924,-0.26963769317701797,0.00108,345.54080410657895,342.80217715779486,2.2394684631176793,2.2573842108226208
280,-0.2697669833732982,-0.2657224316982966,0.00112,355.5347553445235,354.40228087552305,2.1764306996234035,2.1833952778621986
290,-0.2604438166364654,-0.262864972192161,0.00116,365.52870682457495,366.2308419357267,2.1168399763562826,2.1127756436016787
300,-0.251742195155778,-0.25414653953548605,0.0012,375.5226585467334,376.2439618606458,2.0604210805889194,2.0564650721141886
310,-0.24360196939031967,-0.23964123458890882,0.00124,385.5166105109991,384.28878272256173,2.0069273375240675,2.0133495050041446
320,-0.23597050849178663,-0.22365557392479438,0.00128,395.5105627173717,391.5697836559342,1.956137004745205,1.9758548657530368
330,-0.22880156110864056,-0.21195846349060185,0.00132,405.5045151658514,399.9462929518986,1.9078501998351056,1.9344074746168103
340,-0.22205431722481822,-0.20530436512416472,0.00136,415.4984678564382,409.803484142216,1.8618862713927256,1.8878037282905125
350,-0.21569263082609155,-0.20282034235155752,0.0014,425.49242078913204,420.98711982304513,1.8180815405467479,1.837571374661409
360,-0.20968437212203606,-0.20238659612842091,0.00144,435.486373963933,432.85917460623153,1.7762873534482657,1.787087180557231
370,-0.20400088481308365,-0.20016719332563124,0.00148,445.48032738084095,444.06186153048355,1.7363683959068554,1.7419247747737574
380,-0.19861652905225324,-0.1963237722010004,0.00152,455.47428103985624,454.60303343638014,1.6982012299066622,1.701461776268083
390,-0.1935082947204577,-0.18970831638233998,0.00156,465.4682349409785,463.9862433891126,1.6616730186550015,1.6669903723146975
400,-0.1886554727105198,-0.1814857014489506,0.0016,475.4621890842079,472.59428057958024,1.6266804124235337,1.6365706293310687
410,-0.18403937431596187,-0.17615098734712892,0.00164,485.4561434695444,482.22190481232286,1.5931285720106843,1.603834396014596
420,-0.17964309070711434,-0.17178430564344033,0.00168,495.45009809698803,492.14940837024494,1.5609303103931587,1.5714197620790007
430,-0.1754512859686951,-0.16762073829519017,0.00172,505.4440529665389,502.0769174669318,1.5300053362082011,1.5402869720675203
440,-0.17145001835953827,-0.16438515272557352,0.00176,515.4380080781968,512.3294671992523,1.5002795852456625,1.509401285123956
450,-0.16762658540436,-0.16206041860186865,0.0018,525.431963431962,522.9271883708409,1.471684628231967,1.4787487144474805
460,-0.1639693891909444,-0.15989530194325696,0.00184,535.4259190278344,533.5518388938982,1.4441571449378487,1.44924057808803
470,-0.16046781886343378,-0.15677421724216392,0.00188,545.4198748658139,543.683882103817,1.4176384561029052,1.4221748991624346
480,-0.15711214780395982,-0.1519628198751247,0.00192,555.4138309459007,552.9421535400598,1.3920741058946067,1.3983105978890145
490,-0.15389344340427488,-0.1483936207898477,0.00196,565.4077872680947,562.7128741870254,1.3674134886491522,1.3739770733946683
500,-0.15080348766479187,-0.143864796682308,0.002,575.4017438323959,571.932398341154,1.3436095145103653,1.3517786603585884
510,-0.14783470713491045,-0.14019056791472667,0.00204,585.3957006388043,581.4971896365106,1.320618309318117,1.3294928643567347
520,-0.1449801109371536,-0.13591443741251139,0.00208,595.3896576873199,590.6755074545059,1.298398944722004,1.30878613627978
530,-0.142233235807439,-0.13318967090291745,0.00212,605.3836149779427,600.5905255785462,1.2769131950274621,1.2871285005876818
540,-0.13958809724198676,-0.13056583376731531,0.00216,615.3775725106728,610.5055502343503,1.2561253177353184,1.266174320277201
550,-0.13703914597365485,-0.12946810664091718,0.0022,625.3715302855102,621.2074586525044,1.2360018551242882,1.2443077875907234
560,-0.13458122911152656,-0.12774198381904397,0.00224,635.3654883024549,631.5355109386646,1.2165114545594629,1.2239078442031843
570,-0.13220955537106424,-0.1268148065507555,0.00228,645.3594465615066,642.2844397339306,1.1976247054968732,1.2033733040832582
580,-0.129919663901148,-0.12632487251186716,0.00232,655.3534050626658,653.268426056883,1.17931399140185,1.183087796174336
590,-0.12770739628124125,-0.1255520876951849,0.00236,665.3473638059323,664.0757317401591,1.161553355013084,1.1637835374547092
600,-0.12556887131884367,-0.12413386694030995,0.0024,675.3413227913062,674.480320164186,1.144318375569918,1.1457831030906476
610,-0.12350046232588105,-0.12206815233450832,0.00244,685.3352820187874,684.4615729240501,1.1275860567816904,1.129029366934371
620,-0.12149877659415438,-0.12149877659415438,0.00248,695.3292414883757,695.3292414883757,1.1113347244583633,1.1113347244583633
630,-0.11956063682551046,-0.1181334638566016,0.00252,705.3232012000716,704.424082229659,1.0955439328441767,1.0969462290782173
640,-0.11768306430292927,-0.11625834183656938,0.00256,715.3171611538747,714.4053387754044,1.0801943788031811,1.0815770276080492
650,-0.11586326361505389,-0.11444091782016988,0.0026,725.311121349785,724.3865965831104,1.0652678230993142,1.0666313659128814
660,-0.11409860876939854,-0.11196990600297488,0.00264,735.305081787803,733.9001379619634,1.0507470180960428,1.0527644523707873
670,-0.11238663054914655,-0.1088488923211454,0.00268,745.2990424679282,742.9287578551674,1.0366156412729988,1.0399328113250723
680,-0.11072500498553046,-0.10719269243238981,0.00272,755.2930033901607,752.8910308540251,1.0228582340208126,1.0261313803696792
690,-0.10911154283260961,-0.10523303171266313,0.00276,765.2869645545006,762.6107918817376,1.0094601452316527,1.013013444942868
700,-0.10754417994421114,-0.10226969313559282,0.0028,775.2809259609478,771.588785194915,0.9964074792527269,1.0011902351531399
710,-0.10602096846408812,-0.09935786803685485,0.00284,785.2748876095026,780.544086306167,0.9836870478140591,0.9896678650647687
720,-0.10454006875022862,-0.0978861550758844,0.00288,795.2688495001646,790.4780316546368,0.9712863255809432,0.9771917464404752
730,-0.10309974196292362,-0.09645476992277369,0.00292,805.2628116329342,800.4119820436248,0.9591934090161683,0.9650253049429868
740,-0.10169834325379884,-0.09506207766639833,0.00296,815.2567740078111,810.3459374731348,0.9473969782680124,0.9531571518958819
750,-0.10033431549972738,-0.09509521007145728,0.003,825.2507366247955,821.321407553593,0.9358862618274956,0.9403785158842676
760,-0.09900618353143081,-0.09377361071731484,0.00304,835.2446994838874,831.2679441451593,0.9246510037229564,0.9290893285408266
770,-0.09771254881180072,-0.09248634386581157,0.00308,845.2386625850866,841.2144847766749,0.9136814330419387,0.91806710392054
780,-0.0964520845235816,-0.09296655622408591,0.00312,855.2326259283936,852.513913854787,0.9029682355900202,0.9058577339439082
790,-0.09522353103013627,-0.09174204741279375,0.00316,865.2265895138077,862.4762174561071,0.8925025275138,0.8953585356018442
800,-0.09402569167666201,-0.09054815479934561,0.0032,875.2205533413296,872.4385238394765,0.8822758307310437,0.885099113389383
810,-0.0928574289024183,-0.0893837444504887,0.00324,885.2145174109588,882.4008330048958,0.8722800500251742,0.8750713461852547
820,-0.0917176606374333,-0.08824773774678842,0.00328,895.2084817226953,892.3631449523665,0.862507451674039,0.8652674755193959
830,-0.09060535695968655,-0.08713910805046979,0.00332,905.2024462765398,902.3254596818899,0.8529506434943815,0.8556800855535636
840,-0.08951953699106105,-0.08605687761126973,0.00336,915.1964110724913,912.2877771934666,0.8436025561938028,0.846302084373623
850,-0.08845926601241258,-0.085000114690704,0.0034,925.1903761105507,922.2500974870984,0.8344564259313403,0.8371266864943205
860,-0.0874236527799039,-0.08396793088696054,0.00344,935.1843413907173,932.2124205627861,0.8255057779962628,0.8281473964858508
870,-0.0864118470264274,-0.08295947864428857,0.00348,945.1783069129918,942.174746420531,0.8167444115223054,0.8193579936391767
880,-0.08542303713337909,-0.08060044344643816,0.00352,955.1722726773736,950.9283902328656,0.808166385161517,0.8117869705670405
890,-0.08445644795939658,-0.07929582862001096,0.00356,965.166238683863,960.5732874718097,0.7997660036481573,0.8036048804656685
900,-0.08351133881384423,-0.07835542291432325,0.0036,975.1602049324598,970.5198806228909,0.7915378051887993,0.7953371866537056
910,-0.08258700156391702,-0.07743568990544637,0.00364,985.1541714231645,980.4664778139562,0.7834765496199595,0.7872372370581353
920,-0.08168275886519188,-0.0751717360194732,0.00368,995.1481381559765,989.1579971379153,0.7755772072793052,0.7802927166995633
930,-0.08079796250634025,-0.07429252509469754,0.00372,1005.1421051308964,999.0920483380687,0.7678349485407706,0.7725033850278984
940,-0.0799319918594934,-0.0734320261476813,0.00376,1015.1360723479238,1009.0261045788204,0.7602451339678303,0.7648674243823547
950,-0.07908425242848305,-0.07258964827386774,0.0038,1025.130039807059,1018.9601658601744,0.752803305042745,0.7573803491374049
960,-0.07825417448781427,-0.07108627675538154,0.00384,1035.1240075083017,1028.2428256851663,0.7455051754328532,0.7505149702117621
970,-0.07744121180582633,-0.07027900400209064,0.00388,1045.1179754516515,1038.170633882028,0.7383466227579604,0.7433083120628938
980,-0.0766448404460304,-0.06948821185500983,0.00392,1055.1119436371098,1048.0984476179096,0.7313236808255987,0.7362381759607467
990,-0.07586455764108592,-0.06871340090183344,0.00396,1065.105912064675,1058.026266892815,0.7244325323034341,0.7293007189205132
1000,-0.07509988073434828,-0.06795409170674975,0.004,1075.0998807343483,1067.9540917067498,0.7176695018003629,0.7224922408524614
1010,-0.07435034618428636,-0.06720982382150288,0.00404,1085.0938496461292,1077.881922059718,0.7110310493299636,0.7158091779814609
1020,-0.07361550862746807,-0.06648015485463127,0.00408,1095.0878188000174,1087.809757951724,0.7045137641318651,0.7092480966268312
1030,-0.07289493999612968,-0.06576465959492518,0.00412,1105.0817881960136,1097.737599382773,0.6981143588283811,0.7028056873197078
1040,-0.07218822868665138,-0.06506292918545131,0.00416,1115.0757578341174,1107.6654463528694,0.6918296638953743,0.6964787592367512
1050,-0.07149497877555144,-0.06437457034477878,0.0042,1125.069727714329,1117.5932988620177,0.6856566224278103,0.6902642349305252
1060,-0.07081480927985691,-0.06369920463228584,0.00424,1135.0636978366483,1127.521156910223,0.679592285181841,0.6841591453382629
1070,-0.0701473534589489,-0.0630364677546629,0.00428,1145.0576682010753,1137.4490204974893,0.6736338058765198,0.67816062505201
1080,-0.0694922581551945,-0.06238600891094595,0.00432,1155.05163880761,1147.3768896238216,0.6677784367394262,0.6722659078343152
1090,-0.06884918317087366,-0.061747490173600685,0.00436,1165.0456096562523,1157.3047642892247,0.6620235242815526,0.6664723223647246
1100,-0.06821780067909354,-0.06112058590336656,0.0044,1175.039580747003,1167.2326444937032,0.6563665052878035,0.6607772882033375
1110,-0.06759779466654105,-0.06050498219573074,0.00444,1185.0335520798606,1177.1605302372611,0.6508049030103795,0.6551783119586093
1120,-0.06698886040609478,-0.05990037635705688,0.00448,1195.0275236548262,1187.0884215199037,0.6453363235531681,0.6496729836474453
1130,-0.06639070395743356,-0.05930647640852699,0.00452,1205.0214954719,1197.0163183416355,0.6399584524360523,0.6442589732364227
1140,-0.06580304169393086,-0.05872300061619411,0.00456,1215.0154675310812,1206.9442207024613,0.6346690513287809,0.6389340273537103
1150,-0.06522559985423512,-0.0581496770455523,0.0046,1225.0094398323704,1216.8721286023851,0.6294659549447106,0.6336959661619391
1160,-0.0646581141170404,-0.05825570444358125,0.00464,1235.0034123757669,1227.5766171545542,0.6243470680853714,0.6281430982593305
1170,-0.06410032919766814,-0.057701529341992734,0.00468,1244.9973851612717,1237.5107893301315,0.6193103628273745,0.6230757698333649
1180,-0.063551998465156,-0.05849671957253392,0.00472,1254.991358188884,1249.02612909559,0.6143538758437317,0.6173027744477816
1190,-0.06301288357865914,-0.05796036924974915,0.00476,1264.9853314586044,1258.9728394072015,0.6094757058521506,0.6124011892402409
1200,-0.062482754142026996,-0.05743296146572296,0.0048,1274.9793049704324,1268.9195537588676,0.6046740111833405,0.6075764464370206
1210,-0.06196138737551085,-0.05825547451172553,0.00484,1284.9732787243681,1280.489124159188,0.5999470074627928,0.6020588209290619
1220,-0.06144856780361642,-0.0580802493005567,0.00488,1294.967252720412,1290.8579041466792,0.5952929653999082,0.5971979028891878
1230,-0.06094408695818202,-0.05757750419451925,0.00492,1304.9612269585639,1300.8203301592587,0.5907102086787144,0.5926004813464862
1240,-0.06044774309582555,-0.057082870124144015,0.00496,1314.9552014388237,1310.7827589539386,0.5861971119447703,0.5880729427029936
1250,-0.05995934092895241,-0.05793886348399574,0.005,1324.9491761611905,1322.4235793549947,0.5817520988831772,0.582869062913033
1260,-0.05947869136957616,-0.057459211140300816,0.00504,1334.943151125666,1332.398606036779,0.5773736403829227,0.5784821977724579
1270,-0.05900561128523554,-0.05698711377049955,0.00508,1344.9371263322491,1342.3736344885344,0.5730602527830683,0.5741605284684118
1280,-0.058539923266359574,-0.05719404890026638,0.00512,1354.9311017809403,1353.208382592341,0.5688104961965523,0.5695385736316839
1290,-0.0580814554044489,-0.05673621795817481,0.00516,1364.925077471739,1363.1897211660455,0.5646229729076322,0.565345690312954
1300,-0.05763004108049717,-0.05628543153979028,0.0052,1374.9190534046463,1373.1710610017274,0.560496325839217,0.5612137611362913
1310,-0.05718551876310003,-0.05584152832014172,0.00524,1384.913029579661,1383.1524020993857,0.5564292370865641,0.5571414665100349
1320,-0.056747731815745404,-0.05540435186289456,0.00528,1394.907005996784,1393.1337444590208,0.552420426514005,0.553127524659943
1330,-0.05631652831279289,-0.05631652831279289,0.00532,1404.9009826560145,1404.9009826560145,0.5484686504115686,0.5484686504115686
1340,-0.05589176086369635,-0.05589176086369635,0.00536,1414.894959557353,1414.894959557353,0.5445727002085352,0.5445727002085352
1350,-0.05547328644503708,-0.05547328644503708,0.0054,1424.8889367008,1424.8889367008,0.5407314012411296,0.5407314012411296
1360,-0.055060966239966716,-0.055060966239966716,0.00544,1434.8829140863547,1434.8829140863547,0.5369436115717116,0.5369436115717116
1370,-0.054654665484684194,-0.053314215464861495,0.00548,1444.8768917140173,1443.0404751868602,0.5332082208569707,0.5338907273796677
1380,-0.05425425332158511,-0.052914366027798976,0.00552,1454.8708695837875,1453.0218251183626,0.5295241492627707,0.530201940173827
1390,-0.05385960265875265,-0.052520270727944886,0.00556,1464.8648476956662,1463.0031763118434,0.5258903464234127,0.5265634860668347
1400,-0.053470590035466004,-0.05146368959211145,0.0056,1474.8588260496524,1472.049165428956,0.5223057904432139,0.5233086175608648
1410,-0.05308709549343793,-0.05108100614209834,0.00564,1484.8528046457475,1482.0242186603587,0.5187694869384039,0.5197655243533257
1420,-0.05270900245348595,-0.05070371384629598,0.00568,1494.84678348395,1491.9992736617403,0.5152804681174566,0.5162698066162421
1430,-0.052336197597385004,-0.04899960465276804,0.00572,1504.8407625642606,1500.0694346534583,0.5118377918980663,0.5134756728321401
1440,-0.05196857075463836,-0.04863327714610317,0.00576,1514.8347418866792,1510.0319190903886,0.5084405410590782,0.5100675507904673
1450,-0.051606014793935236,-0.04694431195712617,0.0058,1524.828721451206,1518.069252337833,0.50508782242577,0.5073506158702374
1460,-0.05124842551906895,-0.04625722258193765,0.00584,1534.8227012578407,1527.535544969629,0.501778766086963,0.5041873041641804
1470,-0.05089570156910467,-0.045906373063752386,0.00588,1544.8166813065839,1537.482368403716,0.49851252464252127,0.5009053847608055
1480,-0.050547744322591064,-0.04423826146932015,0.00592,1554.8106615974348,1545.4726269745938,0.495288272479874,0.4982996251765517
1490,-0.05020445780563331,-0.043237780534531915,0.00596,1564.8046421303936,1554.4242929964526,0.4921052050782596,0.49541215205638556
1500,-0.04986574860364074,-0.042901596511828,0.006,1574.7986229054611,1564.352394767742,0.4889625383394638,0.49224836659710497
1510,-0.04953152577658019,-0.041254296908783204,0.00604,1584.792603922636,1572.2939883322626,0.4858595079438799,0.489746384007431
1520,-0.04920170077757859,-0.04092740337645646,0.00608,1594.7865851819195,1582.2096531322138,0.48279536873078077,0.48665773168062704
1530,-0.048876187374713075,-0.039293454263425176,0.00612,1604.780566683311,1590.1189850230405,0.47976939410174824,0.48422165407901246
1540,-0.04855490157585112,-0.03897548570714736,0.00616,1614.7745484268107,1600.022247989007,0.4767808754462557,0.4812054019703969
1550,-0.04823776155639881,-0.03800764689843589,0.0062,1624.7685304124182,1608.9118526925756,0.4738291215884488,0.47852950647460624
1560,-0.04792468758982963,-0.037534725233767975,0.00624,1634.7625126401342,1618.554171364678,0.4709134582542206,0.47566026591342314
1570,-0.04761560198086511,-0.03657660755063108,0.00628,1644.7564951099582,1627.4252738544908,0.46803322755771437,0.47305054375713307
1580,-0.047310429001196454,-0.03497295934500868,0.00632,1654.7504778218904,1635.2572757651137,0.4651877875064345,0.47077004095651176
1590,-0.047009094827629404,-0.03467566543043494,0.00636,1664.7444607759307,1645.1343080343916,0.4623765115241835,0.46792502966247373
1600,-0.046711527482549545,-0.03438209369222975,0.0064,1674.7384439720793,1655.0113499075676,0.4595987879910799,0.46511397344697286
1610,-0.046417656776606184,-0.032794572721661766,0.00644,1684.732427410336,1662.7992620818754,0.456854019799948,0.46292104118289135
1620,-0.04612741425351945,-0.03250864980542558,0.00648,1694.7264110907015,1672.6640126847894,0.454141623928404,0.4601726246941732
1630,-0.04584073313691648,-0.032226241634562953,0.00652,1704.7203950131739,1682.5287738643376,0.4514610310259942,0.45745643351801946
1640,-0.04555754827911908,-0.03130031164420327,0.00656,1714.7143791777553,1691.3325110964934,0.4488116850157697,0.4550591436711892
1650,-0.0452777961117852,-0.031024940087109605,0.0066,1724.7083635844456,1701.1911511437308,0.4461930427097152,0.4524040498642345
1660,-0.04500141459833937,-0.03075289292299598,0.00664,1734.7023482332434,1711.0498022521733,0.44360457343747073,0.4497795490997203
1670,-0.04472834318811322,-0.03048411043223836,0.00668,1744.696333124149,1720.908464421838,0.4410457586878129,0.4471851156487473
1680,-0.04445852277212122,-0.030218534317110843,0.00672,1754.6903182571637,1730.7671376527462,0.438516091762389,0.4446202357597214
1690,-0.044191895640406154,-0.02995610765971292,0.00676,1764.6843036322864,1740.6258219449148,0.43601507744121726,0.442084407319199
1700,-0.04392840544089254,-0.02969677488139001,0.0068,1774.6782892495173,1750.484517298363,0.43354223165948874,0.43957713952418886
1710,-0.04366799713968198,-0.02944048170357262,0.00684,1784.6722751088562,1760.3432237131092,0.4310970811952288,0.4370979525654664
1720,-0.04341061698273482,-0.029187175109983837,0.00688,1794.666261210304,1770.2019411891722,0.42867916336739453,0.43464637732146866
1730,-0.04315621245887836,-0.028936803310156092,0.00692,1804.6602475538596,1780.06066972657,0.4262880257440034,0.43222195506235994
1740,-0.04290473226409404,-0.02868931570420806,0.00696,1814.6542341395236,1789.919409325322,0.42392322585990655,0.42982423716387647
1750,-0.04265612626702607,-0.02844466284882661,0.007,1824.6482209672956,1799.7781599854466,0.4215843309438373,0.42745278483057547
1760,-0.04241034547566859,-0.028202796424410922,0.00704,1834.6422080371767,1809.6369217069632,0.41927091765438007,0.425107168828129
1770,-0.04216734200517813,-0.02860821521711338,0.00708,1844.6361953491653,1820.6365409342907,0.4169825718245237,0.42252010037835336
1780,-0.04192706904677694,-0.02837160717158159,0.00712,1854.630182903263,1830.5014607654152,0.4147188882144717,0.4202263550499599
1790,-0.041689480837692305,-0.028137648700250626,0.00716,1864.6241706994692,1840.3663911734486,0.4124794702724037,0.41795719763762124
1800,-0.041454532632101415,-0.02919678011739317,0.0072,1874.6181587377826,1852.5542042113077,0.41026392990288885,0.41518709706172346
1810,-0.041222180673041536,-0.02896765070142756,0.00724,1884.6121470182052,1862.4314477695839,0.40807188724266663,0.41296874988957866
1820,-0.040992382165239795,-0.028741044468168827,0.00728,1894.6061355407364,1872.3087009320673,0.4059029704435263,0.41077380608884867
1830,-0.04076509524883902,-0.028516920053973126,0.00732,1904.6001243053754,1882.1859636987708,0.4037568154620206,0.4086018972475648
1840,-0.04054027897397989,-0.02958762649247087,0.00736,1914.594113312123,1894.4412327461464,0.40163306585576525,0.405938572321739
1850,-0.04031789327620498,-0.029368018095046865,0.0074,1924.5881025609792,1904.3308334758367,0.3995313725860862,0.403814348900209
1860,-0.04009789895265798,-0.029797863145452255,0.00744,1934.5820920519438,1915.4240254505412,0.39745139382678346,0.40145770387655744
1870,-0.03988025763904621,-0.029744646643372778,0.00748,1944.5760817850164,1925.622489223107,0.3953927947787917,0.39931509130299736
1880,-0.03966493178733915,-0.0301796083038117,0.00752,1954.5700717601976,1936.737663611166,0.3933552474905269,0.397005584187239
1890,-0.03945188464417336,-0.029968883492721497,0.00756,1964.5640619774877,1946.6411898012436,0.39133843068371704,0.3949700513204619
1900,-0.0392410802299397,-0.03105776636827709,0.0076,1974.5580524368854,1959.0097560997265,0.38934202958452163,0.3924567658211978
1910,-0.03903248331852986,-0.03085113909327999,0.00764,1984.552043138392,1968.9256756681648,0.38736573575975364,0.39046466164583166
1920,-0.03882605941771201,-0.03064666758815484,0.00768,1994.546034082007,1978.8416017692573,0.3854092469580259,0.38849252093369013
1930,-0.03862177475011906,-0.03044431834352869,0.00772,2004.5400252677298,1988.7575344030104,0.38347226695564923,0.3865400450912944
1940,-0.03841959623482592,-0.03154348280560716,0.00776,2014.5340166955623,2001.194356642878,0.38155450540711683,0.38411855168345266
1950,-0.03821949146948869,-0.03134497830035611,0.0078,2024.528008365503,2011.1227076856944,0.3796556777000188,0.3822069638541629
1960,-0.03802142871303663,-0.031799142907285194,0.00784,2034.5220002775518,2022.326320098279,0.3777755048142306,0.3800723798835011
1970,-0.037825376868888066,-0.031604515503161956,0.00788,2044.5159924317095,2032.260895541229,0.3759137131852332,0.3781992685613994
1980,-0.03763130546867454,-0.0327150105056185,0.00792,2054.5099848279756,2044.7757208011246,0.3740700345714214,0.3758655707373642
1990,-0.037439184656457326,-0.032523997148205606,0.00796,2064.50397746635,2054.722754324929,0.3722442059252667,0.37403097811370795
2000,-0.03724898517341671,-0.03233489594449315,0.008,2074.4979703468334,2064.6697918889863,0.37043596926820366,0.372214061920691
2010,-0.037060678342997595,-0.032147678354874476,0.00804,2084.491963469425,2074.6168334932977,0.3686450715691165,0.3704145679126483
2020,-0.03687423605649746,-0.0332676055210742,0.00808,2094.485956834125,2087.20056315257,0.3668712646263031,0.3681626514777877
2030,-0.036689630759080945,-0.03341055432019566,0.00812,2104.4799504409343,2097.823425269997,0.36511430495280295,0.3662826707286519
2040,-0.03650683543620182,-0.03322846893944928,0.00816,2114.4739442898517,2107.7860766364765,0.3633739536649779,0.3645367503167058
2050,-0.03632582360042783,-0.03304816135860986,0.0082,2124.467938380877,2117.74873078515,0.3616499763742358,0.36280725629863336
2060,-0.03614656927864646,-0.03286960568738813,0.00824,2134.4619327140117,2127.7113877160195,0.3599421430817978,0.36109395793965954
2070,-0.0359690469996402,-0.03400079486843692,0.00828,2144.455927289255,2140.3816453776644,0.3582502280764071,0.3589380685143138
2080,-0.035793231782022435,-0.03382539288397066,0.00832,2154.4499221066067,2150.356817198659,0.3565740098348855,0.3572586319337685
2090,-0.03561909912252008,-0.03365167023428873,0.00836,2164.443917166067,2160.3319907896635,0.35491327092544417,0.355594704405621
2100,-0.035446624984588414,-0.033479602928894216,0.0084,2174.4379124676357,2170.307166150678,0.35326779791366114,0.35394607208565537
2110,-0.03527578578735224,-0.0339638761790993,0.00844,2184.431908011313,2181.6637787378995,0.35163738127103994,0.35208747711906685
2120,-0.03510655839485853,-0.03379491606437229,0.00848,2194.4259037971,2191.6452220564693,0.35002181528606674,0.3504698432096329
2130,-0.0349389201056312,-0.03362754302208226,0.00852,2204.4198998249944,2201.626666637035,0.3484208979776869,0.3488668767270983
2140,-0.03477284864252248,-0.03346173480355017,0.00856,2214.413896094998,2211.6081124795974,0.3468344310111242,0.34727837908281844
2150,-0.03460832214284194,-0.033297469574026343,0.0086,2224.40789260711,2221.5895595841566,0.34526221961597003,0.3457041552570785
2160,-0.03444531914876439,-0.033134725903108085,0.00864,2234.401889361331,2231.5710079507135,0.34370407250647,0.3441440137192783
2170,-0.03428381859800039,-0.03297348275542277,0.00868,2244.395886357661,2241.5524575792674,0.34215980180394084,0.3425977663502499
2180,-0.034123799814724534,-0.034123799814724534,0.00872,2254.3898835960995,2254.3898835960995,0.34062922296125075,0.34062922296125075
2190,-0.03396524250075141,-0.03396524250075141,0.00876,2264.3838810766456,2264.3838810766456,0.3391121546892995,0.3391121546892995
2200,-0.03380812672695542,-0.03380812672695542,0.0088,2274.377878799302,2274.377878799302,0.3376084188854366,0.3376084188854366
2210,-0.033652432924916834,-0.033652432924916834,0.00884,2284.371876764066,2284.371876764066,0.33611784056375954,0.33611784056375954
2220,-0.0334981418788015,-0.0334981418788015,0.00888,2294.3658749709393,2294.3658749709393,0.33464024778723234,0.33464024778723234
2230,-0.0333452347174533,-0.0333452347174533,0.00892,2304.359873419921,2304.359873419921,0.33317547160157146,0.33317547160157146
2240,-0.03319369290670145,-0.03319369290670145,0.00896,2314.3538721110112,2314.3538721110112,0.33172334597084396,0.33172334597084396
2250,-0.03304349824187153,-0.03304349824187153,0.009,2324.347871044211,2324.347871044211,0.33028370771472815,0.33028370771472815
2260,-0.032894632840495146,-0.032894632840495146,0.00904,2334.341870219519,2334.341870219519,0.32885639644738474,0.32885639644738474
2270,-0.03274707913521388,-0.03274707913521388,0.00908,2344.3358696369355,2344.3358696369355,0.3274412545178923,0.3274412545178923
2280,-0.032600819866868996,-0.032600819866868996,0.00912,2354.3298692964613,2354.3298692964613,0.32603812695219925,0.32603812695219925
2290,-0.032455838077771165,-0.032455838077771165,0.00916,2364.323869198096,2364.323869198096,0.32464686139654864,0.32464686139654864
2300,-0.03231211710514759,-0.03231211710514759,0.0092,2374.3178693418395,2374.3178693418395,0.32326730806233156,0.32326730806233156
2310,-0.03216964057475798,-0.03216964057475798,0.00924,2384.311869727691,2384.311869727691,0.32189931967232704,0.32189931967232704
2320,-0.03202839239467784,-0.03202839239467784,0.00928,2394.3058703556526,2394.3058703556526,0.3205427514082887,0.3205427514082887
2330,-0.031888356749237,-0.031888356749237,0.00932,2404.299871225722,2404.299871225722,0.31919746085983886,0.31919746085983886
2340,-0.031749518093119745,-0.031749518093119745,0.00936,2414.2938723379,2414.2938723379,0.3178633079746314,0.3178633079746314
2350,-0.03161186114561191,-0.03161186114561191,0.0094,2424.287873692188,2424.287873692188,0.3165401550097475,0.3165401550097475
2360,-0.03147537088499329,-0.03147537088499329,0.00944,2434.281875288584,2434.281875288584,0.31522786648428924,0.31522786648428924
2370,-0.031340032543075415,-0.031340032543075415,0.00948,2444.2758771270887,2444.2758771270887,0.31392630913313496,0.31392630913313496
2380,-0.03120583159987543,-0.03120583159987543,0.00952,2454.2698792077035,2454.2698792077035,0.31263535186182567,0.31263535186182567
2390,-0.03107275377842103,-0.03107275377842103,0.00956,2464.2638815304263,2464.2638815304263,0.311354865702549,0.311354865702549
2400,-0.030940785039690583,-0.030940785039690583,0.0096,2474.2578840952574,2474.2578840952574,0.3100847237711891,0.3100847237711891
2410,-0.03080991157767564,-0.03080991157767564,0.00964,2484.2518869021983,2484.2518869021983,0.30882480122541406,0.30882480122541406
2420,-0.03068011981456512,-0.03068011981456512,0.00968,2494.2458899512476,2494.2458899512476,0.3075749752237708,0.3075749752237708
2430,-0.03055139639605212,-0.03185894565212686,0.00972,2504.2398932424067,2507.4172379346683,0.3063351248857591,0.30594301592590534
2440,-0.030423728186751684,-0.031731062599243666,0.00976,2514.233896775674,2517.4237927421545,0.3051051312528584,0.30471459668485473
2450,-0.03029710226573468,-0.031604223170080534,0.0098,2524.22790055105,2527.4303467666973,0.30388487725047986,0.30349590460759923
2460,-0.030171505922168756,-0.031478414637519485,0.00984,2534.221904568535,2537.436900008298,0.30267424765081874,0.30228682461382567
2470,-0.03004692665106462,-0.03135362448054878,0.00988,2544.2159088281296,2547.4434524669555,0.301473129036583,0.3010872434314162
2480,-0.029923352149126187,-0.03122984038010886,0.00992,2554.209913329833,2557.45000414267,0.30028140976557266,0.2998970495610727
2490,-0.029800770310700855,-0.031107050215037072,0.00996,2564.203918073645,2567.4565550354423,0.29909897993608753,0.2987161332417693
2500,-0.029679169223826286,-0.03098524205810845,0.01,2574.1979230595657,2577.463105145271,0.2979257313531413,0.2975443864170093
2510,-0.029558537166372932,-0.030864404172174602,0.01004,2584.191928287596,2587.4696544721583,0.296761557495459,0.2963817027018648
2520,-0.029438862602275895,-0.030744525006389987,0.01008,2594.1859337577353,2597.4762030161028,0.29560635348323766,0.2952279773507791
2530,-0.029320134177859017,-0.031279565246704125,0.01012,2604.1799394699833,2609.1373000741614,0.2944600160466492,0.2938946528158396
2540,-0.02920234071824418,-0.031161468257088862,0.01016,2614.17394542434,2619.1501293730057,0.29332244349506564,0.29275926440355515
2550,-0.029085471223845482,-0.03104429700958498,0.0102,2624.167951620806,2629.1629573744417,0.2921935356869879,0.2916325240984689
2560,-0.0289695148669459,-0.030928040655651756,0.01024,2634.1619580593815,2639.1757840784685,0.29107319400065884,0.29051433346817757
2570,-0.028854460988352485,-0.030812688515597524,0.01028,2644.155964740066,2649.1886094850856,0.28996132130534286,0.2894045955684366
2580,-0.02874029909413109,-0.030698230075307587,0.01032,2654.149971662858,2659.2014335942936,0.2888578219332543,0.2883032149151425
2590,-0.028627018852417276,-0.030584654983047754,0.01036,2664.1439788277607,2669.2142564060937,0.28776260165211753,0.2872100974569455
2600,-0.028514610090296977,-0.030471953046340577,0.0104,2674.137986234772,2679.2270779204855,0.2866755676383429,0.28612515054847726
2610,-0.02840306279076354,-0.030360114228915686,0.01044,2684.131993883893,2689.23989813747,0.285596628450801,0.2850482829241755
2620,-0.02829236708974103,-0.031557778905316775,0.01048,2694.1260017751215,2702.68138073193,0.28452569400518213,0.28361521178436555
2630,-0.028182513273179017,-0.03144744387537657,0.01052,2704.120009908461,2712.7067773922404,0.283462675548922,0.2825555949871655
2640,-0.028073491774207607,-0.03133794383420898,0.01056,2714.114018283908,2722.7321717223117,0.28240748563668416,0.2815037816826468
2650,-0.027965293170364364,-0.031229269329111426,0.0106,2724.1080269014656,2732.7575637221453,0.28136003810637994,0.28045968598443954
2660,-0.02785790818087614,-0.031121411049526558,0.01064,2734.1020357611305,2742.7829533917406,0.2803202480557156,0.2794232232619373
2670,-0.027751327664009978,-0.031014359824382567,0.01068,2744.0960448629066,2752.8083407311015,0.27928803181925094,0.2783943101174293
2680,-0.027645542614473967,-0.030908106619486928,0.01072,2754.0900542067902,2762.833725740225,0.27826330694595885,0.27737286436373176
2690,-0.02754054416088592,-0.030802642534986414,0.01076,2764.084063792783,2772.8591084191135,0.27724599217727,0.2763588050023027
2700,-0.0274363235632912,-0.030697958802877314,0.0108,2774.0780736208862,2782.8844887677687,0.2762360074255931,0.27535205220183123
2710,-0.027332872210737182,-0.030594046784572265,0.01084,2784.0720836910978,2792.909866786191,0.27523327375329826,0.2743525272772877
2720,-0.027230181618903723,-0.030490897968521957,0.01088,2794.066094003418,2802.9352424743797,0.27423771335214975,0.2733601526694229
2730,-0.027128243427783246,-0.030388503967889426,0.01092,2804.0601045578483,2812.960615832338,0.27324924952318025,0.27237485192470606
2740,-0.027027049399411737,-0.03028685651827229,0.01096,2814.054115354388,2822.985986860066,0.27226780665699307,0.2713965496756907
2750,-0.026926591415649122,-0.030185947475477322,0.011,2824.048126393035,2833.0113555575626,0.2712933102144831,0.27042517162179674
2760,-0.02682686147601201,-0.0300857688133444,0.01104,2834.042137673793,2843.0367219248305,0.27032568670796475,0.2694606445104993
2770,-0.026727851695544983,-0.029986312621613973,0.01108,2844.0361491966596,2853.0620859618707,0.2693648636826992,0.26850289611891454
2780,-0.026629554302746865,-0.029887571103843016,0.01112,2854.0301609616363,2863.0874476686836,0.2684107696988085,0.2675518552357723
2790,-0.026531961637534376,-0.029789536575364803,0.01116,2864.024172968721,2873.112807045268,0.2674633343135693,0.26660745164376587
2800,-0.02643506614925546,-0.029692201461295847,0.0112,2874.0181852179153,2883.1381640916284,0.26652248806407486,0.2656696161022698
2810,-0.026338860394740014,-0.029595558294577586,0.01124,2884.0121977092194,2893.163518807763,0.265588162450259,0.2647382803304182
2820,-0.02624333703639448,-0.029499599714068795,0.01128,2894.0062104426324,2903.188871193674,0.2646602899182707,0.2638133769905322
2830,-0.026148488840337207,-0.029404318462671372,0.01132,2904.0002234181543,2913.21422124936,0.2637388038441922,0.26289483967189076
2840,-0.026054308674572663,-0.029309707385501774,0.01136,2913.9942366357864,2923.239568974825,0.2628236385180923,0.26198260287483444
2850,-0.0259607895072024,-0.029215759428093804,0.0114,2923.988250095527,2933.2649143700673,0.2619147291284072,0.2610766019951963
2860,-0.02586792440467714,-0.02912246763464641,0.01144,2933.9822637973766,2943.2902574350887,0.2610120117466391,0.26017677330904987
2870,-0.025775706530082446,-0.029029825146303173,0.01148,2943.9762777413366,2953.31559816989,0.26011542331236825,0.2592830539577687
2880,-0.025684129141460073,-0.028937825199469417,0.01152,2953.970291927405,2963.340936574472,0.2592249016185678,0.2583953819333884
2890,-0.025593185590166875,-0.02884646112416439,0.01156,2963.9643063555823,2973.366272648835,0.2583403852972167,0.2575136960642656
2900,-0.025502869319265428,-0.028755726342406918,0.0116,2973.9583210258697,2983.39160639298,0.257461813805202,0.25663793600102536
2910,-0.0254131738619471,-0.02866561436663528,0.01164,2983.952335938266,2993.4169378069087,0.25658912741050505,0.2557680422027914
2920,-0.025324092839990774,-0.028576118798158304,0.01168,2993.946351092773,3003.4422668906222,0.25572226717866386,0.25490395592369214
2930,-0.02523561996224831,-0.028487233325637885,0.01172,3003.9403664893875,3013.467593644119,0.2548611749595063,0.25404561919963586
2940,-0.02514774902316743,-0.028398951723606163,0.01176,3013.9343821281122,3023.492918067402,0.2540057933741462,0.2531929748353489
2950,-0.025060473901337716,-0.028311267851006853,0.0118,3023.9283980089463,3033.51824016047,0.25315606580223865,0.2523459663916715
2960,-0.02497378855807111,-0.028224175649772615,0.01184,3033.9224141318905,3043.543559923327,0.25231193636948607,0.2515045381731037
2970,-0.024887687036007786,-0.028137669143424707,0.01188,3043.916430496943,3053.5688773559714,0.2514733499353912,0.25066863521559796
2980,-0.024802163457753375,-0.028051742435705733,0.01192,3053.910447104105,3063.594192458403,0.25064025208125007,0.24983820327459008
2990,-0.024717212024541028,-0.027966389709239817,0.01196,3063.9044639533777,3073.619505230627,0.24981258909837983,0.249013188813265
