o_GT,Error_GT,Error_measured,lambda,o_predicted,o_measured,s_incorrect
230,0.32874239947316974,0.3268056447588392,0.00092,154.38924812117097,154.83470170546698,3.366025492282603
240,0.31501956938947206,0.3080716668311135,0.00096,164.3953033465267,166.06279996053277,3.2256452803091458
250,0.30239456668265813,0.29259402653213223,0.001,174.40135832933547,176.85149336696693,3.096495485293565
260,0.2907407189630875,0.2827596083550231,0.00104,184.40741306959725,186.482501827694,2.9772802898945674
270,0.2799501201210665,0.27177957890752974,0.00108,194.41346756731204,196.61951369496697,2.8668958497103105
280,0.2699302792054288,0.2612799410301805,0.00112,204.41952182247994,206.84161651154946,2.764396012396357
290,0.26060146263758355,0.2495077531478036,0.00116,214.42557583510077,217.64275158713696,2.6689651293799184
300,0.251894567982751,0.24102526674077182,0.0012,224.4316296051747,227.69241997776845,2.579896305231242
310,0.24374940924934918,0.23236523181626334,0.00124,234.43768313270175,237.96677813695837,2.4965738568340927
320,0.23611332369474428,0.22658538735000108,0.00128,244.44373641768183,247.49267604799965,2.418459061461766
330,0.22894003193904547,0.22089883662162416,0.00132,254.449789460115,257.103383914864,2.345078496112004
340,0.22218869923529044,0.21200727296486732,0.00136,264.45584226000125,267.9175271919451,2.2760144346063456
350,0.21582315766474106,0.20187219610611368,0.0014,274.46189481734064,279.3447313628602,2.2108968909010107
360,0.20981125796629732,0.19442503364988065,0.00144,284.46794713213296,290.00698788604296,2.149396988512639
370,0.20412432647465237,0.18780438939877744,0.00148,294.47399920437863,300.51237592245235,2.0912214051722873
380,0.19873670780505975,0.18281982277564557,0.00152,304.4800510340773,310.5284673452547,2.0361076946393224
390,0.19362537789428444,0.17690850292781174,0.00156,314.48610262122907,321.0056838581534,1.9838203282362534
400,0.18876961508541457,0.17392778786424942,0.0016,324.4921539658342,330.42888485430024,1.9341473301533374
410,0.18415071934660432,0.16997097292209906,0.00164,334.49820506789223,340.3119011019394,1.8868974051476375
420,0.17975177160142022,0.16237884562308436,0.00168,344.5042559274035,351.80088483830457,1.84189747657078
430,0.17555742664100463,0.15672974880548635,0.00172,354.510306544368,362.60620801364087,1.7989905679277296
440,0.17155373427548737,0.14887547712205754,0.00176,364.51635691878556,374.4947900662947,1.7580339733139092
450,0.16772798433187466,0.1445366910930391,0.0018,374.5224070506564,384.9584890081324,1.7188976717940363
460,0.16406857186960794,0.14166264171496326,0.00184,384.52845693998034,394.8351848111169,1.6814629486011143
470,0.16056487960264335,0.13994365296283917,0.00188,394.53450658675763,404.2264831074656,1.6456211923525719
480,0.15720717501877507,0.13723928727345094,0.00192,404.54055599098797,414.12514210874355,1.6112728426143856
490,0.15398652009658848,0.13530847553730935,0.00196,414.54660515267165,423.6988469867184,1.5783264663349006
500,0.1508946918563829,0.13303257883965194,0.002,424.55265407180855,433.48371058017403,1.5466979451065952
510,0.1479241122580418,0.13003850290515367,0.00204,434.5587027483987,443.6803635183716,1.5163097580441054
520,0.1450677861876116,0.12718329982634824,0.00208,444.56475118244197,453.8646840902989,1.4870903474070964
530,0.14231924646426658,0.12452945684258768,0.00212,454.5707993739387,463.99938787342853,1.4589735560394081
540,0.13967250495761377,0.12172472984508241,0.00216,464.57684732288857,474.2686458836555,1.4318981273149676
550,0.13712200903765154,0.11909806921518432,0.0022,474.58289502929165,484.4960619316486,1.4058072596350524
560,0.13466260269080702,0.11672494232110477,0.00224,484.58894249314807,494.63403230018133,1.3806482086579914
570,0.13228949172902127,0.11460978442102411,0.00228,494.5949897144579,504.67242288001626,1.3563719313994234
580,0.12999821259789507,0.11266783337742584,0.00232,504.60103669322086,514.652656641093,1.3329327671497717
590,0.12778460435688604,0.11082457639811194,0.00236,514.6070834294372,524.613499925114,1.3102881508407862
600,0.1256447834614886,0.10904308574419815,0.0024,524.6131299231068,534.5741485534811,1.2883983550754334
610,0.12357512102585264,0.10727558668886204,0.00244,534.6191761742299,544.5618921197942,1.2672262575318958
620,0.1215722222857965,0.1055292141423147,0.00248,544.6252221828062,554.5718872317649,1.2467371308768591
630,0.1196329080177208,0.10384490320330257,0.00252,554.6312679488359,564.5777109819194,1.2268984526870617
640,0.11775419769950161,0.10228876887034133,0.00256,564.637313472319,574.5351879229815,1.2076797331906954
650,0.11593329422576114,0.10091397234487483,0.0026,574.6433587532553,584.4059179758314,1.1890523589096023
660,0.11416757001265893,0.0997474693527765,0.00264,584.6494037916451,594.1666702271675,1.1709894505158145
670,0.11245455434703237,0.098778278343177,0.00268,594.6554485874883,603.8185535100714,1.153465733417364
680,0.11079192185178717,0.09796017946677112,0.00272,604.6614931407847,613.3870779625956,1.1364574197629855
690,0.10917748195429752,0.09721687142015777,0.00276,614.6675374515347,622.9203587200911,1.1199421007072845
700,0.1076091692575171,0.0964773609935032,0.0028,624.673581519738,632.4658473045478,1.103898647910318
710,0.10608503472479636,0.09569806978046469,0.00284,634.6796253453946,642.0543704558701,1.0883071233611534
720,0.10460323759929871,0.09480967816756083,0.00288,644.6856689285049,651.7370317193562,1.0731486967161321
730,0.1031620379875774,0.09374799526983586,0.00292,654.6917122690685,661.5639634530198,1.0584055694312484
740,0.10175979004447905,0.09247190161177643,0.00296,664.6977553670855,671.5707928072854,1.0440609050459564
750,0.10039493570325855,0.09100096195700173,0.003,674.7037982225561,681.7492785322487,1.0300987650442717
760,0.09906599890068435,0.08934060323153104,0.00304,684.7098408354799,692.1011415440364,1.016504049779474
770,0.09777158025213298,0.08755676764767811,0.00308,694.7158832058576,702.5812889112879,1.0032624440020732
780,0.09651035213629702,0.08569851692810612,0.00312,704.7219253336883,713.1551567960772,0.9903603665779392
790,0.09528105415319911,0.08383666819304324,0.00316,714.7279672189727,723.7690321274958,0.9777849240253025
800,0.09408248892286167,0.08201514816387075,0.0032,724.7340088617107,734.3878814689034,0.9655238675364815
810,0.09291351819518291,0.08029954630870623,0.00324,734.7400502619018,744.957367489948,0.9535655531831869
820,0.09177305924445482,0.07873613255172231,0.00328,744.746091419547,755.4363713075877,0.9418989050336313
830,0.09066008152452368,0.07734077262863914,0.00332,754.7521323346454,765.8071587182295,0.9305133809358722
840,0.08957360356286044,0.07612217038903986,0.00336,764.7581730071972,776.0573768732065,0.9193989407452026
850,0.08851269007387921,0.07504324482687748,0.0034,774.7642134372027,786.2132418971541,0.9085460167943135
860,0.08747644927364907,0.07410404525496952,0.00344,784.7702536246618,796.2705210807262,0.8979454864236774
870,0.08646403037979945,0.07329215366810593,0.00348,794.7762935695745,806.2358263087478,0.8875886464063896
880,0.08547462128188567,0.07258960952658604,0.00352,804.7823332719406,816.1211436166043,0.8774671891167672
890,0.08450744636880837,0.07194952867822264,0.00356,814.7883727317605,825.9649194763819,0.8675731803055633
900,0.08356176450107367,0.0713551329877238,0.0036,824.7944119490337,835.7803803110486,0.8578990383568307
910,0.08263686711674653,0.07078872683815364,0.00364,834.8004509237606,845.5822585772802,0.8484375149124659
920,0.08173207646093364,0.07022081973925368,0.00368,844.806489655941,855.3968458398866,0.8391816767603697
930,0.08084674392948911,0.06964266430815234,0.00372,854.8125281455751,865.2323221934183,0.8301248888911145
940,0.07998024851844374,0.0690544814337969,0.00376,864.8185663926629,875.0887874522309,0.8212607986360987
950,0.07913199537136374,0.06844716937890337,0.0038,874.8246043972044,884.9751890900418,0.8125833208075042
960,0.0783014144175007,0.06782189082244656,0.00384,884.8306421591993,894.8909848104513,0.8040866237670055
970,0.07748795909417742,0.06717549508267795,0.00388,894.8366796786479,904.8397697698024,0.7957651163562077
980,0.07669110514739781,0.06651293349833054,0.00392,904.8427169555501,914.8173251716361,0.7876134356272629
990,0.07591034950514539,0.06584694070457885,0.00396,914.8487539899061,924.811528702467,0.7796264353170849
1000,0.07514520921828421,0.06517416931594494,0.004,924.8547907817158,934.8258306840551,0.7717991750131102
1010,0.07439522046437692,0.06449488761875284,0.00404,934.8608273309793,944.8601635050596,0.7641269099626796
1020,0.07365993761010192,0.06378581371259193,0.00408,944.866863637696,954.9384700131562,0.7566050814818654
1030,0.07293893232828477,0.06305921123379785,0.00412,954.8728997018667,965.0490124291882,0.7492293079230088
1040,0.0722317927658737,0.0623400911099287,0.00416,964.8789355234914,975.1663052456742,0.7419953761633608
1050,0.07153812275945787,0.06164710405152283,0.0042,974.8849711025692,985.270540745901,0.7348992335800871
1060,0.07085754109518781,0.060956471726297826,0.00424,984.8910064391009,995.3861399701243,0.7279369804795168
1070,0.0701896808101992,0.06025776496923805,0.00428,994.8970415330868,1005.5241914829153,0.7211048629509196
1080,0.0695341885328464,0.05956050094788673,0.00432,1004.9030763845259,1015.6746589762823,0.7143992661172965
1090,0.06889072385924846,0.05887197810199594,0.00436,1014.9091109934192,1025.8295438688244,0.7078167077576848
1100,0.06825895876384906,0.058186997287455765,0.0044,1024.915145359766,1035.9943029837987,0.7013538322773388
1110,0.06763857704183203,0.05749117129228596,0.00444,1034.9211794835664,1046.1847998655626,0.695007405003846
1120,0.06702927378140983,0.05681011447963361,0.00448,1044.927213364821,1056.3726717828104,0.6887743067888082
1130,0.06643075486413343,0.05615573992448486,0.00452,1054.9332470035292,1066.544013885332,0.6826515288961605
1140,0.065842736491499,0.05551691657891544,0.00456,1064.9392803996911,1076.7107151000364,0.6766361681595243
1150,0.06526494473625481,0.05493605992320721,0.0046,1074.945313553307,1086.8235310883117,0.6707254223922209
1160,0.06469711511691704,0.05440461503243047,0.00464,1084.9513464643762,1096.8906465623807,0.6649165860346985
1170,0.06413899219410268,0.053917788532684675,0.00468,1094.9573791328999,1106.916187416759,0.6592070460251679
1180,0.06359032918739242,0.0534414695620703,0.00472,1104.963411558877,1116.939065916757,0.6535942778802057
1190,0.06305088761150575,0.053000046542863,0.00476,1114.9694437423082,1126.929944613993,0.648075841972974
1200,0.06252043693067245,0.052603784130730746,0.0048,1124.975475683193,1136.875459043123,0.6426493799975294
1210,0.06199875423013896,0.0522385235796563,0.00484,1134.9815073815319,1146.7913864686159,0.6373126116084558
1220,0.061485623903832325,0.05193517169074625,0.00488,1144.9875388373246,1156.6390905372896,0.6320633312257604
1230,0.06098083735725957,0.05167793260428939,0.00492,1154.9935700505707,1166.436142896724,0.6268994049956294
1240,0.060484192724781255,0.05144839416652244,0.00496,1164.9996010212712,1176.2039912335122,0.6218187678982421
1250,0.059995494600459644,0.051239363768204385,0.005,1175.0056317494254,1185.9507952897445,0.6168194209944132
1260,0.05951455378171922,0.05108033696789432,0.00504,1185.0116622350338,1195.6387754204532,0.6118994288033435
1270,0.05904118702512142,0.05094870529742222,0.00508,1195.0176924780958,1205.2951442722738,0.607056916804259
1280,0.058575216813584595,0.05082417367244716,0.00512,1205.0237224786117,1214.9450576992676,0.6022900690551604
1290,0.05811647113443291,0.05070101859255021,0.00516,1215.0297522365815,1224.5956860156102,0.5975971259223268
1300,0.0576647832676879,0.05057626260928495,0.0052,1225.0357817520057,1234.2508586079296,0.5929763819146137
1310,0.057219991584058494,0.050462099921882685,0.00524,1235.0418110248834,1243.8946491023337,0.588426183616942
1320,0.056781939352109734,0.050356567170344264,0.00528,1245.0478400552151,1253.5293313351456,0.5839449277177199
1330,0.056350474554134715,0.050261272769911984,0.00532,1255.0538688430008,1263.152507216017,0.579531059125253
1340,0.055925449710268006,0.05016456241648311,0.00536,1265.0598973882409,1272.7794863619126,0.5751830691684946
1350,0.055506721710419156,0.05001812391593241,0.0054,1275.0659256909341,1282.4755327134912,0.5708994938777623
1360,0.05509415165361618,0.04983646526475174,0.00544,1285.071953751082,1292.2224072399376,0.5666789123413053
1370,0.05468760469439142,0.049618920793511316,0.00548,1295.0779815686838,1302.0220785128895,0.5625199451338478
1380,0.054286949895841166,0.04938689986911248,0.00552,1305.0840091437392,1311.8460781806248,0.558421252813455
1390,0.0538920600890295,0.049130546388808316,0.00556,1315.090036476249,1321.7085405195564,0.5543815344832834
1400,0.05350281173841917,0.048834550527671064,0.0056,1325.0960635662132,1331.6316292612605,0.5503995264149716
1410,0.05311908481302814,0.04851782101248573,0.00564,1335.1020904136303,1341.5898723723951,0.5464740007306076
1420,0.052740762663026554,0.0481513121927338,0.00568,1345.1081170185023,1351.625136686318,0.5426037641403892
1430,0.052367731901518916,0.04773954166971571,0.00572,1355.114143380828,1361.7324554123065,0.5387876567332511
1440,0.051999882291244304,0.04729928813203151,0.00576,1365.1201695006082,1371.8890250898746,0.5350245508178786
1450,0.051637106635971104,0.04679060050055984,0.0058,1375.126195377842,1382.1536292741882,0.5313133498116839
1460,0.051279300676349344,0.046236037584041344,0.00584,1385.13222101253,1392.4953851272996,0.5276529871754368
1470,0.05092636299001895,0.04563699908753671,0.00588,1395.1382464046721,1402.913611341321,0.5240424253913837
1480,0.050578194895764546,0.0450069436459476,0.00592,1405.1442715542685,1413.3897234039976,0.5204806549827907
1490,0.05023470036153107,0.04434644146687556,0.00596,1415.1502964613187,1423.9238022143554,0.5169666935729709
1500,0.049895785916117805,0.0436678551791371,0.006,1425.1563211258233,1434.4982172312943,0.5134995849819485
1510,0.049561360564382914,0.04295673592517636,0.00604,1435.1623455477818,1445.1353287529837,0.5100783983590192
1520,0.049231335705793286,0.0422146822750736,0.00608,1445.1683697271942,1455.8336829418881,0.5067022273495496
1530,0.048905625056169154,0.041439933747138565,0.00612,1455.1743936640612,1466.596901366878,0.503370189294452
1540,0.048584144572479004,0.04063925386408182,0.00616,1465.1804173583823,1477.415549049314,0.5000814244608492
1550,0.04826681238054378,0.03982032805118853,0.0062,1475.1864408101571,1488.2784915206578,0.4968350953025188
1560,0.04795354870552145,0.038990372503588604,0.00624,1485.1924640193865,1499.1750188944018,0.49363038574878226
1570,0.047644275805050915,0.03816850673461802,0.00628,1495.19848698607,1510.0754444266497,0.4904665005205711
1580,0.04733891790493167,0.03733397895016539,0.00632,1505.204509710208,1521.0123132587387,0.4873426644724638
1590,0.04703740113723286,0.03652974084215211,0.00636,1515.2105321917998,1531.9177120609781,0.48425812195955287
1600,0.04673965348072159,0.03574379752874535,0.0064,1525.2165544308455,1542.8099239540074,0.48121213622805337
1610,0.04644560470351195,0.03497781188231504,0.00644,1535.2225764273458,1553.6857228694728,0.47820398882862214
1620,0.04615518630783911,0.03424955623767119,0.00648,1545.2285981813006,1564.5157188949727,0.47523297905140605
1630,0.04586833147686552,0.03354276427158219,0.00652,1555.2346196927092,1575.325294237321,0.47229842338188593
1640,0.04558497502343163,0.032867286892812264,0.00656,1565.2406409615721,1586.097649495788,0.46939965497662833
1650,0.045305053340673085,0.032223233734912496,0.0066,1575.2466619878894,1596.8316643373944,0.46653602315810094
1660,0.04502850435442132,0.03161756716630741,0.00664,1585.2526827716606,1607.5148385039297,0.4637068929277487
1670,0.044755267477313544,0.03104553354504322,0.00668,1595.2587033128864,1618.1539589797778,0.46091164449656236
1680,0.04448528356454387,0.03050518481309574,0.00672,1605.2647236115663,1628.7512895139992,0.4581496728324139
1690,0.044218494871183095,0.02998570153244584,0.00676,1615.2707436677006,1639.3241644101665,0.4554203872234625
1700,0.04395484501100648,0.029514828948362905,0.0068,1625.276763481289,1649.824790787783,0.45272321085696937
1710,0.043694278916765056,0.029094875047083177,0.00684,1635.2827830523318,1660.2477636694878,0.4500575804128913
1720,0.043436742801843675,0.028708449258081383,0.00688,1645.2888023808289,1670.6214672761,0.4474229456716514
1730,0.04318218412324821,0.028359942126410246,0.00692,1655.2948214667806,1680.9373001213103,0.44481876913551255
1740,0.042930551545869854,0.028029766520878848,0.00696,1665.3008403101865,1691.2282062536708,0.44224452566300737
1750,0.042681794907973455,0.02776862956050627,0.007,1675.3068589110464,1701.404898269114,0.4396997021159024
1760,0.042435865187863055,0.027552983253133077,0.00704,1685.312877269361,1711.5067494744858,0.43718379701819626
1770,0.04219271447167811,0.027392800677723685,0.00708,1695.3188953851297,1721.514742800429,0.43469632022667887
1780,0.041952295922273834,0.02724137239806189,0.00712,1705.3249132583526,1731.5103571314498,0.43223679261259434
1790,0.041714563749144735,0.027108759623842436,0.00716,1715.330930889031,1741.475320273322,0.4298047457539743
1800,0.04147947317935417,0.027004027409995312,0.0072,1725.3369482771625,1751.3927506620084,0.427399721638228
1810,0.041246980429420634,0.02692718103044134,0.00724,1735.3429654227486,1761.2618023349012,0.4250212723745893
1820,0.04101704267813757,0.026882019316615942,0.00728,1745.3489823257896,1771.074724843759,0.42266895991604553
1830,0.04078961804028182,0.026886591626226454,0.00732,1755.3549989862843,1780.7975373240056,0.4203423557903821
1840,0.04056466554117732,0.026905629310657708,0.00736,1765.3610154042337,1790.4936420683898,0.41804104083999755
1850,0.040342145092087556,0.026962449003115677,0.0074,1775.367031579638,1800.119469344236,0.41576460497015766
1860,0.04012201746639989,0.02702949881951021,0.00744,1785.3730475124962,1809.725132195711,0.4135126469053698
1870,0.03990424427657273,0.027123874041804438,0.00748,1795.379063202809,1819.2783555418257,0.41128477395357443
1880,0.03968878795182108,0.02724956741661787,0.00752,1805.3850786505764,1828.7708132567584,0.40908060177786193
1890,0.03947561171650895,0.027377614296754487,0.00756,1815.391093855798,1838.256308979134,0.4068997541754374
1900,0.039264679569224,0.027499424088087764,0.0076,1825.3971088184744,1847.7510942326332,0.40474186286356467
1910,0.039055956262510544,0.027628370855172904,0.00764,1835.4031235386049,1857.2298116666198,0.40260656727223515
1920,0.038849407283234424,0.02777322969485129,0.00768,1845.40913801619,1866.6753989858855,0.4004935143433153
1930,0.03864499883355983,0.02792969588033288,0.00772,1855.4151522512295,1876.0956869509575,0.39840235833593873
1940,0.03844269781251377,0.02807934231071852,0.00776,1865.4211662437233,1885.526075917206,0.39633276063791645
1950,0.03824247179811687,0.028233758686449572,0.0078,1875.427179993672,1894.9441705614233,0.39428438958295087
1960,0.03804428903006364,0.02838477051854372,0.00784,1885.4331935010753,1904.3658497836543,0.3922569202734441
1970,0.03784811839292752,0.028541984281821732,0.00788,1895.4392067659328,1913.7722909648112,0.39025003440870387
1980,0.03765392939987619,0.028706520911134358,0.00792,1905.4452197882451,1923.161088595954,0.388263420118355
1990,0.03746169217687847,0.028864895111517845,0.00796,1915.4512325680118,1932.5588587280795,0.3862967718007735
2000,0.03727137744738331,0.029023491086096784,0.008,1925.4572451052334,1941.9530178278064,0.3843497899663677
2010,0.037082956517458195,0.0292001227226884,0.00804,1935.463257399909,1951.3077533273963,0.38242218108553816
2020,0.036896401261366694,0.029375187605949864,0.00808,1945.4692694520393,1960.6621210359813,0.3805136574411525
2030,0.03671168410757411,0.029521854097238762,0.00812,1955.4752812616246,1970.0706361826053,0.3786239369853814
2040,0.03652877802516449,0.02968326233414096,0.00816,1965.4812928286644,1979.4461448383524,0.3767527432007453
2050,0.036347656510654525,0.02984474013446876,0.0082,1975.4873041531582,1988.818282724339,0.3748998049652277
2060,0.03616829357519075,0.030001788708331402,0.00824,1985.493315235107,1998.1963152608373,0.373064856421317
2070,0.03599066373212055,0.03014798985771313,0.00828,1995.4993260745105,2007.5936609945338,0.37124763684884504
2080,0.035814741984918894,0.030284532129093558,0.00832,2005.5053366713687,2017.0081731714854,0.369447890541493
2090,0.03564050381546339,0.03041723147598423,0.00836,2015.5113470256815,2026.427986215193,0.3676653666868429
2100,0.03546792517264348,0.03054482729648682,0.0084,2025.5173571374487,2035.8558626773777,0.3658998192498562
2110,0.03529698246129351,0.03065980706719518,0.00844,2035.5233670066707,2045.3078070882182,0.3641510068596655
2120,0.035127652531439964,0.030749756242981537,0.00848,2045.5293766333473,2054.810516764879,0.362418692699571
2130,0.03495991266785038,0.03083144560244197,0.00852,2055.5353860174787,2064.3290208667986,0.3607026444001346
2140,0.03479374057987643,0.030906558033858753,0.00856,2065.5413951590645,2073.8599658075423,0.35900263393527243
2150,0.03462911439157895,0.030969340797214816,0.0086,2075.5474040581053,2083.415917285988,0.35731843752124615
2160,0.034466012632129325,0.031032850000118347,0.00864,2085.5534127146007,2092.9690439997444,0.35564983551846086
2170,0.03430441422647415,0.031072484433542224,0.00868,2095.559421128551,2102.5727087792134,0.35399661233597773
2180,0.03414429848625887,0.031093546474434283,0.00872,2105.5654292999557,2112.2160686857333,0.35235855633865504
2190,0.033985645100997795,0.03110161691989336,0.00876,2115.571437228815,2121.8874589454335,0.350735459756833
2200,0.03382843412948659,0.031103916919491274,0.0088,2125.5774449151295,2131.571382777119,0.349127118598482
2210,0.03367264599144874,0.031099090148048604,0.00884,2135.5834523588983,2141.2710107728126,0.3475333325637361
2220,0.033518261459404654,0.03109036678415004,0.00888,2145.5894595601217,2150.979385739187,0.3459539049617356
2230,0.03336526165076208,0.03108142675095827,0.00892,2155.5954665188005,2160.688418345363,0.3443886426297082
2240,0.03321362802011894,0.03105500907159556,0.00896,2165.6014732349336,2170.436779679626,0.34283735585421676
2250,0.03306334235176837,0.031024348957978672,0.009,2175.607479708521,2180.195214844548,0.3412998582945075
2260,0.03291438675240519,0.030985738438828906,0.00904,2185.6134859395643,2189.9722311282467,0.3397759669078929
2270,0.03276674364402577,0.030940967087070677,0.00908,2195.6194919280615,2199.7640047123496,0.33826550187710763
2280,0.0326203957570113,0.03088520060381729,0.00912,2205.6254976740142,2209.5817426232966,0.3367682865395748
2290,0.032475326123396694,0.030816026948312508,0.00916,2215.6315031774216,2219.4312982883644,0.33528414731852696
2300,0.03233151807031173,0.030742016806863396,0.0092,2225.637508438283,2229.293361344214,0.3338129136559231
2310,0.032188955213593086,0.03064262025842624,0.00924,2235.6435134566,2239.2155472030354,0.3323544179471079
2320,0.032047621451563806,0.030547856261936908,0.00928,2245.649518232372,2249.1289734723064,0.33090849547716183
2330,0.03190750095897077,0.030444593676473685,0.00932,2255.655522765598,2259.0640967338163,0.3294749843588892
2340,0.03176857818107723,0.030343172541467584,0.00936,2265.6615270562793,2268.996976252966,0.32805372547239664
2350,0.031630837827908105,0.03024277842158107,0.0094,2275.667531104416,2278.9294707092845,0.3266445624062146
2360,0.03149426486864101,0.030132506487762008,0.00944,2285.673534910007,2288.8872846888817,0.32524734139991546
2370,0.03135884452613794,0.0300298069840937,0.00948,2295.679538473053,2298.829357447698,0.3238619112881843
2380,0.03122456227161617,0.02992330797114502,0.00952,2305.6855417935535,2308.782527028675,0.3224881234462996
2390,0.031091403819452114,0.02983721644729721,0.00956,2315.6915448715094,2318.6890526909597,0.32112583173698295
2400,0.030959355122116675,0.029772971750672353,0.0096,2325.69754770692,2328.5448677983863,0.3197748924585773
2410,0.030828402365234212,0.02972203671005185,0.00964,2335.7035502997855,2338.369891528775,0.3184351642945153
2420,0.03069853196276605,0.029677684205389108,0.00968,2345.709552650106,2348.1800042229584,0.3171065082640405
2430,0.03056973055231201,0.02964605543642609,0.00972,2355.715554757882,2357.9600852894846,0.3157887876741458
2440,0.03044198499052803,0.029616477224432527,0.00976,2365.7215566231116,2367.7357955723846,0.31448186807269285
2450,0.030315282348654143,0.02959117300089929,0.0098,2375.7275582457974,2377.5016261477967,0.31318561720268034
2460,0.030189609908155227,0.029561876629720533,0.00984,2385.733559625938,2387.2777834908875,0.31189990495762726
2470,0.03006495515646453,0.029523829761206533,0.00988,2395.7395607635326,2397.07614048982,0.3106246033380402
2480,0.029941305782829424,0.029462865429588654,0.00992,2405.745561658583,2406.93209373462,0.30935958640893374
2490,0.02981864967426165,0.02942046836454203,0.00996,2415.7515623110885,2416.7430337722903,0.3081047302583742
2500,0.029696974911580583,0.029358270851404085,0.01,2425.7575627210485,2426.60432287149,0.30685991295701925
2510,0.029576269765552336,0.029325914348383737,0.01004,2435.7635628884636,2436.391954985557,0.30562501451862323
2520,0.029456522693121337,0.02930008388668829,0.01008,2445.7695628133342,2446.1637886055455,0.3043999168614843
2530,0.029337722333731636,0.029270462153646676,0.01012,2455.775562495659,2455.945730751274,0.3031845037708051
2540,0.029219857505732603,0.02924912941287646,0.01016,2465.781561935439,2465.707211291294,0.3019786608619422
2550,0.029102917202872586,0.029226506913613524,0.0102,2475.787561132675,2475.4724073702855,0.3007822755445213
2560,0.028986890590873136,0.029196776421344772,0.01024,2485.7935600873648,2485.2562523613574,0.2995952369873928
2570,0.028871767004081665,0.029167014528749844,0.01028,2495.79955879951,2495.040772661113,0.2984174360844054
2580,0.028757535942205224,0.029157473608237762,0.01032,2505.8055572691105,2504.7737180907466,0.297248765420976
2590,0.028644187067117213,0.029156857422503714,0.01036,2515.8115554961664,2514.4837392757154,0.2960891192414341
2600,0.028531710199739827,0.029158095096550263,0.0104,2525.8175534806765,2524.1889527489693,0.29493839341711947
2610,0.02842009531699506,0.029151647358742965,0.01044,2535.823551222643,2533.914200393681,0.29379648541521336
2620,0.028309332548830737,0.029132781606691624,0.01048,2545.8295487220635,2543.672112190468,0.29266329426828364
2630,0.02819941217530816,0.02910830674727186,0.01052,2555.8355459789395,2553.445153254675,0.29153872054452445
2640,0.02809032462376129,0.029091274153796746,0.01056,2565.84154299327,2563.1990362339766,0.2904226663186726
2650,0.02798206046601647,0.029064884134811262,0.0106,2575.8475397650564,2572.97805704275,0.28931503514358187
2660,0.02787461041567744,0.029023727594269137,0.01064,2585.853536294298,2582.796884599244,0.28821573202243916
2670,0.027767965325470316,0.028993263471303668,0.01068,2595.8595325809943,2592.587986531619,0.28712466338160464
2680,0.027662116184647017,0.028989423359900256,0.01072,2605.865528625146,2602.3083453954673,0.28604173704405994
2690,0.02755705411644878,0.02896186400803463,0.01076,2615.871524426753,2612.092585818387,0.2849668622034487
2700,0.027452770375624047,0.028950304261276903,0.0108,2625.877519985815,2621.8341784945524,0.28389994939869373
2710,0.027349256346002805,0.028918015577696056,0.01084,2635.8835153023324,2631.6321777844437,0.28284091048917687
2720,0.027246503538123412,0.028888029171628707,0.01088,2645.8895103763043,2641.42456065317,0.2817896586304653
2730,0.027144503586911454,0.028875208026124626,0.01092,2655.8955052077317,2651.1706820886798,0.2807461082505721
2740,0.02704324824941088,0.0288365501188847,0.01096,2665.901499796614,2660.987852674256,0.27971017502673656
2750,0.02694272940256269,0.02880861940357268,0.011,2675.9074941429526,2670.776296640175,0.27868177586271065
2760,0.026842939041034367,0.028784553887046545,0.01104,2685.913488246745,2680.5546312717515,0.2776608288665401
2770,0.026743869275092546,0.028769700937142748,0.01108,2695.9194821079936,2690.3079284041146,0.2766472533288256
2780,0.026645512328526192,0.02874597995144495,0.01112,2705.925475726697,2700.086175734983,0.27564096970145435
2790,0.026547860536610672,0.028730477840460927,0.01116,2715.931469102856,2709.841966825114,0.2746418995767883
2800,0.026450906344117748,0.028707472268932048,0.0112,2725.9374622364703,2719.6190776469903,0.2736499656672985
2810,0.026354642303366586,0.028670807826242272,0.01124,2735.94345512754,2729.435030008259,0.27266509178563414
2820,0.026259061072317708,0.02863476328589784,0.01128,2745.949447776064,2739.249967533768,0.2716872028251164
2830,0.026164155412705236,0.028587414408076182,0.01132,2755.955440182044,2749.0976172251444,0.2707162247406447
2840,0.026069918188211177,0.028527132037546657,0.01136,2765.9614323454803,2758.9829450133675,0.26975208453000726
2850,0.025976342362677027,0.028452254160674623,0.0114,2775.9674242663705,2768.9110756420773,0.2687947102155849
2860,0.025883420998350986,0.02839898762495529,0.01144,2785.973415944716,2778.778895392628,0.26784403082643815
2870,0.025791147254175285,0.028318704631878546,0.01148,2795.979407380517,2788.7253177065086,0.26689997638076984
2880,0.02569951438410622,0.02822970154524174,0.01152,2805.985398573774,2798.698459549704,0.265962477868752
2890,0.025608515735472185,0.028145507844655023,0.01156,2815.9913895244854,2808.659482328947,0.26503146723571
2900,0.025518144747361006,0.02802783150683385,0.0116,2825.997380232653,2818.719288630182,0.2641068773656545
2910,0.02542839494904626,0.027872001147406646,0.01164,2836.0033706982754,2828.8924766610467,0.26318864206515274
2920,0.025339259958440698,0.0276125689610755,0.01168,2846.009360921353,2839.3712986336595,0.26227669604753107
2930,0.025250733480584674,0.027193509128635694,0.01172,2856.015350901887,2850.3230182530974,0.2613709749174017
2940,0.025162809306164886,0.026585793351462127,0.01176,2866.0213406398752,2861.8377675467013,0.2604714151555045
2950,0.025075481310061334,0.02564700433901866,0.0118,2876.027330135319,2874.341337199895,0.2595779541038575
2960,0.024988743449926066,0.024248471795536606,0.01184,2886.033319388219,2888.2245234852116,0.258690529951208
2970,0.02490258976478986,0.022117200385119065,0.01188,2896.039308398574,2904.3119148561964,0.2578090817187784
2980,0.02481701437369665,0.020072069161882086,0.01192,2906.045297166384,2920.1852338975914,0.2569335492462981
