o_GT,Error_GT,Error_measured,lambda,o_predicted,o_measured,s_incorrect
160,-0.2193182904648868,-0.30419640056994873,0.0026666666666666666,195.0909264743819,208.6714240911918,3.873786244044922
170,-0.20634825083041286,-0.20959366339663946,0.0028333333333333335,205.07920264117018,205.6309227774287,3.645307187499335
180,-0.1948193375866443,-0.20167628394701592,0.003,215.06748076559597,216.30173111046287,3.4422146927921458
190,-0.1845040044613681,-0.1884879051607971,0.0031666666666666666,225.05576084765994,225.81270198055145,3.260500355422556
200,-0.1752202144368131,-0.1798227040683993,0.0033333333333333335,235.04404288736262,235.96454081367986,3.0969574517899248
210,-0.16682060421287886,-0.17147681627910782,0.0035,245.03232688470456,246.01013141861264,2.9489900627889725
220,-0.159184603816756,-0.16440267892259766,0.0036666666666666666,255.02061283968632,256.1685893629715,2.8144742546062886
230,-0.15221261196655908,-0.16079280336457313,0.003833333333333333,265.0089007523086,266.9823447738518,2.691655473222099
240,-0.14582162759404912,-0.15398898307892447,0.004,274.9971906225718,276.9573559389419,2.5790715902865924
250,-0.13994192980190634,-0.1468145435889403,0.004166666666666667,284.9854824504766,286.7036358972351,2.475494417985926
260,-0.1345145239847061,-0.14023337738722783,0.004333333333333333,294.9737762360236,296.46067812067923,2.3798847204776186
270,-0.1294891554785676,-0.13794353592261296,0.0045,304.96207197921325,307.2447546991055,2.2913572227847414
280,-0.12482274885730789,-0.13381344691123007,0.004666666666666667,314.9503696800462,317.4677651351444,2.2091531177842127
290,-0.12047817013283842,-0.13405091711594477,0.004833333333333334,324.93866933852314,328.874765963624,2.1326182614044096
300,-0.11642323651548167,-0.13088515383750537,0.005,334.9269709546445,339.2655461512516,2.0611857287832605
310,-0.11262991783358342,-0.1257671228235944,0.005166666666666667,344.91527452841086,348.98780807531426,1.9943617466537984
320,-0.10907368768694639,-0.12036387391125558,0.005333333333333333,354.90358005982284,358.5164396516018,1.9317142634074276
330,-0.10573299257236689,-0.11932684329641081,0.0055,364.8918875488811,369.37785828781557,1.8728635973275032
340,-0.10258881469290018,-0.11726678535684414,0.005666666666666667,374.88019699558606,379.870707021327,1.8174747351346336
350,-0.09962430971410932,-0.11585956293485115,0.005833333333333334,384.86850839993826,390.5508470271979,1.7652509507813565
360,-0.09682450489427338,-0.11718671867846919,0.006,394.8568217619384,402.1872187242489,1.7159284877810392
370,-0.09417604616645162,-0.11392221559634802,0.006166666666666667,404.8451370815871,412.15121977064877,1.6692721038618201
380,-0.09166698515496018,-0.11221385673831935,0.006333333333333333,414.83345435888486,422.64126556056135,1.6250713190962442
390,-0.08928659895854418,-0.10974519406695188,0.0065,424.82177359383223,432.80062568611123,1.5831372412417233
400,-0.08702523696607471,-0.10890611781230831,0.006666666666666667,434.8100947864299,443.5624471249233,1.5432998672799285
410,-0.0848741900894592,-0.10587783303529391,0.006833333333333334,444.7984179366783,453.4099115444705,1.5054057798528555
420,-0.08282557867756674,-0.10452473889034074,0.007,454.78674304457803,463.9003903339431,1.4693161727794524
430,-0.08087225607006925,-0.10248513464003421,0.007166666666666667,464.7750701101298,474.0686078952147,1.4349051520815566
440,-0.07900772530303173,-0.10057856986540514,0.007333333333333333,474.76339913333396,484.25457074077826,1.4020582686881107
450,-0.0772260669204248,-0.09849610341468987,0.0075,484.75173011419116,494.32324653661044,1.370671246778818
460,-0.0755218762015267,-0.09651573013313539,0.007666666666666666,494.7400630527023,504.3972358612423,1.340648877996016
470,-0.0738902084018455,-0.09438917616265913,0.007833333333333333,504.7283979488674,514.3629127964498,1.311904056820993
480,-0.07232653083893202,-0.09228115456144034,0.008,514.7167348026874,524.2949541894914,1.2843569365282625
490,-0.07082668084523035,-0.09026252291558319,0.008166666666666666,524.7050736141629,534.2286362286358,1.2579341884923783
500,-0.06938682876658868,-0.08830255743381075,0.008333333333333333,534.6934143832943,544.1512787169054,1.2325683503779292
510,-0.06800344531388695,-0.08627777242750333,0.0085,544.6817571100823,554.0016639380267,1.2081972510130665
520,-0.06667327268178334,-0.0841697688317949,0.008666666666666666,554.6701017945273,563.7682797925333,1.1847635016237756
530,-0.06539329893703776,-0.08198389943772974,0.008833333333333334,564.65844843663,573.4514667019968,1.1622140446642693
540,-0.064160735252576,-0.07975242735490472,0.009,574.646797036391,583.0663107716485,1.1404997527773368
550,-0.06297299562511088,-0.07752870614860574,0.009166666666666667,584.635147593811,592.6407883817332,1.119575071504475
560,-0.06182767876587535,-0.07538110254049468,0.009333333333333334,594.6235001088902,602.213417422677,1.0993977002770725
570,-0.06072255189759596,-0.0734162616701327,0.0095,604.6118545816297,611.8472691519756,1.0799283069874734
580,-0.05965553622763705,-0.07174351085001301,0.009666666666666667,614.6002110120295,621.6112362930076,1.061130272087171
590,-0.05862469389845844,-0.07045695366560024,0.009833333333333333,624.5885694000905,631.5696026627041,1.0429694587089129
600,-0.05762821624302205,-0.06956501628913885,0.01,634.5769297458132,641.7390097734833,1.0254140057765964
610,-0.05666441319540727,-0.0690630936563286,0.010166666666666666,644.5652920491984,652.1284871303604,1.0084341414650118
620,-0.05573170372620354,-0.06886809114764564,0.010333333333333333,654.5536563102462,662.6982165115403,0.9920020147118653
630,-0.0548286071888215,-0.06884221108176256,0.0105,664.5420225289575,673.3705929815104,0.9760915427762792
640,-0.05395373547708289,-0.06883422514769624,0.010666666666666666,674.530390705333,684.0539040945256,0.96067827308868
650,-0.05310578590672794,-0.06874132559478242,0.010833333333333334,684.5187608393732,694.6818616366086,0.9457392578530069
660,-0.05228353474405773,-0.06845869737564643,0.011,694.5071329310781,705.1827402679266,0.931252940048718
670,-0.05148583131410336,-0.06795653820024841,0.011166666666666667,704.4955069804492,715.5308805941664,0.9171990496415718
680,-0.05071159262865659,-0.06723837168355544,0.011333333333333334,714.4838829874865,725.7220927448177,0.903558508952283
690,-0.04995979848143548,-0.06632064262090102,0.0115,724.4722609521905,735.7612434084217,0.8903133462539882
700,-0.04922948696366055,-0.06525781746827972,0.011666666666666667,734.4606408745624,745.6804722277958,0.8774466167756445
710,-0.04851975035859432,-0.06408127676254528,0.011833333333333333,744.449022754602,755.4977065014072,0.8649423303811978
720,-0.047829731378209,-0.06280860920710232,0.012,754.4374065923105,765.2221986291137,0.8527853852754858
730,-0.047158619709161534,-0.06147622770358093,0.012166666666666666,764.4257923876879,774.8776462236141,0.8409615071589714
740,-0.04650564883883135,-0.06014481350671227,0.012333333333333333,774.4141801407352,784.5071619949671,0.8294571933158763
750,-0.04587009313527066,-0.0588486034958299,0.0125,784.402569851453,794.1364526218724,0.8182596611752636
760,-0.045251265157686536,-0.057628940630928285,0.012666666666666666,794.3909615198418,803.7979948795055,0.8073568009330881
770,-0.04464851317649562,-0.056459542754965966,0.012833333333333334,804.3793551459016,813.4738479213238,0.7967371318660343
780,-0.04406121888414593,-0.0553450388621802,0.013,814.3677507296338,823.1691303125006,0.7863897620058279
790,-0.04348879527979583,-0.05430853497879111,0.013166666666666667,824.3561482710387,832.903742633245,0.7763043508762596
800,-0.04293068471264618,-0.05334328535484858,0.013333333333333334,834.344547770117,842.6746282838789,0.7664710750249304
810,-0.042386357070208505,-0.052453839882344505,0.0135,844.3329492268689,852.487610304699,0.7568805961082021
820,-0.041855308099140794,-0.05161927756583797,0.013666666666666667,854.3213526412954,862.3278076039871,0.7475240313113939
830,-0.0413370578474658,-0.050880947257404927,0.013833333333333333,864.3097580133966,872.2311862236461,0.7383929259072799
840,-0.0408311492180636,-0.050247420652769256,0.014,874.2981653431734,882.2078333483262,0.7294792277746924
850,-0.04033714662426612,-0.04970259877733858,0.014166666666666666,884.2865746306262,892.2472089607378,0.7207752637158129
860,-0.039854634739251146,-0.04924497116540888,0.014333333333333333,894.274985875756,902.3506752022516,0.7122737174257446
870,-0.03938321733168148,-0.04884428565836729,0.0145,904.2633990785629,912.4945285227795,0.7039676089814249
880,-0.03892251618073575,-0.04844769287696341,0.014666666666666666,914.2518142390475,922.6339697317278,0.6958502757290216
890,-0.03847217006428161,-0.04808536789074549,0.014833333333333334,924.2402313572106,932.7959774227635,0.6879153544598183
900,-0.03803183381450317,-0.04772784586488658,0.015,934.2286504330528,942.9550612783979,0.6801567647743751
910,-0.0376011774357961,-0.04735071922203003,0.015166666666666667,944.2170714665745,953.0891544920473,0.6725686935435571
920,-0.03717988528019157,-0.0469650971382223,0.015333333333333332,954.2054944577762,963.2078893671645,0.6651455803829742
930,-0.03676765527597718,-0.04654972911185718,0.0155,964.1939194066588,973.2912480740272,0.6578821040645544
940,-0.03636419820555624,-0.046087595117664616,0.015666666666666666,974.1823463132229,983.3223394106047,0.6507731697954627
950,-0.03596923702891409,-0.04558466236163045,0.015833333333333335,984.1707751774684,993.3054292435489,0.6438138973004571
960,-0.03558250624937133,-0.045032280128566526,0.016,994.1592059993965,1003.2309889234239,0.6369996096490975
970,-0.03520375131856488,-0.0444558154266726,0.016166666666666666,1004.1476387790079,1013.1221409638724,0.6303258227740545
980,-0.034832728077859844,-0.0438382181342206,0.01633333333333333,1014.1360735163026,1022.9614537715362,0.6237882356311554
990,-0.03446920223361781,-0.043172746248257746,0.0165,1024.1245102112816,1032.7410187857752,0.6173827209557895
1000,-0.03411294886394535,-0.04250031431555408,0.016666666666666666,1034.1129488639453,1042.500314315554,0.6111053165739309
1010,-0.033763751954746894,-0.041829451722045774,0.016833333333333332,1044.1013894742944,1052.2477462392662,0.6049522172293368
1020,-0.03342140396306778,-0.041156505929592746,0.017,1054.0898320423291,1061.9796360481846,0.5989197668914996
1030,-0.03308570540587434,-0.04048007232992276,0.017166666666666667,1064.0782765680506,1071.6944744998204,0.5930044515116786
1040,-0.03275646447255685,-0.03979877694821119,0.017333333333333333,1074.0667230514591,1081.3907280261396,0.5872028921968541
1050,-0.032433496659576205,-0.03914489580886268,0.0175,1084.055171492555,1091.1021405993058,0.5815118387737406
1060,-0.0321166244257921,-0.03850579935769221,0.017666666666666667,1094.0436218913396,1100.8161473191537,0.5759281637171008
1070,-0.031805676867114475,-0.03789330035630041,0.017833333333333333,1104.0320742478125,1110.5458313812414,0.570448856418529
1080,-0.03150048940923608,-0.03736277310236081,0.018,1114.020528561975,1120.3517949505497,0.5650710177736347
1090,-0.031200903517272543,-0.03685194618148145,0.018166666666666668,1124.008984833827,1130.1686213378148,0.5597918550671788
1100,-0.030906766421245596,-0.036374718947533684,0.018333333333333333,1133.9974430633702,1140.012190842287,0.5546086771372037
1110,-0.030617930856400202,-0.03597522838036364,0.0185,1143.9859032506042,1149.9325035022036,0.5495188898005616
1120,-0.030334254817437057,-0.03563188193992955,0.018666666666666668,1153.9743653955295,1159.907707772721,0.5445199915235025
1130,-0.030055601325794122,-0.03535903723233095,0.018833333333333334,1163.9628294981474,1169.955712072534,0.5396095693221434
1140,-0.029781838209173697,-0.035177545095175525,0.019,1173.951295558458,1180.1024014085,0.534785294878703
1150,-0.02951283789257559,-0.03505849239662142,0.019166666666666665,1183.939763576462,1190.3172662561146,0.5300449208603658
1160,-0.02924847720013794,-0.035002062973447816,0.019333333333333334,1193.92823355216,1200.6023930491995,0.5253862774285518
1170,-0.028988637167138682,-0.03499422593288506,0.0195,1203.9167054855523,1210.9432443414755,0.5208072689271961
1180,-0.02873320286155935,-0.03504062602462647,0.019666666666666666,1213.90517937664,1221.3479387090592,0.5163058707394226
1190,-0.028482063214641275,-0.035141312982046896,0.019833333333333335,1223.8936552254231,1231.8181624486358,0.5118801263027042
1200,-0.02823511085991868,-0.03530583143520649,0.02,1233.8821330319024,1242.3669977222478,0.5075281442732645
1210,-0.02799224198023044,-0.035501950458899784,0.020166666666666666,1243.8706127960788,1252.9573600552687,0.5032480958310882
1220,-0.027753356162256416,-0.03572645664709618,0.02033333333333333,1253.8590945179528,1263.5862771094573,0.4990382121174721
1230,-0.027518356258150103,-0.035985251399421304,0.0205,1263.8475781975246,1274.2618592212882,0.49489678179757346
1240,-0.027287148253866866,-0.03625123043577787,0.020666666666666667,1273.836063834795,1284.9515257403646,0.4908221487408989
1250,-0.027059641143811496,-0.036509485658431186,0.020833333333333332,1283.8245514297644,1295.636857073039,0.4868127098131312
1260,-0.0268357468114553,-0.036736964569435156,0.021,1293.8130409824337,1306.2885753574883,0.4828669127731057
1270,-0.026615379915592784,-0.03696303315488937,0.021166666666666667,1303.8015324928028,1316.9430521067095,0.47898325426914384
1280,-0.026398457781932016,-0.037166395693267164,0.021333333333333333,1313.790025960873,1327.572986487382,0.47516027792930626
1290,-0.026184900299724825,-0.03737783097928157,0.0215,1323.778521386645,1338.2174019632732,0.47139657254047385
1300,-0.025974629823168085,-0.037540039097054535,0.021666666666666667,1333.7670187701185,1348.802050826171,0.4676907703114697
1310,-0.025767571077324452,-0.037662072255908306,0.021833333333333333,1343.755518111295,1359.3373146552399,0.46404154521573276
1320,-0.025563651068314253,-0.03772519975992374,0.022,1353.7440194101748,1369.7972636830993,0.46044761140932516
1330,-0.02536279899756213,-0.03774558815168785,0.022166666666666668,1363.7325226667576,1380.2016322417448,0.4569077217203072
1340,-0.025164946179884552,-0.037705397707888194,0.022333333333333334,1373.7210278810453,1390.5252329285702,0.45342066620575217
1350,-0.024970025965213034,-0.03762622344182495,0.0225,1383.7095350530376,1400.7954016464637,0.44998527077289424
1360,-0.024777973663776386,-0.0375097906562908,0.02266666666666667,1393.6980441827359,1411.0133152925555,0.4466003958611078
1370,-0.024588726474554033,-0.03734048756607419,0.022833333333333334,1403.686555270139,1421.1564679655216,0.4432649351816102
1380,-0.02440222341684797,-0.03715211539227796,0.023,1413.6750683152502,1431.2699192413436,0.43997781451196033
1390,-0.02421840526479716,-0.03695730433836462,0.023166666666666665,1423.663583318068,1441.3706530303268,0.4367379905425932
1400,-0.024037214484709628,-0.036718953061142166,0.023333333333333334,1433.6521002785935,1451.406534285599,0.43354444977278844
1410,-0.023858595175054734,-0.036413743024163586,0.0235,1443.6406191968272,1461.3433776640707,0.4303962074536193
1420,-0.023682493008992986,-0.036053360506359954,0.023666666666666666,1453.62914007277,1471.1957719190311,0.4272923065755651
1430,-0.02350885517931646,-0.035650915727231836,0.023833333333333335,1463.6176629064225,1480.9808094899415,0.4242318168986026
1440,-0.023337630345683952,-0.03523642935510243,0.024,1473.606187697785,1490.7404582713475,0.4212138340227091
1450,-0.02316876858403969,-0.03481233428658878,0.024166666666666666,1483.5947144468576,1500.4778847155537,0.41823747849682796
1460,-0.023002221338110883,-0.034351513930566666,0.024333333333333332,1493.583243153642,1510.1532103386273,0.4153018949644519
1470,-0.022837941372882923,-0.03385378393979291,0.0245,1503.571773818138,1519.7650623914956,0.41240625134408104
1480,-0.022675882729963848,-0.03335162356960735,0.024666666666666667,1513.5603064403465,1529.3604028830189,0.4095497380429044
1490,-0.02251600068474356,-0.03281353076975289,0.024833333333333332,1523.548841020268,1538.8921608469318,0.40673156720214615
1500,-0.022358251705268534,-0.03227463633593819,0.025,1533.5373775579028,1548.4119545039073,0.40395097197259805
1510,-0.022202593412749588,-0.03171075371439824,0.025166666666666667,1543.5259160532519,1557.8832381087414,0.401207205818938
1520,-0.02204898454362852,-0.031164607422025512,0.025333333333333333,1553.5144565063154,1567.3702032814788,0.39849954185151043
1530,-0.021897384913133578,-0.030603915584674575,0.0255,1563.5029989170944,1576.823990844552,0.3958272721843105
1540,-0.0217477553802527,-0.030037206418585385,0.025666666666666667,1573.4915432855892,1586.2572978846215,0.39318970731798336
1550,-0.021600057814064332,-0.029462662302628725,0.025833333333333333,1583.4800896117997,1595.6671265690745,0.39058617554670566
1560,-0.021454255061364298,-0.028883682779170763,0.026,1593.4686378957283,1605.0585451355064,0.3880160223878802
1570,-0.021310310915524718,-0.028305120164052035,0.026166666666666668,1603.4571881373738,1614.4390386575617,0.3854786100336257
1580,-0.021168190086542624,-0.02771400682869643,0.026333333333333334,1613.4457403367373,1623.7881307893404,0.382973316823096
1590,-0.021027858172213875,-0.027131709578871354,0.0265,1623.43429449382,1633.1394182304055,0.3804995367347113
1600,-0.02088928163038858,-0.026558390677632673,0.02666666666666667,1633.4228506086217,1642.4934250842123,0.3780566788974315
1610,-0.020752427752263176,-0.02601420698017436,0.026833333333333334,1643.4114086811437,1651.8828732380807,0.37564416712024207
1620,-0.02061726463665775,-0.025493184159890662,0.027,1653.3999687113856,1661.2989583390229,0.3732614394390673
1630,-0.020483761165244693,-0.025002429671447574,0.027166666666666665,1663.3885306993488,1670.7539603644595,0.37090794768036095
1640,-0.02035188697867902,-0.02452867984643684,0.027333333333333334,1673.3770946450336,1680.2270349481564,0.3685831570406632
1650,-0.02022161245360015,-0.02403085444205579,0.0275,1683.3656605484402,1689.650909829392,0.36628654568144664
1660,-0.02009290868046382,-0.023550410902984126,0.027666666666666666,1693.35422840957,1699.0936820989536,0.3640176043386062
1670,-0.01996574744216927,-0.02309730344525818,0.027833333333333335,1703.3427982284227,1708.5724967535812,0.3617758359459794
1680,-0.019840101193452007,-0.022645387829984726,0.028,1713.3313700049994,1718.0442515543743,0.35956075527231246
1690,-0.019715943041006195,-0.022227882377273328,0.028166666666666666,1723.3199437393005,1727.565121217592,0.357371888571115
1700,-0.019593246724309798,-0.0218172041806295,0.028333333333333332,1733.3085194313267,1737.0892471070702,0.35520877324287276
1710,-0.019471986597121998,-0.021444596949656405,0.0285,1743.2970970810786,1746.6702607839125,0.3530709575091128
1720,-0.01935213760962605,-0.02108789284956293,0.028666666666666667,1753.2856766885568,1756.2711757012482,0.3509580000978385
1730,-0.019233675291191587,-0.02073895779161452,0.028833333333333332,1763.2742582537614,1765.8783969794931,0.3488694699398738
1740,-0.019116575733732,-0.020407498369818495,0.029,1773.2628417766937,1775.5090471634842,0.34680494587567867
1750,-0.019000815575630572,-0.020104603820845245,0.029166666666666667,1783.2514272573535,1785.1830566864792,0.34476401637221726
1760,-0.0188863719862172,-0.019822888676745653,0.029333333333333333,1793.2400146957423,1794.8882840710723,0.34274627924947704
1770,-0.01877322265076811,-0.019572668765709945,0.0295,1803.2286040918596,1804.6436237153066,0.3407513414162593
1780,-0.018661345756015125,-0.019358866239405175,0.029666666666666668,1813.217195445707,1814.4587819061412,0.3387788186148754
1790,-0.018550719976136526,-0.019144231537808722,0.029833333333333333,1823.2057887572844,1824.2681744526776,0.33682833517440086
1800,-0.018441324459218245,-0.01893514678833766,0.03,1833.1943840265928,1834.0832642190078,0.3348995237721538
1810,-0.018333138814161622,-0.018734416234542802,0.030166666666666668,1843.1829812536325,1843.9092933845225,0.33299202520308074
1820,-0.018226143098024124,-0.018538489718403172,0.030333333333333334,1853.171580438404,1853.7400512874938,0.3311054881567448
1830,-0.01812031780377492,-0.018350478743719412,0.0305,1863.160181580908,1863.5813761010065,0.32923956900162554
1840,-0.018015643848448434,-0.018146569728796056,0.030666666666666665,1873.1487846811451,1873.3896883009847,0.32739393157645336
1850,-0.01791210256168425,-0.017950394063079845,0.030833333333333334,1883.1373897391159,1883.2082290166977,0.32556824698831
1860,-0.017809675674634956,-0.01775045923288346,0.031,1893.125996754821,1893.0158541731632,0.32376219341724344
1870,-0.01770834530923026,-0.017548771071093983,0.031166666666666665,1903.1146057282606,1902.8162019029457,0.3219754559271509
1880,-0.017608093967785312,-0.01736413911081276,0.03133333333333333,1913.1032166594364,1912.644581528328,0.3202077262826976
1890,-0.01750890452293531,-0.01717709313370193,0.0315,1923.0918295483477,1922.4647060226966,0.318458702772048
1900,-0.017410760207892388,-0.0170332215200331,0.03166666666666667,1933.0804443949955,1932.363120888063,0.31672809003519475
1910,-0.01731364460700549,-0.016870774792385832,0.03183333333333333,1943.0690611993805,1942.223179853457,0.3150155988976803
1920,-0.01721754164661604,-0.016698080661940652,0.032,1953.0576799615028,1952.060314870926,0.31332094620951495
1930,-0.017122435586198765,-0.016543548295173394,0.03216666666666667,1963.0463006813636,1961.9290482096847,0.3116438546891026
1940,-0.01702831100977483,-0.016373880667568057,0.03233333333333333,1973.0349233589632,1971.765328495082,0.30998405277199353
1950,-0.016935152817591073,-0.016189749724400522,0.0325,1983.0235479943026,1981.570011962581,0.30834127446429066
1960,-0.01684294621805221,-0.016011410217413296,0.03266666666666666,1993.0121745873823,1991.38236402613,0.3067152592005439
1970,-0.01675167671989935,-0.015824170194056544,0.03283333333333333,2003.0008031382017,2001.1736152822914,0.30510575170597226
1980,-0.016661330124627557,-0.015630394643281562,0.033,2012.9894336467626,2010.9481813936975,0.30351250186286094
1990,-0.01657189251912842,-0.015427898328177444,0.033166666666666664,2022.9780661130656,2020.701517673073,0.30193526458098696
2000,-0.016483350268555,-0.015228629550309961,0.03333333333333333,2032.96670053711,2030.45725910062,0.3003737996719317
2010,-0.01639569000940197,-0.015020028466808718,0.0335,2042.955336918898,2040.1902572182855,0.2988278717271456
2020,-0.016308898642786614,-0.014810244380618594,0.033666666666666664,2052.943975258429,2049.9166936488496,0.2972972499996347
2030,-0.016222963327933083,-0.014565364653921718,0.03383333333333333,2062.932615555704,2059.567690247461,0.2957817082891435
2040,-0.01613787147584532,-0.014303595339712876,0.034,2072.9212578107245,2069.1793344930143,0.294281024830716
2050,-0.01605361074316578,-0.014081941031295507,0.034166666666666665,2082.90990202349,2078.867979114156,0.29279498218651706
2060,-0.015970169026213756,-0.013897297134960213,0.034333333333333334,2092.8985481940003,2088.628432098018,0.2913233671408055
2070,-0.0158875344551972,-0.013724458552194733,0.0345,2102.887196322258,2098.409629203043,0.289865970597951
2080,-0.01580569538858732,-0.013568277959850022,0.034666666666666665,2112.8758464082616,2108.222018156488,0.2884225874833932
2090,-0.015724640407661878,-0.013439736444318411,0.034833333333333334,2122.8644984520133,2118.0890491686255,0.28699301664744364
2100,-0.015644358311196593,-0.01326934923955226,0.035,2132.853152453513,2127.8656334030597,0.2855770607718365
2110,-0.015564838110313322,-0.013137255621362809,0.035166666666666666,2142.841808412761,2137.7196093610755,0.28417452627893647
2120,-0.015486069023471022,-0.012987543716120691,0.035333333333333335,2152.8304663297586,2147.533592678176,0.2827852232435166
2130,-0.015408040471599117,-0.012818256738608253,0.0355,2162.819126204506,2157.3028868532356,0.2814089653070209
2140,-0.015330742073366037,-0.012679473681970475,0.035666666666666666,2172.8077880370033,2167.134073679417,0.28004556959423077
2150,-0.015254163640582108,-0.01254783228124663,0.035833333333333335,2182.7964518272515,2176.9778394046803,0.27869485663225735
2160,-0.015178295173728042,-0.012411006266733937,0.036,2192.7851175752526,2186.8077735361453,0.2773566502717836
2170,-0.015103126857605606,-0.012279131153367885,0.036166666666666666,2202.773785281004,2196.6457146028083,0.2760307776104847
2180,-0.01502864905711445,-0.012124593109028489,0.036333333333333336,2212.7624549445095,2206.431612977682,0.2747170689185556
2190,-0.014954852313135505,-0.011998351243717056,0.0365,2222.7511265657668,2216.2763892237404,0.2734153575662788
2200,-0.014881727338535959,-0.01186784416028538,0.03666666666666667,2232.739800144779,2226.109257152628,0.2721254799535681
2210,-0.014809265014274054,-0.011726432083608773,0.036833333333333336,2242.7284756815457,2235.9154149047754,0.27084727544142495
2220,-0.014737456385615702,-0.011598065988492053,0.037,2252.717153176067,2245.7477064944524,0.26958058628524706
2230,-0.014666292658449848,-0.01149720626955638,0.03716666666666667,2262.705832628343,2255.6387699811107,0.26832525756993175
2240,-0.014595765195703944,-0.01142841688003691,0.037333333333333336,2272.694514038377,2265.5996538112827,0.26708113714671744
2250,-0.014525865513851386,-0.011342859657645223,0.0375,2282.6831974061656,2275.5214342297018,0.26584807557170953
2260,-0.014456585279518886,-0.01125836955606532,0.03766666666666667,2292.6718827317127,2285.4439151967076,0.26462592604603796
2270,-0.014387916306174947,-0.011197431475976585,0.03783333333333333,2302.660570015017,2295.418169450467,0.263414544357597
2280,-0.014319850550912418,-0.011161652801956735,0.038,2312.6492592560803,2305.4485683884614,0.26221378882431773
2290,-0.01425238011131122,-0.011128261789617165,0.03816666666666667,2322.6379504549027,2315.4837194982233,0.2610235202389274
2300,-0.014185497222384267,-0.011100912860866511,0.03833333333333333,2332.626643611484,2325.532099579993,0.2598436018151492
2310,-0.014119194253604308,-0.011061750510621351,0.0385,2342.615338725826,2335.5526436795353,0.25867389913529976
2320,-0.014053463706003726,-0.011026753797910393,0.03866666666666667,2352.6040357979286,2345.582068811152,0.2575142800992421
2330,-0.013988298209352943,-0.010998917843498969,0.03883333333333333,2362.5927348277924,2355.6274785753526,0.2563646148746528
2340,-0.013923690519409592,-0.010969230477658673,0.039,2372.5814358154184,2365.6679993177213,0.25522477584856423
2350,-0.013859633515236598,-0.010951190154288618,0.03916666666666667,2382.570138760806,2375.7352968625783,0.25409463758014456
2360,-0.013796120196592078,-0.010916547977105931,0.03933333333333333,2392.5588436639573,2385.76305322597,0.25297407675467753
2370,-0.013733143681380738,-0.010917633418122304,0.0395,2402.5475505248723,2395.87479120095,0.2518629721387082
2380,-0.013670697203172747,-0.010922783295353181,0.03966666666666667,2412.536259343551,2405.9962242429406,0.25076120453631834
2390,-0.013608774108784532,-0.010921049737330444,0.03983333333333333,2422.524970119995,2416.1013088722198,0.24966865674650082
2400,-0.013547367855918159,-0.010920716781947325,0.04,2432.5136828542036,2426.2097202766736,0.24858521352159849
2410,-0.0134864720108623,-0.010948858161975702,0.04016666666666667,2442.502397546178,2436.3867481703614,0.24751076152677828
2420,-0.013426080246248159,-0.01099547185868717,0.04033333333333333,2452.4911141959205,2446.609041898023,0.2464451893005103
2430,-0.013366186338859281,-0.01105365143131043,0.0405,2462.479832803428,2456.8603729780843,0.24538838721602235
2440,-0.013306784167501579,-0.011104133957326958,0.04066666666666666,2472.468553368704,2467.094086855878,0.24434024744370234
2450,-0.013247867710917712,-0.011175326182431547,0.04083333333333333,2482.4572758917484,2477.3795491469573,0.24330066391442162
2460,-0.013189431045756782,-0.01122577866621661,0.041,2492.4460003725617,2487.615415518893,0.24226953228375295
2470,-0.013131468344592967,-0.011286910450407295,0.041166666666666664,2502.4347268111446,2497.878668812506,0.2412467498970573
2480,-0.013073973873990634,-0.011328134805078096,0.04133333333333333,2512.4234552074968,2508.0937743165937,0.2402322157554157
2490,-0.013016941992618448,-0.01138442994900171,0.0415,2522.41218556162,2518.3472305730143,0.2392258304823816
2500,-0.012960367149405466,-0.011460716098326884,0.041666666666666664,2532.4009178735137,2528.651790245817,0.2382274962915318
2510,-0.01290424388174475,-0.011539417525573553,0.041833333333333333,2542.3896521431793,2538.9639379891896,0.23723711695479238
2520,-0.012848566813736506,-0.011609334999763906,0.042,2552.378388370616,2549.255524199405,0.23625459777151916
2530,-0.012793330654477204,-0.011710023141753295,0.042166666666666665,2562.3671265558273,2559.626358548636,0.2352798455383113
2540,-0.01273853019638248,-0.01180177465499604,0.042333333333333334,2572.3558666988115,2569.97650762369,0.23431276851953814
2550,-0.01268416031355681,-0.01191136328591229,0.0425,2582.34460879957,2580.3739763790763,0.2333532764185593
2560,-0.012630215960196266,-0.012051486939118483,0.042666666666666665,2592.3333528581024,2590.8518065641433,0.23240128034961935
2570,-0.012576692169031001,-0.012184218150548575,0.042833333333333334,2602.3220988744097,2601.31344064691,0.23145669281039877
2580,-0.012523584049803284,-0.01235537191477334,0.043,2612.3108468484925,2611.876859540115,0.23051942765520317
2590,-0.012470886787780949,-0.012508053038239278,0.043166666666666666,2622.2995967803527,2622.3958573690397,0.22958940006877354
2600,-0.01241859564230341,-0.01265031129819975,0.043333333333333335,2632.288348669989,2632.8908093753193,0.2286665265407011
2610,-0.012366705945364926,-0.012777313101847623,0.0435,2642.2771025174025,2643.3487871958223,0.22775072484042994
2620,-0.012315213100226848,-0.012897299147798132,0.043666666666666666,2652.2658583225943,2653.790923767231,0.22684191399283263
2630,-0.012264112580062556,-0.013025101741504149,0.043833333333333335,2662.2546160855645,2664.256017580156,0.2259400142543425
2640,-0.012213399926634056,-0.013168951089432375,0.044,2672.243375806314,2674.7660308761015,0.22504494708962883
2650,-0.012163070748997511,-0.01329917765047026,0.04416666666666667,2682.2321374848434,2685.242820773746,0.2241566351487998
2660,-0.012113120722237978,-0.013468145047071754,0.044333333333333336,2692.220901121153,2695.825265825211,0.22327500224511984
2670,-0.01206354558623358,-0.013642260600177286,0.0445,2702.2096667152437,2706.4248358024734,0.22239997333322772
2680,-0.012014341144445844,-0.013811297952667816,0.04466666666666667,2712.198434267115,2717.0142785131497,0.22153147448784233
2690,-0.011965503262739034,-0.014006024813725365,0.044833333333333336,2722.187203776768,2727.6762067489212,0.22066943288294305
2700,-0.011917027868224203,-0.01421069544248473,0.045,2732.1759752442053,2738.3688776947088,0.21981377677141337
2710,-0.011868910948127503,-0.014444780472944821,0.04516666666666667,2742.1647486694255,2749.1453550816805,0.21896443546513483
2720,-0.011821148548686806,-0.014716483303175711,0.04533333333333334,2752.153524052428,2760.028834584638,0.2181213393155201
2730,-0.011773736774071723,-0.014972464595965513,0.0455,2762.142301393216,2770.874828346986,0.217284419694474
2740,-0.01172667178532431,-0.015236376673413918,0.04566666666666667,2772.1310806917886,2781.747672085154,0.2164536089757713
2750,-0.011679949799326343,-0.015504889811911528,0.04583333333333333,2782.1198619481474,2792.6384469827567,0.21562884051684095
2760,-0.011633567087786408,-0.015787801913146545,0.046,2792.1086451622905,2803.5743332802845,0.21481004864094638
2770,-0.011587519976252875,-0.01606887983747951,0.04616666666666667,2802.0974303342205,2814.5107971498182,0.2139971686197514
2780,-0.011541804843143594,-0.016356965057356017,0.04633333333333333,2812.086217463939,2825.4723628594497,0.21319013665626282
2790,-0.011496418118797114,-0.01668773591681443,0.0465,2822.075006551444,2836.5587832079123,0.2123888898681398
2800,-0.01145135628454958,-0.0170158036436432,0.04666666666666667,2832.063797596739,2847.644250202201,0.21159336627136047
2810,-0.011406615871822613,-0.017354287910792795,0.04683333333333333,2842.0525905998215,2858.7655490293278,0.21080350476423795
2820,-0.011362193461239142,-0.017675073342821854,0.047,2852.0413855606944,2869.8437068267576,0.21001924511177586
2830,-0.011318085681751227,-0.017984792764160734,0.04716666666666667,2862.030182479356,2880.896963522575,0.20924052793035594
2840,-0.011274289209792078,-0.01829606077507231,0.04733333333333333,2872.0189813558095,2891.9608126012054,0.2084672946727488
2850,-0.01123080076844002,-0.018609032447933906,0.0475,2882.007782190054,2903.0357424766116,0.20769948761344068
2860,-0.01118761712660493,-0.018948360325848436,0.04766666666666667,2891.99658498209,2914.1923105319265,0.20693704983426758
2870,-0.011144735098229296,-0.019152454805599496,0.04783333333333333,2901.985389731918,2924.9675452920706,0.20617992521035006
2880,-0.011102151541507036,-0.019350787251875248,0.048,2911.9741964395403,2935.7302672854007,0.2054280583963208
2890,-0.01105986335811602,-0.019552649283761613,0.04816666666666667,2921.9630051049553,2946.507156430071,0.20468139481283848
2900,-0.011017867492470534,-0.019752494531808537,0.04833333333333333,2931.9518157281645,2957.2822341422448,0.2039398806333802
2910,-0.010976160930985725,-0.01993913950762728,0.0485,2941.9406283091685,2968.0228959671954,0.2032034627713065
2920,-0.01093474070135873,-0.020170104960229703,0.048666666666666664,2951.9294428479675,2978.8967064838707,0.20247208886719217
2940,-0.010852747550664663,-0.02062351645393308,0.049,2971.907077798954,3000.6331383745633,0.20102426705700677
2950,-0.010812168885133082,-0.02067183370996938,0.049166666666666664,2981.8958982111426,3010.9819094444097,0.20030771795772853
2960,-0.010771865061192053,-0.02091540223738508,0.04933333333333333,2991.8847205811285,3021.90959062266,0.19959601040641842
2970,-0.01073183330266389,-0.020997855923304436,0.0495,3001.8735449089118,3032.363632092214,0.19888909549855144
2980,-0.010692070870635957,-0.02052164074512305,0.049666666666666665,3011.862371194495,3041.1544894204667,0.19818692498603932
2990,-0.01065257506283507,-0.02061454461448202,0.049833333333333334,3021.851199437877,3051.6374883973012,0.197489451266253
