-70.219,0.30775,0.24722,0.17566,0.10213
-70.169,0.30635,0.24612,0.17491,0.10173
-70.119,0.30494,0.24502,0.17416,0.10133
-70.069,0.30354,0.24392,0.17342,0.10093
-70.019,0.30214,0.24283,0.17267,0.10053
-69.969,0.30073,0.24173,0.17192,0.10013
-69.919,0.29933,0.24063,0.17117,0.099735
-69.869,0.29792,0.23953,0.17042,0.099336
-69.819,0.29652,0.23843,0.16967,0.098937
-69.769,0.29511,0.23733,0.16892,0.098538
-69.719,0.29371,0.23623,0.16817,0.09814
-69.669,0.2923,0.23513,0.16742,0.097741
-69.619,0.2909,0.23403,0.16667,0.097342
-69.569,0.28949,0.23293,0.16592,0.096944
-69.519,0.28809,0.23184,0.16517,0.096545
-69.469,0.28669,0.23074,0.16442,0.096146
-69.419,0.28528,0.22964,0.16368,0.095747
-69.369,0.28388,0.22854,0.16293,0.095349
-69.319,0.28247,0.22744,0.16218,0.09495
-69.269,0.28107,0.22634,0.16143,0.094551
-69.219,0.27966,0.22524,0.16068,0.094153
-69.169,0.27826,0.22414,0.15993,0.093754
-69.119,0.27685,0.22304,0.15918,0.093355
-69.069,0.27545,0.22194,0.15843,0.092957
-69.019,0.27404,0.22085,0.15768,0.092558
-68.969,0.27264,0.21975,0.15693,0.09216
-68.919,0.27124,0.21865,0.15618,0.091761
-68.869,0.26983,0.21755,0.15543,0.091362
-68.819,0.26843,0.21645,0.15469,0.090964
-68.769,0.26702,0.21535,0.15394,0.090565
-68.719,0.26562,0.21425,0.15319,0.090166
-68.669,0.26421,0.21315,0.15244,0.089768
-68.619,0.26281,0.21205,0.15169,0.089369
-68.569,0.2614,0.21095,0.15094,0.088971
-68.519,0.26,0.20986,0.15019,0.088572
-68.469,0.2586,0.20876,0.14944,0.088173
-68.419,0.25719,0.20766,0.14869,0.087775
-68.369,0.25579,0.20656,0.14794,0.087376
-68.319,0.25438,0.20546,0.14719,0.086978
-68.269,0.25298,0.20436,0.14644,0.086579
-68.219,0.25157,0.20326,0.1457,0.08618
-68.169,0.25017,0.20216,0.14495,0.085782
-68.119,0.24876,0.20106,0.1442,0.085383
-68.069,0.24736,0.19996,0.14345,0.084985
-68.019,0.24595,0.19887,0.1427,0.084586
-67.969,0.24455,0.19777,0.14195,0.084188
-67.919,0.24315,0.19667,0.1412,0.083789
-67.869,0.24174,0.19557,0.14045,0.083391
-67.819,0.24034,0.19447,0.1397,0.082992
-67.769,0.23893,0.19337,0.13895,0.082593
-67.719,0.23753,0.19227,0.1382,0.082195
-67.669,0.23612,0.19117,0.13746,0.081796
-67.619,0.23472,0.19007,0.13671,0.081398
-67.569,0.23331,0.18898,0.13596,0.080999
-67.519,0.23191,0.18788,0.13521,0.080601
-67.469,0.23051,0.18678,0.13446,0.080202
-67.419,0.2291,0.18568,0.13371,0.079804
-67.369,0.2277,0.18458,0.13296,0.079406
-67.319,0.22629,0.18348,0.13221,0.079007
-67.269,0.22489,0.18238,0.13146,0.078609
-67.219,0.22348,0.18128,0.13071,0.07821
-67.169,0.22208,0.18018,0.12997,0.077812
-67.119,0.22068,0.17909,0.12922,0.077413
-67.069,0.21927,0.17799,0.12847,0.077015
-67.019,0.21787,0.17689,0.12772,0.076616
-66.969,0.21646,0.17579,0.12697,0.076218
-66.919,0.21506,0.17469,0.12622,0.07582
-66.869,0.21365,0.17359,0.12547,0.075421
-66.819,0.21225,0.17249,0.12472,0.075023
-66.769,0.21084,0.17139,0.12397,0.074625
-66.719,0.20944,0.17029,0.12322,0.074226
-66.669,0.20804,0.1692,0.12248,0.073828
-66.619,0.20663,0.1681,0.12173,0.073429
-66.569,0.20523,0.167,0.12098,0.073031
-66.519,0.20382,0.1659,0.12023,0.072633
-66.469,0.20242,0.1648,0.11948,0.072234
-66.419,0.20101,0.1637,0.11873,0.071836
-66.369,0.19961,0.1626,0.11798,0.071438
-66.319,0.19821,0.1615,0.11723,0.07104
-66.269,0.1968,0.1604,0.11648,0.070641
-66.219,0.1954,0.15931,0.11573,0.070243
-66.169,0.19399,0.15821,0.11499,0.069845
-66.119,0.19259,0.15711,0.11424,0.069446
-66.069,0.19118,0.15601,0.11349,0.069048
-66.019,0.18978,0.15491,0.11274,0.06865
-65.969,0.18838,0.15381,0.11199,0.068252
-65.919,0.18697,0.15271,0.11124,0.067854
-65.869,0.18557,0.15161,0.11049,0.067455
-65.819,0.18416,0.15052,0.10974,0.067057
-65.769,0.18276,0.14942,0.10899,0.066659
-65.719,0.18135,0.14832,0.10825,0.066261
-65.669,0.17995,0.14722,0.1075,0.065863
-65.619,0.17855,0.14612,0.10675,0.065465
-65.569,0.17714,0.14502,0.106,0.065066
-65.519,0.17574,0.14392,0.10525,0.064668
-65.469,0.17433,0.14282,0.1045,0.06427
-65.419,0.17293,0.14173,0.10375,0.063872
-65.369,0.17152,0.14063,0.103,0.063474
-65.319,0.17012,0.13953,0.10226,0.063076
-65.269,0.16872,0.13843,0.10151,0.062678
-65.219,0.16731,0.13733,0.10076,0.06228
-65.169,0.16591,0.13623,0.10001,0.061882
-65.119,0.1645,0.13513,0.099261,0.061484
-65.069,0.1631,0.13404,0.098512,0.061086
-65.019,0.16169,0.13294,0.097763,0.060688
-64.969,0.16029,0.13184,0.097014,0.06029
-64.919,0.15889,0.13074,0.096266,0.059892
-64.869,0.15748,0.12964,0.095517,0.059494
-64.819,0.15608,0.12854,0.094768,0.059096
-64.769,0.15467,0.12744,0.09402,0.058698
-64.719,0.15327,0.12635,0.093271,0.0583
-64.669,0.15187,0.12525,0.092523,0.057903
-64.619,0.15046,0.12415,0.091774,0.057505
-64.569,0.14906,0.12305,0.091025,0.057107
-64.519,0.14765,0.12195,0.090277,0.056709
-64.469,0.14625,0.12085,0.089528,0.056311
-64.419,0.14485,0.11975,0.08878,0.055914
-64.369,0.14344,0.11866,0.088031,0.055516
-64.319,0.14204,0.11756,0.087283,0.055118
-64.269,0.14063,0.11646,0.086534,0.05472
-64.219,0.13923,0.11536,0.085786,0.054323
-64.169,0.13783,0.11426,0.085037,0.053925
-64.119,0.13642,0.11316,0.084289,0.053527
-64.069,0.13502,0.11207,0.08354,0.05313
-64.019,0.13361,0.11097,0.082792,0.052732
-63.969,0.13221,0.10987,0.082044,0.052335
-63.919,0.13081,0.10877,0.081295,0.051937
-63.869,0.1294,0.10767,0.080547,0.05154
-63.819,0.128,0.10657,0.079799,0.051142
-63.769,0.1266,0.10548,0.07905,0.050745
-63.719,0.12519,0.10438,0.078302,0.050347
-63.669,0.12379,0.10328,0.077554,0.04995
-63.619,0.12238,0.10218,0.076806,0.049553
-63.569,0.12098,0.10108,0.076057,0.049155
-63.519,0.11958,0.099985,0.075309,0.048758
-63.469,0.11817,0.098887,0.074561,0.048361
-63.419,0.11677,0.097789,0.073813,0.047963
-63.369,0.11537,0.096691,0.073065,0.047566
-63.319,0.11396,0.095593,0.072317,0.047169
-63.269,0.11256,0.094495,0.071569,0.046772
-63.219,0.11116,0.093397,0.070821,0.046375
-63.169,0.10975,0.092299,0.070073,0.045978
-63.119,0.10835,0.091201,0.069325,0.04558
-63.069,0.10695,0.090103,0.068577,0.045183
-63.019,0.10554,0.089005,0.067829,0.044787
-62.969,0.10414,0.087908,0.067081,0.04439
-62.919,0.10274,0.08681,0.066333,0.043993
-62.869,0.10133,0.085712,0.065585,0.043596
-62.819,0.099929,0.084614,0.064838,0.043199
-62.769,0.098526,0.083517,0.06409,0.042802
-62.719,0.097123,0.082419,0.063342,0.042406
-62.669,0.09572,0.081321,0.062595,0.042009
-62.619,0.094317,0.080224,0.061847,0.041612
-62.569,0.092914,0.079126,0.0611,0.041216
-62.519,0.091511,0.078029,0.060352,0.040819
-62.469,0.090108,0.076932,0.059605,0.040423
-62.419,0.088705,0.075834,0.058857,0.040026
-62.369,0.087302,0.074737,0.05811,0.03963
-62.319,0.0859,0.07364,0.057363,0.039234
-62.269,0.084497,0.072543,0.056616,0.038837
-62.219,0.083094,0.071445,0.055868,0.038441
-62.169,0.081692,0.070348,0.055121,0.038045
-62.119,0.080289,0.069251,0.054374,0.037649
-62.069,0.078887,0.068155,0.053627,0.037253
-62.019,0.077485,0.067058,0.052881,0.036857
-61.969,0.076083,0.065961,0.052134,0.036461
-61.919,0.074681,0.064864,0.051387,0.036065
-61.869,0.073279,0.063768,0.05064,0.03567
-61.819,0.071877,0.062671,0.049894,0.035274
-61.769,0.070475,0.061575,0.049147,0.034878
-61.719,0.069074,0.060479,0.048401,0.034483
-61.669,0.067672,0.059383,0.047655,0.034088
-61.619,0.066271,0.058286,0.046909,0.033692
-61.569,0.06487,0.057191,0.046162,0.033297
-61.519,0.063469,0.056095,0.045417,0.032902
-61.469,0.062068,0.054999,0.044671,0.032507
-61.419,0.060667,0.053904,0.043925,0.032112
-61.369,0.059267,0.052808,0.043179,0.031717
-61.319,0.057867,0.051713,0.042434,0.031324
-61.269,0.056466,0.050618,0.041689,0.030972
-61.219,0.055067,0.049523,0.040943,0.03062
-61.169,0.053667,0.048429,0.040198,0.030269
-61.119,0.052268,0.047334,0.039454,0.029917
-61.069,0.050869,0.04624,0.038709,0.029566
-61.019,0.04947,0.045146,0.037965,0.029214
-60.969,0.048072,0.044052,0.03722,0.028863
-60.919,0.046674,0.042959,0.036476,0.028512
-60.869,0.045276,0.041866,0.035732,0.02816
-60.819,0.043879,0.040773,0.034989,0.027809
-60.769,0.042483,0.039681,0.034246,0.027459
-60.719,0.041087,0.038589,0.033502,0.027108
-60.669,0.039692,0.037497,0.03276,0.026757
-60.619,0.038297,0.036406,0.032017,0.026407
-60.569,0.036903,0.035315,0.031275,0.026056
-60.519,0.03551,0.03426,0.030533,0.025706
-60.469,0.034118,0.033214,0.02986,0.025356
-60.419,0.032727,0.03217,0.029207,0.025006
-60.369,0.031337,0.031126,0.028554,0.024657
-60.319,0.030105,0.030084,0.027901,0.024307
-60.269,0.029069,0.029069,0.027249,0.023958
-60.219,0.028072,0.028072,0.026598,0.023609
-60.169,0.027076,0.027076,0.025947,0.02326
-60.119,0.026081,0.026081,0.025297,0.022911
-60.069,0.025087,0.025087,0.024647,0.022563
-60.019,0.024095,0.024095,0.023999,0.022214
-59.969,0.02335,0.02335,0.02335,0.021866
-59.919,0.022703,0.022703,0.022703,0.021518
-59.869,0.024029,0.022057,0.022057,0.021171
-59.819,0.025401,0.021411,0.021411,0.020824
-59.769,0.026775,0.022357,0.020767,0.020477
-59.719,0.028151,0.023382,0.020699,0.0202
-59.669,0.029528,0.024408,0.021417,0.020309
-59.619,0.030907,0.025436,0.022136,0.020429
-59.569,0.032287,0.026465,0.022856,0.020549
-59.519,0.033668,0.027496,0.023577,0.020808
-59.469,0.035051,0.028527,0.0243,0.021187
-59.419,0.036434,0.029559,0.025023,0.021566
-59.369,0.037817,0.030592,0.025748,0.021946
-59.319,0.039202,0.031626,0.026473,0.022325
-59.269,0.040587,0.032661,0.027198,0.022706
-59.219,0.041972,0.033696,0.027925,0.023086
-59.169,0.043359,0.034732,0.028652,0.023467
-59.119,0.044745,0.035768,0.02938,0.023848
-59.069,0.046132,0.036804,0.030108,0.024229
-59.019,0.047519,0.037842,0.030837,0.02461
-58.969,0.048907,0.038879,0.031566,0.024992
-58.919,0.050295,0.039917,0.032295,0.025374
-58.869,0.051683,0.040955,0.033026,0.025756
-58.819,0.053072,0.041994,0.033756,0.026138
-58.769,0.054461,0.043032,0.034487,0.026521
-58.719,0.05585,0.044071,0.035218,0.026903
-58.669,0.057239,0.045111,0.035949,0.027286
-58.619,0.058629,0.04615,0.036681,0.027669
-58.569,0.060018,0.04719,0.037413,0.028052
-58.519,0.061408,0.04823,0.038145,0.028436
-58.469,0.062798,0.04927,0.038878,0.028819
-58.419,0.064188,0.05031,0.03961,0.029203
-58.369,0.065578,0.051351,0.040343,0.029587
-58.319,0.066969,0.052392,0.041076,0.02997
-58.269,0.068359,0.053432,0.04181,0.030354
-58.219,0.06975,0.054473,0.042543,0.030739
-58.169,0.07114,0.055514,0.043277,0.031123
-58.119,0.072531,0.056555,0.044011,0.031507
-58.069,0.073922,0.057597,0.044745,0.031892
-58.019,0.075313,0.058638,0.045479,0.032276
-57.969,0.076704,0.05968,0.046213,0.032661
-57.919,0.078095,0.060721,0.046948,0.033046
-57.869,0.079487,0.061763,0.047683,0.033431
-57.819,0.080878,0.062805,0.048417,0.033816
-57.769,0.082269,0.063847,0.049152,0.034201
-57.719,0.083661,0.064889,0.049887,0.034586
-57.669,0.085052,0.065931,0.050622,0.034971
-57.619,0.086444,0.066973,0.051357,0.035356
-57.569,0.087835,0.068042,0.052093,0.035742
-57.519,0.089227,0.069128,0.052828,0.036127
-57.469,0.090619,0.070214,0.053563,0.036513
-57.419,0.092011,0.0713,0.054299,0.036898
-57.369,0.093402,0.072386,0.055035,0.037284
-57.319,0.094794,0.073473,0.05577,0.037669
-57.269,0.096186,0.074559,0.056506,0.038055
-57.219,0.097578,0.075645,0.057242,0.038441
-57.169,0.09897,0.076732,0.057978,0.038827
-57.119,0.10036,0.077819,0.058714,0.039213
-57.069,0.10175,0.078905,0.05945,0.039599
-57.019,0.10315,0.079992,0.060186,0.039985
-56.969,0.10454,0.081079,0.060923,0.040371
-56.919,0.10593,0.082165,0.061659,0.040757
-56.869,0.10732,0.083252,0.062395,0.041144
-56.819,0.10872,0.084339,0.063132,0.04153
-56.769,0.11011,0.085426,0.063868,0.041916
-56.719,0.1115,0.086513,0.064604,0.042302
-56.669,0.11289,0.0876,0.065341,0.042689
-56.619,0.11428,0.088687,0.066078,0.043075
-56.569,0.11568,0.089774,0.066814,0.043462
-56.519,0.11707,0.090862,0.067551,0.043848
-56.469,0.11846,0.091949,0.068288,0.044235
-56.419,0.11985,0.093036,0.069024,0.044622
-56.369,0.12125,0.094123,0.069761,0.045008
-56.319,0.12264,0.095211,0.070498,0.045395
-56.269,0.12403,0.096298,0.071235,0.045782
-56.219,0.12542,0.097385,0.071972,0.046168
-56.169,0.12682,0.098473,0.072709,0.046555
-56.119,0.12821,0.09956,0.073446,0.046942
-56.069,0.1296,0.10065,0.074183,0.047329
-56.019,0.13099,0.10174,0.07492,0.047716
-55.969,0.13239,0.10282,0.075657,0.048103
-55.919,0.13378,0.10391,0.076394,0.04849
-55.869,0.13517,0.105,0.077131,0.048877
-55.819,0.13656,0.10609,0.077869,0.049264
-55.769,0.13796,0.10717,0.078606,0.049651
-55.719,0.13935,0.10826,0.079343,0.050038
-55.669,0.14074,0.10935,0.08008,0.050425
-55.619,0.14214,0.11044,0.080818,0.050812
-55.569,0.14353,0.11152,0.081555,0.051199
-55.519,0.14492,0.11261,0.082292,0.051586
-55.469,0.14631,0.1137,0.08303,0.051974
-55.419,0.14771,0.11479,0.083767,0.052361
-55.369,0.1491,0.11587,0.084505,0.052748
-55.319,0.15049,0.11696,0.085242,0.053135
-55.269,0.15188,0.11805,0.08598,0.053523
-55.219,0.15328,0.11914,0.086717,0.05391
-55.169,0.15467,0.12023,0.087455,0.054297
-55.119,0.15606,0.12131,0.088192,0.054685
-55.069,0.15746,0.1224,0.08893,0.055072
-55.019,0.15885,0.12349,0.089667,0.055459
-54.969,0.16024,0.12458,0.090405,0.055847
-54.919,0.16163,0.12567,0.091142,0.056234
-54.869,0.16303,0.12675,0.09188,0.056622
-54.819,0.16442,0.12784,0.092618,0.057009
-54.769,0.16581,0.12893,0.093355,0.057397
-54.719,0.16721,0.13002,0.094093,0.057784
-54.669,0.1686,0.13111,0.094831,0.058172
-54.619,0.16999,0.13219,0.095569,0.058559
-54.569,0.17138,0.13328,0.096306,0.058947
-54.519,0.17278,0.13437,0.097044,0.059335
-54.469,0.17417,0.13546,0.097782,0.059722
-54.419,0.17556,0.13655,0.09852,0.06011
-54.369,0.17696,0.13763,0.099257,0.060497
-54.319,0.17835,0.13872,0.099995,0.060885
-54.269,0.17974,0.13981,0.10073,0.061273
-54.219,0.18114,0.1409,0.10147,0.06166
-54.169,0.18253,0.14199,0.10221,0.062048
-54.119,0.18392,0.14307,0.10295,0.062436
-54.069,0.18531,0.14416,0.10368,0.062823
-54.019,0.18671,0.14525,0.10442,0.063211
-53.969,0.1881,0.14634,0.10516,0.063599
-53.919,0.18949,0.14743,0.1059,0.063987
-53.869,0.19089,0.14851,0.10664,0.064374
-53.819,0.19228,0.1496,0.10737,0.064762
-53.769,0.19367,0.15069,0.10811,0.06515
-53.719,0.19507,0.15178,0.10885,0.065538
-53.669,0.19646,0.15287,0.10959,0.065926
-53.619,0.19785,0.15396,0.11033,0.066314
-53.569,0.19924,0.15504,0.11106,0.066701
-53.519,0.20064,0.15613,0.1118,0.067089
-53.469,0.20203,0.15722,0.11254,0.067477
-53.419,0.20342,0.15831,0.11328,0.067865
-53.369,0.20482,0.1594,0.11402,0.068253
-53.319,0.20621,0.16048,0.11475,0.068641
-53.269,0.2076,0.16157,0.11549,0.069029
-53.219,0.209,0.16266,0.11623,0.069417
-53.169,0.21039,0.16375,0.11697,0.069805
-53.119,0.21178,0.16484,0.11771,0.070192
-53.069,0.21317,0.16593,0.11844,0.07058
-53.019,0.21457,0.16701,0.11918,0.070968
-52.969,0.21596,0.1681,0.11992,0.071356
-52.919,0.21735,0.16919,0.12066,0.071744
-52.869,0.21875,0.17028,0.1214,0.072132
-52.819,0.22014,0.17137,0.12213,0.07252
-52.769,0.22153,0.17246,0.12287,0.072908
-52.719,0.22293,0.17354,0.12361,0.073296
-52.669,0.22432,0.17463,0.12435,0.073684
-52.619,0.22571,0.17572,0.12509,0.074072
-52.569,0.22711,0.17681,0.12583,0.07446
-52.519,0.2285,0.1779,0.12656,0.074849
-52.469,0.22989,0.17899,0.1273,0.075237
-52.419,0.23129,0.18007,0.12804,0.075625
-52.369,0.23268,0.18116,0.12878,0.076013
-52.319,0.23407,0.18225,0.12952,0.076401
-52.269,0.23546,0.18334,0.13025,0.076789
-52.219,0.23686,0.18443,0.13099,0.077177
-52.169,0.23825,0.18552,0.13173,0.077565
-52.119,0.23964,0.1866,0.13247,0.077953
-52.069,0.24104,0.18769,0.13321,0.078341
-52.019,0.24243,0.18878,0.13395,0.078729
-51.969,0.24382,0.18987,0.13468,0.079118
-51.919,0.24522,0.19096,0.13542,0.079506
-51.869,0.24661,0.19205,0.13616,0.079894
-51.819,0.248,0.19313,0.1369,0.080282
-51.769,0.2494,0.19422,0.13764,0.08067
-51.719,0.25079,0.19531,0.13837,0.081058
-51.669,0.25218,0.1964,0.13911,0.081447
-51.619,0.25358,0.19749,0.13985,0.081835
-51.569,0.25497,0.19858,0.14059,0.082223
-51.519,0.25636,0.19967,0.14133,0.082611
-51.469,0.25775,0.20075,0.14207,0.082999
-51.419,0.25915,0.20184,0.1428,0.083387
-51.369,0.26054,0.20293,0.14354,0.083776
-51.319,0.26193,0.20402,0.14428,0.084164
-51.269,0.26333,0.20511,0.14502,0.084552
-51.219,0.26472,0.2062,0.14576,0.08494
-51.169,0.26611,0.20728,0.1465,0.085329
-51.119,0.26751,0.20837,0.14723,0.085717
-51.069,0.2689,0.20946,0.14797,0.086105
-51.019,0.27029,0.21055,0.14871,0.086493
-50.969,0.27169,0.21164,0.14945,0.086882
-50.919,0.27308,0.21273,0.15019,0.08727
-50.869,0.27447,0.21382,0.15093,0.087658
-50.819,0.27587,0.2149,0.15166,0.088046
-50.769,0.27726,0.21599,0.1524,0.088435
-50.719,0.27865,0.21708,0.15314,0.088823
-50.669,0.28005,0.21817,0.15388,0.089211
-50.619,0.28144,0.21926,0.15462,0.089599
-50.569,0.28283,0.22035,0.15536,0.089988
-50.519,0.28423,0.22143,0.15609,0.090376
-50.469,0.28562,0.22252,0.15683,0.090764
-50.419,0.28701,0.22361,0.15757,0.091153
-50.369,0.2884,0.2247,0.15831,0.091541
-50.319,0.2898,0.22579,0.15905,0.091929
-50.269,0.29119,0.22688,0.15979,0.092318
-50.219,0.29258,0.22797,0.16052,0.092706
