-9.8056,1.6738,1.2867,0.87473,0.44886
-9.7556,1.6657,1.2805,0.87055,0.4467
-9.7056,1.6576,1.2743,0.86638,0.44455
-9.6556,1.6495,1.2681,0.8622,0.4424
-9.6056,1.6415,1.2619,0.85802,0.44025
-9.5556,1.6334,1.2557,0.85384,0.4381
-9.5056,1.6253,1.2495,0.84966,0.43595
-9.4556,1.6172,1.2433,0.84549,0.4338
-9.4056,1.6091,1.2371,0.84131,0.43164
-9.3556,1.601,1.2309,0.83713,0.42949
-9.3056,1.5929,1.2247,0.83295,0.42734
-9.2556,1.5848,1.2185,0.82877,0.42519
-9.2056,1.5767,1.2123,0.8246,0.42304
-9.1556,1.5686,1.2061,0.82042,0.42089
-9.1056,1.5605,1.1999,0.81624,0.41874
-9.0556,1.5524,1.1937,0.81206,0.41658
-9.0056,1.5443,1.1875,0.80788,0.41443
-8.9556,1.5362,1.1813,0.80371,0.41228
-8.9056,1.5282,1.1751,0.79953,0.41013
-8.8556,1.5201,1.1689,0.79535,0.40798
-8.8056,1.512,1.1627,0.79117,0.40583
-8.7556,1.5039,1.1565,0.78699,0.40367
-8.7056,1.4958,1.1503,0.78282,0.40152
-8.6556,1.4877,1.1441,0.77864,0.39937
-8.6056,1.4796,1.1379,0.77446,0.39722
-8.5556,1.4715,1.1317,0.77028,0.39507
-8.5056,1.4634,1.1255,0.7661,0.39292
-8.4556,1.4553,1.1193,0.76193,0.39077
-8.4056,1.4472,1.1131,0.75775,0.38861
-8.3556,1.4391,1.1069,0.75357,0.38646
-8.3056,1.431,1.1007,0.74939,0.38431
-8.2556,1.423,1.0945,0.74521,0.38216
-8.2056,1.4149,1.0884,0.74104,0.38001
-8.1556,1.4068,1.0822,0.73686,0.37786
-8.1056,1.3987,1.076,0.73268,0.37571
-8.0556,1.3906,1.0698,0.7285,0.37355
-8.0056,1.3825,1.0636,0.72432,0.3714
-7.9556,1.3744,1.0574,0.72015,0.36925
-7.9056,1.3663,1.0512,0.71597,0.3671
-7.8556,1.3582,1.045,0.71179,0.36495
-7.8056,1.3501,1.0388,0.70761,0.3628
-7.7556,1.342,1.0326,0.70343,0.36064
-7.7056,1.3339,1.0264,0.69926,0.35849
-7.6556,1.3258,1.0202,0.69508,0.35634
-7.6056,1.3177,1.014,0.6909,0.35419
-7.5556,1.3097,1.0078,0.68672,0.35204
-7.5056,1.3016,1.0016,0.68254,0.34989
-7.4556,1.2935,0.99538,0.67837,0.34774
-7.4056,1.2854,0.98918,0.67419,0.34558
-7.3556,1.2773,0.98298,0.67001,0.34343
-7.3056,1.2692,0.97678,0.66583,0.34128
-7.2556,1.2611,0.97058,0.66165,0.33913
-7.2056,1.253,0.96439,0.65748,0.33698
-7.1556,1.2449,0.95819,0.6533,0.33483
-7.1056,1.2368,0.95199,0.64912,0.33268
-7.0556,1.2287,0.94579,0.64494,0.33052
-7.0056,1.2206,0.93959,0.64076,0.32837
-6.9556,1.2125,0.9334,0.63659,0.32622
-6.9056,1.2045,0.9272,0.63241,0.32407
-6.8556,1.1964,0.921,0.62823,0.32192
-6.8056,1.1883,0.9148,0.62405,0.31977
-6.7556,1.1802,0.9086,0.61987,0.31761
-6.7056,1.1721,0.9024,0.6157,0.31546
-6.6556,1.164,0.89621,0.61152,0.31331
-6.6056,1.1559,0.89001,0.60734,0.31116
-6.5556,1.1478,0.88381,0.60316,0.30901
-6.5056,1.1397,0.87761,0.59898,0.30686
-6.4556,1.1316,0.87141,0.59481,0.30471
-6.4056,1.1235,0.86522,0.59063,0.30255
-6.3556,1.1154,0.85902,0.58645,0.3004
-6.3056,1.1073,0.85282,0.58227,0.29825
-6.2556,1.0992,0.84662,0.57809,0.2961
-6.2056,1.0912,0.84042,0.57392,0.29395
-6.1556,1.0831,0.83422,0.56974,0.2918
-6.1056,1.075,0.82803,0.56556,0.28965
-6.0556,1.0669,0.82183,0.56138,0.28749
-6.0056,1.0588,0.81563,0.5572,0.28534
-5.9556,1.0507,0.80943,0.55303,0.28319
-5.9056,1.0426,0.80323,0.54885,0.28104
-5.8556,1.0345,0.79704,0.54467,0.27889
-5.8056,1.0264,0.79084,0.54049,0.27674
-5.7556,1.0183,0.78464,0.53631,0.27459
-5.7056,1.0102,0.77844,0.53214,0.27243
-5.6556,1.0021,0.77224,0.52796,0.27028
-5.6056,0.99405,0.76604,0.52378,0.26813
-5.5556,0.98595,0.75985,0.5196,0.26598
-5.5056,0.97786,0.75365,0.51542,0.26383
-5.4556,0.96977,0.74745,0.51125,0.26168
-5.4056,0.96168,0.74125,0.50707,0.25952
-5.3556,0.95358,0.73505,0.50289,0.25737
-5.3056,0.94549,0.72886,0.49871,0.25522
-5.2556,0.9374,0.72266,0.49453,0.25307
-5.2056,0.92931,0.71646,0.49036,0.25092
-5.1556,0.92121,0.71026,0.48618,0.24877
-5.1056,0.91312,0.70406,0.482,0.24662
-5.0556,0.90503,0.69786,0.47782,0.24446
-5.0056,0.89694,0.69167,0.47364,0.24231
-4.9556,0.88884,0.68547,0.46947,0.24016
-4.9056,0.88075,0.67927,0.46529,0.23801
-4.8556,0.87266,0.67307,0.46111,0.23586
-4.8056,0.86457,0.66687,0.45693,0.23371
-4.7556,0.85647,0.66067,0.45275,0.23156
-4.7056,0.84838,0.65448,0.44858,0.2294
-4.6556,0.84029,0.64828,0.4444,0.22725
-4.6056,0.8322,0.64208,0.44022,0.2251
-4.5556,0.8241,0.63588,0.43604,0.22295
-4.5056,0.81601,0.62968,0.43186,0.2208
-4.4556,0.80792,0.62349,0.42769,0.21865
-4.4056,0.79983,0.61729,0.42351,0.2165
-4.3556,0.79173,0.61109,0.41933,0.21434
-4.3056,0.78364,0.60489,0.41515,0.21219
-4.2556,0.77555,0.59869,0.41097,0.21004
-4.2056,0.76746,0.59249,0.4068,0.20789
-4.1556,0.75936,0.5863,0.40262,0.20574
-4.1056,0.75127,0.5801,0.39844,0.20359
-4.0556,0.74318,0.5739,0.39426,0.20144
-4.0056,0.73509,0.5677,0.39008,0.19928
-3.9556,0.72699,0.5615,0.38591,0.19713
-3.9056,0.7189,0.55531,0.38173,0.19498
-3.8556,0.71081,0.54911,0.37755,0.19283
-3.8056,0.70272,0.54291,0.37337,0.19068
-3.7556,0.69462,0.53671,0.36919,0.18853
-3.7056,0.68653,0.53051,0.36502,0.18638
-3.6556,0.67844,0.52431,0.36084,0.18422
-3.6056,0.67035,0.51812,0.35666,0.18207
-3.5556,0.66225,0.51192,0.35248,0.17992
-3.5056,0.65416,0.50572,0.3483,0.17777
-3.4556,0.64607,0.49952,0.34413,0.17562
-3.4056,0.63798,0.49332,0.33995,0.17347
-3.3556,0.62988,0.48713,0.33577,0.17132
-3.3056,0.62179,0.48093,0.33159,0.16916
-3.2556,0.6137,0.47473,0.32741,0.16701
-3.2056,0.60561,0.46853,0.32324,0.16486
-3.1556,0.59751,0.46233,0.31906,0.16271
-3.1056,0.58942,0.45613,0.31488,0.16056
-3.0556,0.58133,0.44994,0.3107,0.15841
-3.0056,0.57324,0.44374,0.30652,0.15626
-2.9556,0.56514,0.43754,0.30235,0.1541
-2.9056,0.55705,0.43134,0.29817,0.15195
-2.8556,0.54896,0.42514,0.29399,0.1498
-2.8056,0.54086,0.41895,0.28981,0.14765
-2.7556,0.53277,0.41275,0.28563,0.1455
-2.7056,0.52468,0.40655,0.28146,0.14335
-2.6556,0.51659,0.40035,0.27728,0.1412
-2.6056,0.50849,0.39415,0.2731,0.13904
-2.5556,0.5004,0.38795,0.26892,0.13689
-2.5056,0.49231,0.38176,0.26474,0.13474
-2.4556,0.48422,0.37556,0.26057,0.13259
-2.4056,0.47612,0.36936,0.25639,0.13044
-2.3556,0.46803,0.36316,0.25221,0.12829
-2.3056,0.45994,0.35696,0.24803,0.12614
-2.2556,0.45185,0.35077,0.24385,0.12398
-2.2056,0.44375,0.34457,0.23968,0.12183
-2.1556,0.43566,0.33837,0.2355,0.11968
-2.1056,0.42757,0.33217,0.23132,0.11753
-2.0556,0.41948,0.32597,0.22714,0.11538
-2.0056,0.41138,0.31977,0.22296,0.11323
-1.9556,0.40329,0.31358,0.21879,0.11108
-1.9056,0.3952,0.30738,0.21461,0.10893
-1.8556,0.38711,0.30118,0.21043,0.10677
-1.8056,0.37901,0.29498,0.20625,0.10462
-1.7556,0.37092,0.28878,0.20207,0.10247
-1.7056,0.36283,0.28259,0.1979,0.10032
-1.6556,0.35474,0.27639,0.19372,0.098169
-1.6056,0.34664,0.27019,0.18954,0.096018
-1.5556,0.33855,0.26399,0.18536,0.093866
-1.5056,0.33046,0.25779,0.18118,0.091715
-1.4556,0.32237,0.25159,0.17701,0.089564
-1.4056,0.31427,0.2454,0.17283,0.087413
-1.3556,0.30618,0.2392,0.16865,0.085262
-1.3056,0.29809,0.233,0.16447,0.083111
-1.2556,0.29,0.2268,0.16029,0.080959
-1.2056,0.2819,0.2206,0.15612,0.078808
-1.1556,0.27381,0.21441,0.15194,0.076657
-1.1056,0.26572,0.20821,0.14776,0.074506
-1.0556,0.25763,0.20201,0.14358,0.072355
-1.0056,0.24953,0.19581,0.1394,0.070204
-0.9556,0.24144,0.18961,0.13523,0.068053
-0.9056,0.23335,0.18342,0.13105,0.065902
-0.8556,0.22526,0.17722,0.12687,0.063751
-0.8056,0.21717,0.17102,0.12269,0.0616
-0.7556,0.20907,0.16482,0.11852,0.05945
-0.7056,0.20098,0.15862,0.11434,0.057327
-0.6556,0.19289,0.15243,0.11016,0.055301
-0.6056,0.1848,0.14623,0.10598,0.053275
-0.5556,0.1767,0.14003,0.1018,0.051249
-0.5056,0.16861,0.13383,0.097627,0.049223
-0.4556,0.16052,0.12763,0.093449,0.047197
-0.4056,0.15243,0.12144,0.089272,0.045171
-0.3556,0.14433,0.11524,0.085094,0.043145
-0.3056,0.13624,0.10904,0.080916,0.041119
-0.2556,0.12815,0.10284,0.076739,0.039093
-0.2056,0.12006,0.096644,0.072561,0.037067
-0.1556,0.11197,0.090447,0.068384,0.035042
-0.1056,0.10387,0.084249,0.064207,0.033016
-0.0556,0.095781,0.078052,0.060029,0.030991
-0.0056,0.087689,0.071854,0.055852,0.028966
0.0444,0.079598,0.065657,0.051675,0.026941
0.0944,0.071506,0.05946,0.047498,0.024917
0.1444,0.063415,0.053263,0.043322,0.022893
0.1944,0.055324,0.047067,0.039146,0.020869
0.2444,0.047234,0.040871,0.03497,0.018846
0.2944,0.039144,0.034676,0.030795,0.016824
0.3444,0.03147,0.028483,0.02662,0.014803
0.3944,0.024772,0.022508,0.022447,0.012784
0.4444,0.018277,0.018277,0.018277,0.010767
0.4944,0.014111,0.014111,0.014111,0.0087559
0.5444,0.0099543,0.0099543,0.0099543,0.007194
0.5944,0.017338,0.010411,0.0072652,0.0072652
0.6444,0.025287,0.015709,0.0096363,0.008887
0.6944,0.033242,0.021759,0.013784,0.010515
0.7444,0.041199,0.027817,0.017944,0.012347
0.7944,0.049158,0.033965,0.022108,0.01449
0.8444,0.057118,0.040157,0.026275,0.016634
0.8944,0.065079,0.046349,0.030444,0.018779
0.9444,0.07304,0.052542,0.034613,0.020925
0.9944,0.081001,0.058736,0.038783,0.023071
1.0444,0.088962,0.064929,0.042954,0.025217
1.0944,0.096923,0.071123,0.047124,0.027364
1.1444,0.10488,0.077317,0.051296,0.029511
1.1944,0.11285,0.083512,0.055467,0.031658
1.2444,0.12081,0.089706,0.059638,0.033805
1.2944,0.12877,0.0959,0.06381,0.035952
1.3444,0.13673,0.10209,0.067982,0.038099
1.3944,0.14469,0.10829,0.072153,0.040246
1.4444,0.15265,0.11448,0.076325,0.042394
1.4944,0.16062,0.12068,0.080497,0.044541
1.5444,0.16858,0.12687,0.084669,0.046689
1.5944,0.17654,0.13307,0.088841,0.048836
1.6444,0.1845,0.13926,0.093013,0.050984
1.6944,0.1925,0.14546,0.097185,0.053131
1.7444,0.20059,0.15165,0.10136,0.055279
1.7944,0.20868,0.15785,0.10553,0.057426
1.8444,0.21677,0.16404,0.1097,0.059574
1.8944,0.22486,0.17024,0.11387,0.061722
1.9444,0.23295,0.17643,0.11805,0.063869
1.9944,0.24104,0.18262,0.12222,0.066017
2.0444,0.24913,0.18882,0.12639,0.068165
2.0944,0.25722,0.19501,0.13056,0.070312
2.1444,0.26531,0.20121,0.13474,0.07246
2.1944,0.2734,0.2074,0.13891,0.074608
2.2444,0.28149,0.2136,0.14308,0.076756
2.2944,0.28958,0.21979,0.14725,0.078903
2.3444,0.29767,0.22599,0.15142,0.081051
2.3944,0.30576,0.23218,0.1556,0.083199
2.4444,0.31385,0.23838,0.15977,0.085347
2.4944,0.32194,0.24457,0.16394,0.087494
2.5444,0.33003,0.25077,0.16811,0.089642
2.5944,0.33812,0.25696,0.17229,0.09179
2.6444,0.34621,0.26316,0.17646,0.093938
2.6944,0.3543,0.26935,0.18063,0.096085
2.7444,0.36239,0.27555,0.1848,0.098233
2.7944,0.37048,0.28174,0.18898,0.10038
2.8444,0.37857,0.28794,0.19315,0.10253
2.8944,0.38666,0.29413,0.19732,0.10468
2.9444,0.39475,0.30033,0.20149,0.10682
2.9944,0.40284,0.30652,0.20567,0.10897
3.0444,0.41093,0.31272,0.20984,0.11112
3.0944,0.41902,0.31891,0.21401,0.11327
3.1444,0.42711,0.32511,0.21818,0.11542
3.1944,0.4352,0.3313,0.22235,0.11756
3.2444,0.44329,0.3375,0.22653,0.11971
3.2944,0.45138,0.34369,0.2307,0.12186
3.3444,0.45947,0.34988,0.23487,0.12401
3.3944,0.46756,0.35608,0.23904,0.12615
3.4444,0.47565,0.36227,0.24322,0.1283
3.4944,0.48374,0.36847,0.24739,0.13045
3.5444,0.49183,0.37466,0.25156,0.1326
3.5944,0.49992,0.38086,0.25573,0.13475
3.6444,0.50801,0.38705,0.25991,0.13689
3.6944,0.5161,0.39325,0.26408,0.13904
3.7444,0.52419,0.39944,0.26825,0.14119
3.7944,0.53228,0.40564,0.27242,0.14334
3.8444,0.54037,0.41183,0.2766,0.14549
3.8944,0.54846,0.41803,0.28077,0.14763
3.9444,0.55655,0.42422,0.28494,0.14978
3.9944,0.56464,0.43042,0.28911,0.15193
4.0444,0.57273,0.43661,0.29329,0.15408
4.0944,0.58082,0.44281,0.29746,0.15622
4.1444,0.58891,0.449,0.30163,0.15837
4.1944,0.597,0.4552,0.3058,0.16052
4.2444,0.60509,0.46139,0.30998,0.16267
4.2944,0.61318,0.46759,0.31415,0.16482
4.3444,0.62127,0.47378,0.31832,0.16696
4.3944,0.62936,0.47998,0.32249,0.16911
4.4444,0.63745,0.48617,0.32667,0.17126
4.4944,0.64554,0.49237,0.33084,0.17341
4.5444,0.65363,0.49856,0.33501,0.17556
4.5944,0.66172,0.50476,0.33918,0.1777
4.6444,0.66981,0.51095,0.34335,0.17985
4.6944,0.6779,0.51715,0.34753,0.182
4.7444,0.68599,0.52334,0.3517,0.18415
4.7944,0.69408,0.52954,0.35587,0.18629
4.8444,0.70217,0.53573,0.36004,0.18844
4.8944,0.71026,0.54193,0.36422,0.19059
4.9444,0.71835,0.54812,0.36839,0.19274
4.9944,0.72644,0.55432,0.37256,0.19489
5.0444,0.73453,0.56051,0.37673,0.19703
5.0944,0.74262,0.5667,0.38091,0.19918
5.1444,0.75071,0.5729,0.38508,0.20133
5.1944,0.7588,0.57909,0.38925,0.20348
5.2444,0.76689,0.58529,0.39342,0.20563
5.2944,0.77498,0.59148,0.3976,0.20777
5.3444,0.78307,0.59768,0.40177,0.20992
5.3944,0.79116,0.60387,0.40594,0.21207
5.4444,0.79925,0.61007,0.41011,0.21422
5.4944,0.80734,0.61626,0.41429,0.21637
5.5444,0.81543,0.62246,0.41846,0.21851
5.5944,0.82352,0.62865,0.42263,0.22066
5.6444,0.83161,0.63485,0.4268,0.22281
5.6944,0.8397,0.64104,0.43098,0.22496
5.7444,0.84779,0.64724,0.43515,0.2271
5.7944,0.85588,0.65343,0.43932,0.22925
5.8444,0.86397,0.65963,0.44349,0.2314
5.8944,0.87206,0.66582,0.44767,0.23355
5.9444,0.88015,0.67202,0.45184,0.2357
5.9944,0.88824,0.67821,0.45601,0.23784
6.0444,0.89633,0.68441,0.46018,0.23999
6.0944,0.90442,0.6906,0.46436,0.24214
6.1444,0.91251,0.6968,0.46853,0.24429
6.1944,0.9206,0.70299,0.4727,0.24644
6.2444,0.92869,0.70919,0.47687,0.24858
6.2944,0.93678,0.71538,0.48105,0.25073
6.3444,0.94487,0.72158,0.48522,0.25288
6.3944,0.95296,0.72777,0.48939,0.25503
6.4444,0.96105,0.73397,0.49356,0.25717
6.4944,0.96914,0.74016,0.49774,0.25932
6.5444,0.97723,0.74636,0.50191,0.26147
6.5944,0.98532,0.75255,0.50608,0.26362
6.6444,0.99341,0.75875,0.51025,0.26577
6.6944,1.0015,0.76494,0.51442,0.26791
6.7444,1.0096,0.77114,0.5186,0.27006
6.7944,1.0177,0.77733,0.52277,0.27221
6.8444,1.0258,0.78353,0.52694,0.27436
6.8944,1.0339,0.78972,0.53111,0.27651
6.9444,1.0419,0.79591,0.53529,0.27865
6.9944,1.05,0.80211,0.53946,0.2808
7.0444,1.0581,0.8083,0.54363,0.28295
7.0944,1.0662,0.8145,0.5478,0.2851
7.1444,1.0743,0.82069,0.55198,0.28725
7.1944,1.0824,0.82689,0.55615,0.28939
7.2444,1.0905,0.83308,0.56032,0.29154
7.2944,1.0986,0.83928,0.56449,0.29369
7.3444,1.1067,0.84547,0.56867,0.29584
7.3944,1.1148,0.85167,0.57284,0.29798
7.4444,1.1228,0.85786,0.57701,0.30013
7.4944,1.1309,0.86406,0.58118,0.30228
7.5444,1.139,0.87025,0.58536,0.30443
7.5944,1.1471,0.87645,0.58953,0.30658
7.6444,1.1552,0.88264,0.5937,0.30872
7.6944,1.1633,0.88884,0.59787,0.31087
7.7444,1.1714,0.89503,0.60205,0.31302
7.7944,1.1795,0.90123,0.60622,0.31517
7.8444,1.1876,0.90742,0.61039,0.31732
7.8944,1.1957,0.91362,0.61456,0.31946
7.9444,1.2037,0.91981,0.61874,0.32161
7.9944,1.2118,0.92601,0.62291,0.32376
8.0444,1.2199,0.9322,0.62708,0.32591
8.0944,1.228,0.9384,0.63125,0.32805
8.1444,1.2361,0.94459,0.63543,0.3302
8.1944,1.2442,0.95079,0.6396,0.33235
8.2444,1.2523,0.95698,0.64377,0.3345
8.2944,1.2604,0.96318,0.64794,0.33665
8.3444,1.2685,0.96937,0.65212,0.33879
8.3944,1.2766,0.97557,0.65629,0.34094
8.4444,1.2846,0.98176,0.66046,0.34309
8.4944,1.2927,0.98796,0.66463,0.34524
8.5444,1.3008,0.99415,0.66881,0.34739
8.5944,1.3089,1.0003,0.67298,0.34953
8.6444,1.317,1.0065,0.67715,0.35168
8.6944,1.3251,1.0127,0.68132,0.35383
8.7444,1.3332,1.0189,0.6855,0.35598
8.7944,1.3413,1.0251,0.68967,0.35813
8.8444,1.3494,1.0313,0.69384,0.36027
8.8944,1.3575,1.0375,0.69801,0.36242
8.9444,1.3655,1.0437,0.70218,0.36457
8.9944,1.3736,1.0499,0.70636,0.36672
9.0444,1.3817,1.0561,0.71053,0.36886
9.0944,1.3898,1.0623,0.7147,0.37101
9.1444,1.3979,1.0685,0.71887,0.37316
9.1944,1.406,1.0747,0.72305,0.37531
9.2444,1.4141,1.0809,0.72722,0.37746
9.2944,1.4222,1.0871,0.73139,0.3796
9.3444,1.4303,1.0933,0.73556,0.38175
9.3944,1.4384,1.0995,0.73974,0.3839
9.4444,1.4464,1.1057,0.74391,0.38605
9.4944,1.4545,1.1119,0.74808,0.3882
9.5444,1.4626,1.118,0.75225,0.39034
9.5944,1.4707,1.1242,0.75643,0.39249
9.6444,1.4788,1.1304,0.7606,0.39464
9.6944,1.4869,1.1366,0.76477,0.39679
9.7444,1.495,1.1428,0.76894,0.39894
9.7944,1.5031,1.149,0.77312,0.40108
9.8444,1.5112,1.1552,0.77729,0.40323
9.8944,1.5193,1.1614,0.78146,0.40538
9.9444,1.5273,1.1676,0.78563,0.40753
9.9944,1.5354,1.1738,0.78981,0.40967
10.044,1.5435,1.18,0.79398,0.41182
10.094,1.5516,1.1862,0.79815,0.41397
10.144,1.5597,1.1924,0.80232,0.41612
