81.854,0.93733,0.93733,0.84824,0.51156
81.904,0.93064,0.93064,0.84325,0.50895
81.954,0.92396,0.92396,0.83826,0.50634
82.004,0.91727,0.91727,0.83326,0.50372
82.054,0.91065,0.91065,0.82827,0.50111
82.104,0.90424,0.90424,0.82328,0.4985
82.154,0.89782,0.89782,0.81829,0.49589
82.204,0.89141,0.89141,0.81329,0.49327
82.254,0.885,0.885,0.8083,0.49066
82.304,0.87858,0.87858,0.80331,0.48805
82.354,0.87217,0.87217,0.79831,0.48543
82.404,0.86576,0.86576,0.79332,0.48282
82.454,0.85934,0.85934,0.78833,0.48021
82.504,0.85293,0.85293,0.78333,0.47759
82.554,0.84652,0.84652,0.77834,0.47498
82.604,0.8401,0.8401,0.77335,0.47237
82.654,0.83369,0.83369,0.76836,0.46976
82.704,0.82727,0.82727,0.76336,0.46714
82.754,0.82086,0.82086,0.75837,0.46453
82.804,0.81445,0.81445,0.75338,0.46192
82.854,0.80803,0.80803,0.74838,0.4593
82.904,0.80162,0.80162,0.74339,0.45669
82.954,0.79521,0.79521,0.7384,0.45408
83.004,0.78879,0.78879,0.7334,0.45146
83.054,0.78241,0.78241,0.72841,0.44885
83.104,0.77614,0.77614,0.72342,0.44624
83.154,0.76986,0.76986,0.71843,0.44363
83.204,0.76359,0.76359,0.71343,0.44101
83.254,0.75732,0.75732,0.70844,0.4384
83.304,0.75104,0.75104,0.70345,0.43579
83.354,0.74477,0.74477,0.69845,0.43317
83.404,0.73849,0.73849,0.69346,0.43056
83.454,0.73222,0.73222,0.68847,0.42795
83.504,0.72601,0.72601,0.68347,0.42533
83.554,0.72001,0.72001,0.67848,0.42272
83.604,0.71402,0.71402,0.67349,0.42011
83.654,0.70802,0.70802,0.6685,0.4175
83.704,0.70203,0.70203,0.6635,0.41488
83.754,0.69603,0.69603,0.65851,0.41227
83.804,0.69004,0.69004,0.65352,0.40966
83.854,0.68404,0.68404,0.64852,0.40704
83.904,0.67805,0.67805,0.64353,0.40443
83.954,0.67205,0.67205,0.63854,0.40182
84.004,0.66606,0.66606,0.63354,0.3992
84.054,0.66006,0.66006,0.62855,0.39659
84.104,0.65407,0.65407,0.62356,0.39398
84.154,0.64817,0.64817,0.61857,0.39137
84.204,0.64232,0.64232,0.61357,0.38875
84.254,0.63646,0.63646,0.60858,0.38614
84.304,0.63061,0.63061,0.60359,0.38353
84.354,0.62475,0.62475,0.59859,0.38091
84.404,0.6189,0.6189,0.5936,0.3783
84.454,0.61305,0.61305,0.58861,0.37569
84.504,0.60719,0.60719,0.58362,0.37307
84.554,0.60134,0.60134,0.57862,0.37046
84.604,0.59548,0.59548,0.57363,0.36785
84.654,0.58963,0.58963,0.56864,0.36524
84.704,0.58377,0.58377,0.56364,0.36262
84.754,0.57792,0.57792,0.55865,0.36001
84.804,0.57207,0.57207,0.55366,0.3574
84.854,0.56621,0.56621,0.54866,0.35478
84.904,0.56036,0.56036,0.54367,0.35217
84.954,0.5545,0.5545,0.53868,0.34956
85.004,0.54867,0.54867,0.53369,0.34694
85.054,0.54296,0.54296,0.52869,0.34433
85.104,0.53724,0.53724,0.5237,0.34172
85.154,0.53153,0.53153,0.51871,0.33911
85.204,0.52582,0.52582,0.51371,0.33649
85.254,0.52011,0.52011,0.50872,0.33388
85.304,0.51462,0.51462,0.50373,0.33127
85.354,0.5092,0.5092,0.49873,0.32865
85.404,0.50377,0.50377,0.49374,0.32604
85.454,0.49834,0.49834,0.48875,0.32343
85.504,0.49292,0.49292,0.48376,0.32082
85.554,0.48749,0.48749,0.47876,0.3182
85.604,0.48206,0.48206,0.47377,0.31559
85.654,0.4767,0.4767,0.46878,0.31298
85.704,0.47142,0.47142,0.46378,0.31036
85.754,0.46613,0.46613,0.45879,0.30775
85.804,0.46085,0.46085,0.4538,0.30514
85.854,0.45556,0.45556,0.4488,0.30252
85.904,0.45028,0.45028,0.44381,0.29991
85.954,0.445,0.445,0.43882,0.2973
86.004,0.43971,0.43971,0.43383,0.29469
86.054,0.43443,0.43443,0.42883,0.29207
86.104,0.42914,0.42914,0.42384,0.28946
86.154,0.42386,0.42386,0.41885,0.28685
86.204,0.41858,0.41858,0.41385,0.28423
86.254,0.41329,0.41329,0.40886,0.28162
86.304,0.40801,0.40801,0.40387,0.27901
86.354,0.40272,0.40272,0.39887,0.27639
86.404,0.39744,0.39744,0.39388,0.27378
86.454,0.39216,0.39216,0.38889,0.27117
86.504,0.38687,0.38687,0.3839,0.26856
86.554,0.38159,0.38159,0.3789,0.26594
86.604,0.37631,0.37631,0.37391,0.26333
86.654,0.37102,0.37102,0.36892,0.26072
86.704,0.36585,0.36585,0.36407,0.2581
86.754,0.36071,0.36071,0.35922,0.25549
86.804,0.35557,0.35557,0.35437,0.25288
86.854,0.35044,0.35044,0.34952,0.25026
86.904,0.3453,0.3453,0.34467,0.24765
86.954,0.34016,0.34016,0.33983,0.24504
87.004,0.33507,0.33507,0.33507,0.24243
87.054,0.33922,0.33037,0.33037,0.23981
87.104,0.34833,0.32567,0.32567,0.2372
87.154,0.35745,0.32097,0.32097,0.23459
87.204,0.36657,0.31626,0.31626,0.23197
87.254,0.37568,0.31156,0.31156,0.22936
87.304,0.3848,0.30686,0.30686,0.22675
87.354,0.39391,0.30216,0.30216,0.22413
87.404,0.40303,0.29745,0.29745,0.22152
87.454,0.41214,0.29275,0.29275,0.21891
87.504,0.42126,0.28805,0.28805,0.2163
87.554,0.43038,0.28334,0.28334,0.21368
87.604,0.43949,0.27874,0.27874,0.21107
87.654,0.44861,0.27418,0.27418,0.20846
87.704,0.45772,0.26962,0.26962,0.20584
87.754,0.46684,0.26507,0.26507,0.20323
87.804,0.47596,0.26061,0.26061,0.20062
87.854,0.48507,0.2562,0.2562,0.19801
87.904,0.49419,0.25179,0.25179,0.19539
87.954,0.5033,0.24738,0.24738,0.19278
88.004,0.51242,0.24297,0.24297,0.19017
88.054,0.52153,0.23856,0.23856,0.18755
88.104,0.53065,0.23415,0.23415,0.18494
88.154,0.53977,0.22974,0.22974,0.18233
88.204,0.54888,0.22545,0.22545,0.17971
88.254,0.558,0.22118,0.22118,0.1771
88.304,0.56711,0.21692,0.21692,0.17449
88.354,0.57623,0.21266,0.21266,0.17188
88.404,0.58534,0.2084,0.2084,0.16926
88.454,0.59446,0.20414,0.20414,0.16665
88.504,0.60358,0.19987,0.19987,0.16404
88.554,0.61269,0.19561,0.19561,0.16142
88.604,0.62181,0.19135,0.19135,0.15881
88.654,0.63092,0.18709,0.18709,0.1562
88.704,0.64004,0.18286,0.18286,0.15359
88.754,0.64916,0.17877,0.17877,0.15097
88.804,0.65827,0.17496,0.17496,0.14836
88.854,0.66739,0.17114,0.17114,0.14575
88.904,0.6765,0.16732,0.16732,0.14313
88.954,0.68562,0.1635,0.1635,0.14052
89.004,0.69473,0.15972,0.15972,0.13791
89.054,0.70385,0.15606,0.15606,0.13529
89.104,0.71297,0.15239,0.15239,0.13268
89.154,0.72208,0.14872,0.14872,0.13007
89.204,0.7312,0.14505,0.14505,0.12746
89.254,0.74031,0.15218,0.14138,0.12484
89.304,0.74943,0.15941,0.13772,0.12223
89.354,0.75855,0.16664,0.13405,0.11962
89.404,0.76766,0.17386,0.13038,0.117
89.454,0.77678,0.18109,0.12671,0.11439
89.504,0.78589,0.18831,0.12305,0.11178
89.554,0.79501,0.19554,0.11956,0.10917
89.604,0.80412,0.20277,0.11619,0.10655
89.654,0.81324,0.20999,0.11282,0.10394
89.704,0.82236,0.21722,0.10945,0.10133
89.754,0.83147,0.22445,0.10608,0.098714
89.804,0.84059,0.23167,0.10271,0.096101
89.854,0.8497,0.2389,0.099346,0.093489
89.904,0.85882,0.24612,0.095977,0.090876
89.954,0.86794,0.25335,0.092609,0.088263
90.004,0.87705,0.26058,0.089241,0.08565
90.054,0.88617,0.2678,0.085873,0.083037
90.104,0.89528,0.27503,0.082504,0.080424
90.154,0.9044,0.28226,0.079136,0.077812
90.204,0.91351,0.28948,0.075768,0.075199
90.254,0.92263,0.29671,0.072631,0.072586
90.304,0.93175,0.30393,0.069974,0.069974
90.354,0.94086,0.31116,0.067361,0.067361
90.404,0.94998,0.31839,0.064748,0.064748
90.454,0.95909,0.32561,0.062136,0.062136
90.504,0.96821,0.33284,0.059523,0.059523
90.554,0.97733,0.34007,0.05691,0.05691
90.604,0.98644,0.34729,0.054298,0.054298
90.654,0.99556,0.35452,0.051685,0.051685
90.704,1.0047,0.36175,0.049073,0.049073
90.754,1.0138,0.36897,0.046461,0.046461
90.804,1.0229,0.3762,0.049728,0.043848
90.854,1.032,0.38343,0.054718,0.041415
90.904,1.0411,0.39065,0.059708,0.039262
90.954,1.0503,0.39788,0.064697,0.037109
91.004,1.0594,0.4051,0.069687,0.034957
91.054,1.0685,0.41233,0.074677,0.032805
91.104,1.0776,0.41956,0.079667,0.030654
91.154,1.0867,0.42678,0.084657,0.028504
91.204,1.0958,0.43401,0.089648,0.026425
91.254,1.1049,0.44124,0.094638,0.024576
91.304,1.1141,0.44846,0.099628,0.022727
91.354,1.1232,0.45569,0.10462,0.021009
91.404,1.1323,0.46292,0.10961,0.019314
91.454,1.1414,0.47014,0.1146,0.01762
91.504,1.1505,0.47737,0.11959,0.015926
91.554,1.1596,0.48459,0.12458,0.014233
91.604,1.1688,0.49182,0.12957,0.012542
91.654,1.1779,0.49905,0.13456,0.010853
91.704,1.187,0.50627,0.13955,0.0091664
91.754,1.1961,0.5135,0.14454,0.011747
91.804,1.2052,0.52073,0.14953,0.014349
91.854,1.2143,0.52795,0.15452,0.016953
91.904,1.2235,0.53518,0.15951,0.019559
91.954,1.2326,0.54241,0.1645,0.022165
92.004,1.2417,0.54963,0.16949,0.024772
92.054,1.2508,0.55686,0.17448,0.02738
92.104,1.2599,0.56408,0.17947,0.029988
92.154,1.269,0.57131,0.18446,0.032596
92.204,1.2781,0.57854,0.18945,0.035204
92.254,1.2873,0.58576,0.19444,0.037813
92.304,1.2964,0.59299,0.19943,0.040421
92.354,1.3055,0.60022,0.20442,0.04303
92.404,1.3146,0.60744,0.20941,0.045639
92.454,1.3237,0.61467,0.21441,0.048247
92.504,1.3328,0.6219,0.2194,0.050856
92.554,1.342,0.62912,0.22439,0.053465
92.604,1.3511,0.63635,0.22938,0.056074
92.654,1.3602,0.64358,0.23437,0.058683
92.704,1.3693,0.6508,0.23936,0.061292
92.754,1.3784,0.65803,0.24435,0.063901
92.804,1.3875,0.66525,0.24934,0.06651
92.854,1.3967,0.67248,0.25433,0.069119
92.904,1.4058,0.67971,0.25932,0.071729
92.954,1.4149,0.68693,0.26431,0.074338
93.004,1.424,0.69416,0.2693,0.076947
93.054,1.4331,0.70139,0.27429,0.079556
93.104,1.4422,0.70861,0.27928,0.082165
93.154,1.4513,0.71584,0.28427,0.084774
93.204,1.4605,0.72307,0.28926,0.087384
93.254,1.4696,0.73029,0.29425,0.089993
93.304,1.4787,0.73752,0.29924,0.092602
93.354,1.4878,0.74475,0.30423,0.095211
93.404,1.4969,0.75197,0.30922,0.097821
93.454,1.506,0.7592,0.31421,0.10043
93.504,1.5152,0.76642,0.3192,0.10304
93.554,1.5243,0.77365,0.32419,0.10565
93.604,1.5334,0.78088,0.32918,0.10826
93.654,1.5425,0.7881,0.33417,0.11087
93.704,1.5516,0.79533,0.33917,0.11348
93.754,1.5607,0.80256,0.34416,0.11609
93.804,1.5699,0.80978,0.34915,0.11869
93.854,1.579,0.81701,0.35414,0.1213
93.904,1.5881,0.82424,0.35913,0.12391
93.954,1.5972,0.83146,0.36412,0.12652
94.004,1.6063,0.83869,0.36911,0.12913
94.054,1.6154,0.84591,0.3741,0.13174
94.104,1.6245,0.85314,0.37909,0.13435
94.154,1.6337,0.86037,0.38408,0.13696
94.204,1.6428,0.86759,0.38907,0.13957
94.254,1.6519,0.87482,0.39406,0.14218
94.304,1.661,0.88205,0.39905,0.14479
94.354,1.6701,0.88927,0.40404,0.1474
94.404,1.6792,0.8965,0.40903,0.15001
94.454,1.6884,0.90373,0.41402,0.15262
94.504,1.6975,0.91095,0.41901,0.15523
94.554,1.7066,0.91818,0.424,0.15783
94.604,1.7157,0.92541,0.42899,0.16044
94.654,1.7248,0.93263,0.43398,0.16305
94.704,1.7339,0.93986,0.43897,0.16566
94.754,1.7431,0.94708,0.44396,0.16827
94.804,1.7522,0.95431,0.44895,0.17088
94.854,1.7613,0.96154,0.45394,0.17349
94.904,1.7704,0.96876,0.45894,0.1761
94.954,1.7795,0.97599,0.46393,0.17871
95.004,1.7886,0.98322,0.46892,0.18132
95.054,1.7977,0.99044,0.47391,0.18393
95.104,1.8069,0.99767,0.4789,0.18654
95.154,1.816,1.0049,0.48389,0.18915
95.204,1.8251,1.0121,0.48888,0.19176
95.254,1.8342,1.0193,0.49387,0.19437
95.304,1.8433,1.0266,0.49886,0.19697
95.354,1.8524,1.0338,0.50385,0.19958
95.404,1.8616,1.041,0.50884,0.20219
95.454,1.8707,1.0483,0.51383,0.2048
95.504,1.8798,1.0555,0.51882,0.20741
95.554,1.8889,1.0627,0.52381,0.21002
95.604,1.898,1.0699,0.5288,0.21263
95.654,1.9071,1.0772,0.53379,0.21524
95.704,1.9163,1.0844,0.53878,0.21785
95.754,1.9254,1.0916,0.54377,0.22046
95.804,1.9345,1.0988,0.54876,0.22307
95.854,1.9436,1.1061,0.55375,0.22568
95.904,1.9527,1.1133,0.55874,0.22829
95.954,1.9618,1.1205,0.56373,0.2309
96.004,1.9709,1.1277,0.56872,0.23351
96.054,1.9801,1.135,0.57371,0.23611
96.104,1.9892,1.1422,0.57871,0.23872
96.154,1.9983,1.1494,0.5837,0.24133
96.204,2.0074,1.1567,0.58869,0.24394
96.254,2.0165,1.1639,0.59368,0.24655
96.304,2.0256,1.1711,0.59867,0.24916
96.354,2.0348,1.1783,0.60366,0.25177
96.404,2.0439,1.1856,0.60865,0.25438
96.454,2.053,1.1928,0.61364,0.25699
96.504,2.0621,1.2,0.61863,0.2596
96.554,2.0712,1.2072,0.62362,0.26221
96.604,2.0803,1.2145,0.62861,0.26482
96.654,2.0895,1.2217,0.6336,0.26743
96.704,2.0986,1.2289,0.63859,0.27004
96.754,2.1077,1.2361,0.64358,0.27265
96.804,2.1168,1.2434,0.64857,0.27526
96.854,2.1259,1.2506,0.65356,0.27786
96.904,2.135,1.2578,0.65855,0.28047
96.954,2.1442,1.265,0.66354,0.28308
97.004,2.1533,1.2723,0.66853,0.28569
97.054,2.1624,1.2795,0.67352,0.2883
97.104,2.1715,1.2867,0.67851,0.29091
97.154,2.1806,1.294,0.6835,0.29352
97.204,2.1897,1.3012,0.68849,0.29613
97.254,2.1988,1.3084,0.69349,0.29874
97.304,2.208,1.3156,0.69848,0.30135
97.354,2.2171,1.3229,0.70347,0.30396
97.404,2.2262,1.3301,0.70846,0.30657
97.454,2.2353,1.3373,0.71345,0.30918
97.504,2.2444,1.3445,0.71844,0.31179
97.554,2.2535,1.3518,0.72343,0.3144
97.604,2.2627,1.359,0.72842,0.317
97.654,2.2718,1.3662,0.73341,0.31961
97.704,2.2809,1.3734,0.7384,0.32222
97.754,2.29,1.3807,0.74339,0.32483
97.804,2.2991,1.3879,0.74838,0.32744
97.854,2.3082,1.3951,0.75337,0.33005
97.904,2.3174,1.4023,0.75836,0.33266
97.954,2.3265,1.4096,0.76335,0.33527
98.004,2.3356,1.4168,0.76834,0.33788
98.054,2.3447,1.424,0.77333,0.34049
98.104,2.3538,1.4313,0.77832,0.3431
98.154,2.3629,1.4385,0.78331,0.34571
98.204,2.372,1.4457,0.7883,0.34832
98.254,2.3812,1.4529,0.79329,0.35093
98.304,2.3903,1.4602,0.79828,0.35354
98.354,2.3994,1.4674,0.80327,0.35615
98.404,2.4085,1.4746,0.80826,0.35875
98.454,2.4176,1.4818,0.81326,0.36136
98.504,2.4267,1.4891,0.81825,0.36397
98.554,2.4359,1.4963,0.82324,0.36658
98.604,2.445,1.5035,0.82823,0.36919
98.654,2.4541,1.5107,0.83322,0.3718
98.704,2.4632,1.518,0.83821,0.37441
98.754,2.4723,1.5252,0.8432,0.37702
98.804,2.4814,1.5324,0.84819,0.37963
98.854,2.4906,1.5397,0.85318,0.38224
98.904,2.4997,1.5469,0.85817,0.38485
98.954,2.5088,1.5541,0.86316,0.38746
99.004,2.5179,1.5613,0.86815,0.39007
99.054,2.527,1.5686,0.87314,0.39268
99.104,2.5361,1.5758,0.87813,0.39529
99.154,2.5452,1.583,0.88312,0.3979
99.204,2.5544,1.5902,0.88811,0.4005
99.254,2.5635,1.5975,0.8931,0.40311
99.304,2.5726,1.6047,0.89809,0.40572
99.354,2.5817,1.6119,0.90308,0.40833
99.404,2.5908,1.6191,0.90807,0.41094
99.454,2.5999,1.6264,0.91306,0.41355
99.504,2.6091,1.6336,0.91805,0.41616
99.554,2.6182,1.6408,0.92304,0.41877
99.604,2.6273,1.648,0.92804,0.42138
99.654,2.6364,1.6553,0.93303,0.42399
99.704,2.6455,1.6625,0.93802,0.4266
99.754,2.6546,1.6697,0.94301,0.42921
99.804,2.6638,1.677,0.948,0.43182
99.854,2.6729,1.6842,0.95299,0.43443
99.904,2.682,1.6914,0.95798,0.43704
99.954,2.6911,1.6986,0.96297,0.43965
100,2.7002,1.7059,0.96796,0.44225
100.05,2.7093,1.7131,0.97295,0.44486
100.1,2.7184,1.7203,0.97794,0.44747
100.15,2.7276,1.7275,0.98293,0.45008
100.2,2.7367,1.7348,0.98792,0.45269
100.25,2.7458,1.742,0.99291,0.4553
100.3,2.7549,1.7492,0.9979,0.45791
100.35,2.764,1.7564,1.0029,0.46052
100.4,2.7731,1.7637,1.0079,0.46313
100.45,2.7823,1.7709,1.0129,0.46574
100.5,2.7914,1.7781,1.0179,0.46835
100.55,2.8005,1.7853,1.0229,0.47096
100.6,2.8096,1.7926,1.0278,0.47357
100.65,2.8187,1.7998,1.0328,0.47618
100.7,2.8278,1.807,1.0378,0.47879
100.75,2.837,1.8143,1.0428,0.4814
100.8,2.8461,1.8215,1.0478,0.484
100.85,2.8552,1.8287,1.0528,0.48661
100.9,2.8643,1.8359,1.0578,0.48922
100.95,2.8734,1.8432,1.0628,0.49183
101,2.8825,1.8504,1.0678,0.49444
101.05,2.8916,1.8576,1.0728,0.49705
101.1,2.9008,1.8648,1.0777,0.49966
101.15,2.9099,1.8721,1.0827,0.50227
101.2,2.919,1.8793,1.0877,0.50488
101.25,2.9281,1.8865,1.0927,0.50749
101.3,2.9372,1.8937,1.0977,0.5101
101.35,2.9463,1.901,1.1027,0.51271
101.4,2.9555,1.9082,1.1077,0.51532
101.45,2.9646,1.9154,1.1127,0.51793
101.5,2.9737,1.9227,1.1177,0.52054
101.55,2.9828,1.9299,1.1227,0.52315
101.6,2.9919,1.9371,1.1277,0.52575
101.65,3.001,1.9443,1.1326,0.52836
101.7,3.0102,1.9516,1.1376,0.53097
101.75,3.0193,1.9588,1.1426,0.53358
101.8,3.0284,1.966,1.1476,0.53619
101.85,3.0375,1.9732,1.1526,0.5388
